<svg xmlns="http://www.w3.org/2000/svg" viewBox="0 0 17.79 23.62">
    <g id="windmill" data-name="windmill" fill="#604C88">
        <path d="M15.55,21.37l-.24.12a3.09,3.09,0,0,1-1.46.39,2.52,2.52,0,0,1-1.53-.46l0,0a2.16,2.16,0,0,0-2.36,0l0,0a2.6,2.6,0,0,1-1.52.46,2.6,2.6,0,0,1-1.52-.46l0,0A2,2,0,0,0,5.63,21a2.29,2.29,0,0,0-1.25.34,2.53,2.53,0,0,1-1.52.46,2.53,2.53,0,0,1-1.52-.46l0,0A2,2,0,0,0,.14,21H0v1.74H.14A1.29,1.29,0,0,1,1,23l.12.06a3.13,3.13,0,0,0,1.76.52A3.13,3.13,0,0,0,4.74,23l0,0a1.34,1.34,0,0,1,.86-.28,1.48,1.48,0,0,1,.91.3l.1.06a3.2,3.2,0,0,0,1.77.52A3.07,3.07,0,0,0,10.28,23l0,0a1.34,1.34,0,0,1,.86-.28,1.48,1.48,0,0,1,.91.3l.1.06a3.2,3.2,0,0,0,1.77.52A3.13,3.13,0,0,0,15.84,23a1.26,1.26,0,0,1,.61-.28l.12,0V21l-.16,0a2.1,2.1,0,0,0-.86.35"/>
        <path d="M9.4,9.3A1.12,1.12,0,1,1,8.29,8.18,1.11,1.11,0,0,1,9.4,9.3"/>
        <path d="M5.4,0,6.48,5.58A2.18,2.18,0,0,0,9,7.3L8,1.76A2.17,2.17,0,0,0,5.4,0"/>
        <path d="M1.72,16.44,6,12.72a2.17,2.17,0,0,0,.2-3.06L1.92,13.38a2.17,2.17,0,0,0-.2,3.06"/>
        <path d="M17.79,11.36l-5.37-1.8a2.19,2.19,0,0,0-2.76,1.37L15,12.73a2.19,2.19,0,0,0,2.76-1.37"/>
        <path d="M8.29,20.48a2.35,2.35,0,0,0,1.43-.56c-.11-2.91-.31-6.76-.5-7.53a.93.93,0,0,0-1.86,0c-.19.76-.39,4.56-.5,7.46a2.28,2.28,0,0,0,1.43.63"/>
    </g>
</svg>
