<svg width="375" height="667" viewBox="0 0 375 667" fill="none" xmlns="http://www.w3.org/2000/svg">
<path d="M126.805 81.5548L120.589 95.8922C120.118 96.9837 119.298 97.7977 118.325 98.1307L114.389 99.4812L117.641 84.6998L101.139 90.3423C100.075 90.7123 98.9352 90.2313 98.2818 89.1583L90 75.6904L94.9539 73.9884L101.777 80.0009L135.664 68.4015C139.888 66.9585 145.83 69.456 147 74.6359L126.805 81.5548Z" fill="#4099DA"/>
<path d="M122.459 87.4924L113.007 80.5549C112.262 79.9999 111.366 79.8519 110.515 80.1479L106.381 81.5539L113.903 90.4153L122.459 87.4924Z" fill="#4099DA"/>
<path d="M196.656 87H200.108L191.939 70.6413L183.792 87H187.244L188.595 84.127H195.305L196.656 87ZM189.817 81.5328L191.939 77.0304L194.062 81.5328H189.817ZM202.821 74.2218C203.807 74.2218 204.622 73.407 204.622 72.4851C204.622 71.5846 203.807 70.7485 202.821 70.7485C201.834 70.7485 201.02 71.5846 201.02 72.4851C201.02 73.407 201.834 74.2218 202.821 74.2218ZM201.298 87H204.322V75.9155H201.298V87ZM213.586 75.7011C212.171 75.7654 210.906 76.1514 209.577 77.2234V75.9155H206.554V87H209.577V80.2678C210.627 79.3245 212.042 78.767 213.586 78.7027V75.7011ZM220.062 87.2144C221.927 87.2144 223.6 86.3997 224.672 85.1347L222.742 83.1194C222.206 83.8483 221.263 84.4272 220.212 84.4272C218.583 84.4272 217.253 83.1408 217.253 81.4256C217.253 79.7533 218.475 78.4883 220.169 78.4883C221.091 78.4883 221.884 78.8957 222.42 79.4317L224.264 77.3734C223.149 76.28 221.734 75.7011 220.083 75.7011C216.846 75.7011 214.209 78.0381 214.209 81.4256C214.209 84.8346 216.846 87.2144 220.062 87.2144ZM233.121 75.7011C231.706 75.7654 230.441 76.1514 229.112 77.2234V75.9155H226.088V87H229.112V80.2678C230.162 79.3245 231.577 78.767 233.121 78.7027V75.7011ZM242.255 75.9155V76.6659C241.419 76.0013 240.433 75.7011 239.318 75.7011C236.166 75.7011 233.744 78.1667 233.744 81.447C233.744 84.7274 236.166 87.2144 239.361 87.2144C240.454 87.2144 241.505 86.9142 242.255 86.1638V87H245.278V75.9155H242.255ZM239.79 84.4915C238.117 84.4915 236.788 83.248 236.788 81.447C236.788 79.6675 238.117 78.424 239.79 78.424C240.776 78.424 241.676 78.8099 242.255 79.496V83.4195C241.676 84.1056 240.776 84.4915 239.79 84.4915ZM251.603 75.1866C251.603 74.1146 252.01 73.4928 252.975 73.4928C253.425 73.4928 253.811 73.6 254.09 73.7072L254.797 71.2416C254.132 71.0058 253.339 70.8128 252.46 70.8128C250.102 70.8128 248.58 72.335 248.58 74.9722V75.9155H246.779V78.6813H248.58V87H251.603V78.6813H253.768L254.497 75.9155H251.603V75.1866ZM263.068 83.9984C262.618 84.2771 262.146 84.5344 261.546 84.5344C260.688 84.5344 259.895 83.9341 259.895 82.519V78.6813H262.296L263.025 75.9155H259.895V72.3779H256.872V75.9155H254.985V78.6813H256.872V82.9478C256.872 85.7779 258.63 87.2144 261.074 87.2144C262.017 87.2144 262.854 87 263.947 86.4211L263.068 83.9984Z" fill="#4099DA"/>
<path d="M59.9046 137H61.2486V125.08H59.9046V137ZM67.5716 128.568C66.5476 128.568 65.6516 128.92 64.9156 129.592V128.728H63.6356V137H64.9156V130.92C65.5076 130.28 66.3076 129.768 67.3316 129.768C68.6596 129.768 69.5076 130.744 69.5076 132.2V137H70.7876V132.184C70.7876 130.008 69.4916 128.568 67.5716 128.568ZM76.7398 137.16C77.7638 137.16 78.7238 136.808 79.4118 136.152V137H80.7078V125.08H79.4118V129.512C78.7078 128.904 77.7638 128.568 76.7238 128.568C74.3558 128.568 72.5638 130.408 72.5638 132.856C72.5638 135.304 74.3558 137.16 76.7398 137.16ZM76.8358 135.96C75.1558 135.96 73.8918 134.648 73.8918 132.856C73.8918 131.08 75.1558 129.768 76.8358 129.768C77.8758 129.768 78.8838 130.216 79.4118 130.936V134.792C78.8838 135.512 77.8758 135.96 76.8358 135.96ZM83.5725 127.144C84.0845 127.144 84.5005 126.744 84.5005 126.232C84.5005 125.752 84.0845 125.336 83.5725 125.336C83.0925 125.336 82.6605 125.752 82.6605 126.232C82.6605 126.744 83.0925 127.144 83.5725 127.144ZM82.9165 137H84.2125V128.728H82.9165V137ZM90.7849 128.568C89.8089 128.584 88.6729 128.952 87.6969 129.752V128.728H86.4009V137H87.6969V131.112C88.4649 130.392 89.5849 129.88 90.7849 129.864V128.568ZM95.5076 137.16C96.9956 137.16 98.1476 136.536 98.8996 135.688L98.0836 134.856C97.4916 135.528 96.6756 135.992 95.5076 135.992C93.9076 135.992 92.6916 134.84 92.5316 133.272H99.2356C99.2516 133.128 99.2676 132.92 99.2676 132.696C99.2676 130.376 97.6356 128.568 95.3636 128.568C92.9956 128.568 91.2356 130.376 91.2356 132.84C91.2356 135.304 93.0756 137.16 95.5076 137.16ZM92.5476 132.248C92.7396 130.76 93.8436 129.656 95.3476 129.656C96.7716 129.656 97.8596 130.76 97.9716 132.248H92.5476ZM104.836 137.16C106.164 137.16 107.396 136.568 108.18 135.656L107.332 134.776C106.82 135.464 105.86 135.96 104.868 135.96C103.172 135.96 101.892 134.616 101.892 132.856C101.892 131.096 103.14 129.768 104.852 129.768C105.652 129.768 106.484 130.12 107.028 130.632L107.812 129.688C107.028 128.968 106.036 128.568 104.836 128.568C102.436 128.568 100.564 130.376 100.564 132.856C100.564 135.336 102.436 137.16 104.836 137.16ZM114.514 135.64C114.194 135.832 113.842 135.976 113.426 135.976C112.61 135.976 111.858 135.384 111.858 134.152V129.928H113.986L114.354 128.728H111.858V126.088H110.578V128.728H109.01V129.928H110.578V134.28C110.578 136.104 111.714 137.16 113.314 137.16C113.874 137.16 114.338 137.016 114.914 136.712L114.514 135.64ZM124.32 137.16C125.808 137.16 126.96 136.536 127.712 135.688L126.896 134.856C126.304 135.528 125.488 135.992 124.32 135.992C122.72 135.992 121.504 134.84 121.344 133.272H128.048C128.064 133.128 128.08 132.92 128.08 132.696C128.08 130.376 126.448 128.568 124.176 128.568C121.808 128.568 120.048 130.376 120.048 132.84C120.048 135.304 121.888 137.16 124.32 137.16ZM121.36 132.248C121.552 130.76 122.656 129.656 124.16 129.656C125.584 129.656 126.672 130.76 126.784 132.248H121.36ZM132.224 137.16C132.56 137.16 132.96 137.112 133.296 136.968L133.088 135.848C132.848 135.912 132.608 135.96 132.384 135.96C131.456 135.96 130.96 135.368 130.96 134.264V125.08H129.68V134.376C129.68 136.2 130.64 137.16 132.224 137.16ZM137.945 137.16C139.433 137.16 140.585 136.536 141.337 135.688L140.521 134.856C139.929 135.528 139.113 135.992 137.945 135.992C136.345 135.992 135.129 134.84 134.969 133.272H141.673C141.689 133.128 141.705 132.92 141.705 132.696C141.705 130.376 140.073 128.568 137.801 128.568C135.433 128.568 133.673 130.376 133.673 132.84C133.673 135.304 135.513 137.16 137.945 137.16ZM134.985 132.248C135.177 130.76 136.281 129.656 137.785 129.656C139.209 129.656 140.297 130.76 140.409 132.248H134.985ZM147.273 137.16C148.601 137.16 149.833 136.568 150.617 135.656L149.769 134.776C149.257 135.464 148.297 135.96 147.305 135.96C145.609 135.96 144.329 134.616 144.329 132.856C144.329 131.096 145.577 129.768 147.289 129.768C148.089 129.768 148.921 130.12 149.465 130.632L150.249 129.688C149.465 128.968 148.473 128.568 147.273 128.568C144.873 128.568 143.001 130.376 143.001 132.856C143.001 135.336 144.873 137.16 147.273 137.16ZM156.951 135.64C156.631 135.832 156.279 135.976 155.863 135.976C155.047 135.976 154.295 135.384 154.295 134.152V129.928H156.423L156.791 128.728H154.295V126.088H153.015V128.728H151.447V129.928H153.015V134.28C153.015 136.104 154.151 137.16 155.751 137.16C156.311 137.16 156.775 137.016 157.351 136.712L156.951 135.64ZM163.363 128.568C162.387 128.584 161.251 128.952 160.275 129.752V128.728H158.979V137H160.275V131.112C161.043 130.392 162.163 129.88 163.363 129.864V128.568ZM165.463 127.144C165.975 127.144 166.391 126.744 166.391 126.232C166.391 125.752 165.975 125.336 165.463 125.336C164.983 125.336 164.551 125.752 164.551 126.232C164.551 126.744 164.983 127.144 165.463 127.144ZM164.807 137H166.103V128.728H164.807V137ZM170.436 127.736C170.436 126.68 170.852 126.104 171.732 126.104C172.02 126.104 172.308 126.168 172.564 126.232L172.884 125.16C172.532 125.016 172.052 124.92 171.604 124.92C170.148 124.92 169.14 125.848 169.14 127.688V128.728H167.572V129.928H169.14V137H170.436V129.928H172.212L172.596 128.728H170.436V127.736ZM174.76 127.144C175.272 127.144 175.688 126.744 175.688 126.232C175.688 125.752 175.272 125.336 174.76 125.336C174.28 125.336 173.848 125.752 173.848 126.232C173.848 126.744 174.28 127.144 174.76 127.144ZM174.104 137H175.4V128.728H174.104V137ZM181.476 137.16C182.804 137.16 184.036 136.568 184.82 135.656L183.972 134.776C183.46 135.464 182.5 135.96 181.508 135.96C179.812 135.96 178.532 134.616 178.532 132.856C178.532 131.096 179.78 129.768 181.492 129.768C182.292 129.768 183.124 130.12 183.668 130.632L184.452 129.688C183.668 128.968 182.676 128.568 181.476 128.568C179.076 128.568 177.204 130.376 177.204 132.856C177.204 135.336 179.076 137.16 181.476 137.16ZM192.443 128.728V129.512C191.739 128.904 190.795 128.568 189.755 128.568C187.387 128.568 185.595 130.408 185.595 132.856C185.595 135.304 187.387 137.16 189.771 137.16C190.795 137.16 191.755 136.808 192.443 136.152V137H193.739V128.728H192.443ZM189.867 135.96C188.187 135.96 186.923 134.648 186.923 132.856C186.923 131.08 188.187 129.768 189.867 129.768C190.907 129.768 191.915 130.216 192.443 130.936V134.792C191.915 135.512 190.907 135.96 189.867 135.96ZM200.764 135.64C200.444 135.832 200.092 135.976 199.676 135.976C198.86 135.976 198.108 135.384 198.108 134.152V129.928H200.236L200.604 128.728H198.108V126.088H196.828V128.728H195.26V129.928H196.828V134.28C196.828 136.104 197.964 137.16 199.564 137.16C200.124 137.16 200.588 137.016 201.164 136.712L200.764 135.64ZM203.448 127.144C203.96 127.144 204.376 126.744 204.376 126.232C204.376 125.752 203.96 125.336 203.448 125.336C202.968 125.336 202.536 125.752 202.536 126.232C202.536 126.744 202.968 127.144 203.448 127.144ZM202.792 137H204.088V128.728H202.792V137ZM210.212 137.16C212.66 137.16 214.516 135.32 214.516 132.856C214.516 130.408 212.66 128.568 210.212 128.568C207.748 128.568 205.892 130.408 205.892 132.856C205.892 135.32 207.748 137.16 210.212 137.16ZM210.212 135.96C208.5 135.96 207.22 134.632 207.22 132.856C207.22 131.096 208.5 129.768 210.212 129.768C211.908 129.768 213.204 131.096 213.204 132.856C213.204 134.632 211.908 135.96 210.212 135.96ZM220.306 128.568C219.282 128.568 218.386 128.92 217.65 129.592V128.728H216.37V137H217.65V130.92C218.242 130.28 219.042 129.768 220.066 129.768C221.394 129.768 222.242 130.744 222.242 132.2V137H223.522V132.184C223.522 130.008 222.226 128.568 220.306 128.568ZM240.565 128.728C240.229 131.4 239.141 133.608 237.733 135.208L235.189 128.728H233.765L234.997 131.656C234.453 133.064 233.701 134.264 232.789 135.272L230.101 128.728H228.693L232.341 137.16C233.573 136.312 234.741 134.888 235.605 133.128L237.301 137.16C239.525 135.656 241.477 132.408 241.909 128.728H240.565ZM244.166 127.144C244.678 127.144 245.094 126.744 245.094 126.232C245.094 125.752 244.678 125.336 244.166 125.336C243.686 125.336 243.254 125.752 243.254 126.232C243.254 126.744 243.686 127.144 244.166 127.144ZM243.51 137H244.806V128.728H243.51V137ZM251.811 135.64C251.491 135.832 251.139 135.976 250.723 135.976C249.907 135.976 249.155 135.384 249.155 134.152V129.928H251.283L251.651 128.728H249.155V126.088H247.875V128.728H246.307V129.928H247.875V134.28C247.875 136.104 249.011 137.16 250.611 137.16C251.171 137.16 251.635 137.016 252.211 136.712L251.811 135.64ZM257.79 128.568C256.766 128.568 255.87 128.92 255.134 129.592V125.08H253.854V137H255.134V130.92C255.726 130.28 256.526 129.768 257.55 129.768C258.878 129.768 259.726 130.744 259.726 132.2V137H261.006V132.184C261.006 130.008 259.71 128.568 257.79 128.568ZM268.561 135.72V131.416H273.313V130.168H268.561V126.36H273.953L274.369 125.08H267.217V137H274.033L274.417 135.72H268.561ZM275.656 132.792H279.544V131.576H275.656V132.792ZM283.092 127.736C283.092 126.68 283.508 126.104 284.388 126.104C284.676 126.104 284.964 126.168 285.22 126.232L285.54 125.16C285.188 125.016 284.708 124.92 284.26 124.92C282.804 124.92 281.796 125.848 281.796 127.688V128.728H280.228V129.928H281.796V137H283.092V129.928H284.868L285.252 128.728H283.092V127.736ZM289.928 137.16C290.952 137.16 291.848 136.808 292.584 136.136V137H293.864V128.728H292.584V134.808C291.992 135.448 291.192 135.96 290.168 135.96C288.84 135.96 287.992 134.984 287.992 133.528V128.728H286.712V133.544C286.712 135.72 288.008 137.16 289.928 137.16ZM299.976 137.16C301.464 137.16 302.616 136.536 303.368 135.688L302.552 134.856C301.96 135.528 301.144 135.992 299.976 135.992C298.376 135.992 297.16 134.84 297 133.272H303.704C303.72 133.128 303.736 132.92 303.736 132.696C303.736 130.376 302.104 128.568 299.832 128.568C297.464 128.568 295.704 130.376 295.704 132.84C295.704 135.304 297.544 137.16 299.976 137.16ZM297.016 132.248C297.208 130.76 298.312 129.656 299.816 129.656C301.24 129.656 302.328 130.76 302.44 132.248H297.016ZM307.881 137.16C308.217 137.16 308.617 137.112 308.953 136.968L308.745 135.848C308.505 135.912 308.265 135.96 308.041 135.96C307.113 135.96 306.617 135.368 306.617 134.264V125.08H305.337V134.376C305.337 136.2 306.297 137.16 307.881 137.16ZM312.854 137.16C314.55 137.16 315.558 136.152 315.558 134.712C315.558 133.384 314.662 132.632 313.014 132.136C312.134 131.88 311.302 131.64 311.302 130.84C311.302 130.168 311.91 129.72 312.822 129.72C313.494 129.72 314.166 129.976 314.71 130.472L315.366 129.544C314.694 128.92 313.814 128.568 312.806 128.568C311.206 128.568 310.022 129.528 310.022 130.872C310.022 132.312 311.318 132.904 312.55 133.272C313.478 133.56 314.278 133.88 314.278 134.76C314.278 135.464 313.766 136.008 312.838 136.008C311.974 136.008 311.078 135.592 310.422 134.856L309.67 135.784C310.454 136.616 311.59 137.16 312.854 137.16Z" fill="#3B4956"/>
<rect width="200" height="48" transform="translate(77.75 181)" fill="#4099DA"/>
<path d="M98.2723 206.584C99.6003 205.928 100.4 204.696 100.4 203.112C100.4 200.68 98.5603 199.08 95.8083 199.08H91.2803V211H93.6483V207.112H95.8083H95.8883C96.7363 209.304 98.4483 210.92 100.656 211.16L101.152 208.984C99.8403 208.744 98.8003 207.88 98.2723 206.584ZM93.6483 201.336H95.6963C97.1683 201.336 97.9683 201.96 97.9683 203.112C97.9683 204.264 97.1683 204.856 95.6963 204.856H93.6483V201.336ZM106.094 211.16C107.566 211.16 108.782 210.568 109.566 209.672L108.174 208.296C107.758 208.808 107.022 209.192 106.078 209.192C104.942 209.192 104.11 208.472 103.934 207.496H109.918C109.95 207.336 109.982 207.08 109.982 206.776C109.982 204.392 108.366 202.568 105.966 202.568C103.518 202.568 101.678 204.312 101.678 206.856C101.678 209.32 103.566 211.16 106.094 211.16ZM103.934 205.992C104.11 205.048 104.83 204.36 105.886 204.36C106.894 204.36 107.662 205.048 107.758 205.992H103.934ZM115.887 202.568C114.943 202.568 114.191 202.84 113.471 203.416V202.728H111.215V211H113.471V205.496C113.967 205.016 114.607 204.648 115.359 204.648C116.399 204.648 116.975 205.336 116.975 206.52V211H119.231V206.296C119.231 204.056 117.871 202.568 115.887 202.568ZM124.953 211.16C126.425 211.16 127.641 210.568 128.425 209.672L127.033 208.296C126.617 208.808 125.881 209.192 124.937 209.192C123.801 209.192 122.969 208.472 122.793 207.496H128.777C128.809 207.336 128.841 207.08 128.841 206.776C128.841 204.392 127.225 202.568 124.825 202.568C122.377 202.568 120.537 204.312 120.537 206.856C120.537 209.32 122.425 211.16 124.953 211.16ZM122.793 205.992C122.969 205.048 123.689 204.36 124.745 204.36C125.753 204.36 126.521 205.048 126.617 205.992H122.793ZM140.427 202.728C140.219 204.712 139.595 206.408 138.363 207.88L136.315 202.728H133.899L135.019 205.272C134.635 206.248 134.107 207.144 133.339 208.024L131.115 202.728H128.699L132.571 211.16C133.947 210.392 135.179 209.128 136.059 207.608L137.643 211.16C140.507 209.656 142.395 206.344 142.763 202.728H140.427ZM149.592 202.728V203.288C148.968 202.792 148.232 202.568 147.4 202.568C145.048 202.568 143.24 204.408 143.24 206.856C143.24 209.304 145.048 211.16 147.432 211.16C148.248 211.16 149.032 210.936 149.592 210.376V211H151.848V202.728H149.592ZM147.752 209.128C146.504 209.128 145.512 208.2 145.512 206.856C145.512 205.528 146.504 204.6 147.752 204.6C148.488 204.6 149.16 204.888 149.592 205.4V208.328C149.16 208.84 148.488 209.128 147.752 209.128ZM157.928 211.16C160.312 211.16 162.136 209.304 162.136 206.856C162.136 204.408 160.312 202.568 157.96 202.568C157.128 202.568 156.408 202.792 155.768 203.288V199.08H153.512V211H155.768V210.376C156.344 210.936 157.112 211.16 157.928 211.16ZM157.624 209.128C156.888 209.128 156.2 208.84 155.768 208.328V205.4C156.2 204.888 156.888 204.6 157.624 204.6C158.856 204.6 159.848 205.528 159.848 206.856C159.848 208.2 158.856 209.128 157.624 209.128ZM166.391 211.16C166.823 211.16 167.319 211.096 167.767 210.936L167.495 208.968C167.271 209.016 167.063 209.08 166.839 209.08C166.039 209.08 165.671 208.616 165.671 207.784V199.08H163.415V208.056C163.415 209.992 164.583 211.16 166.391 211.16ZM172.406 211.16C173.878 211.16 175.094 210.568 175.878 209.672L174.486 208.296C174.07 208.808 173.334 209.192 172.39 209.192C171.254 209.192 170.422 208.472 170.246 207.496H176.23C176.262 207.336 176.294 207.08 176.294 206.776C176.294 204.392 174.678 202.568 172.278 202.568C169.83 202.568 167.99 204.312 167.99 206.856C167.99 209.32 169.878 211.16 172.406 211.16ZM170.246 205.992C170.422 205.048 171.142 204.36 172.198 204.36C173.206 204.36 173.974 205.048 174.07 205.992H170.246ZM183.984 214.36C187.44 214.312 189.584 212.536 189.584 208.92V202.728H187.328V203.32C186.736 202.824 186.016 202.568 185.136 202.568C182.736 202.568 180.928 204.424 180.928 206.792C180.928 209.128 182.672 210.856 185.088 210.856C185.968 210.856 186.704 210.6 187.296 210.072C187.072 211.672 185.856 212.344 183.984 212.424V214.36ZM185.44 209.016C184.192 209.016 183.2 208.088 183.2 206.76C183.2 205.496 184.192 204.552 185.44 204.552C186.304 204.552 186.992 204.952 187.328 205.448V208.12C186.992 208.632 186.304 209.016 185.44 209.016ZM195.406 211.16C196.878 211.16 198.094 210.568 198.878 209.672L197.486 208.296C197.07 208.808 196.334 209.192 195.39 209.192C194.254 209.192 193.422 208.472 193.246 207.496H199.23C199.262 207.336 199.294 207.08 199.294 206.776C199.294 204.392 197.678 202.568 195.278 202.568C192.83 202.568 190.99 204.312 190.99 206.856C190.99 209.32 192.878 211.16 195.406 211.16ZM193.246 205.992C193.422 205.048 194.142 204.36 195.198 204.36C196.206 204.36 196.974 205.048 197.07 205.992H193.246ZM205.199 202.568C204.255 202.568 203.503 202.84 202.783 203.416V202.728H200.527V211H202.783V205.496C203.279 205.016 203.919 204.648 204.671 204.648C205.711 204.648 206.287 205.336 206.287 206.52V211H208.543V206.296C208.543 204.056 207.183 202.568 205.199 202.568ZM214.265 211.16C215.737 211.16 216.953 210.568 217.737 209.672L216.345 208.296C215.929 208.808 215.193 209.192 214.249 209.192C213.113 209.192 212.281 208.472 212.105 207.496H218.089C218.121 207.336 218.153 207.08 218.153 206.776C218.153 204.392 216.537 202.568 214.137 202.568C211.689 202.568 209.849 204.312 209.849 206.856C209.849 209.32 211.737 211.16 214.265 211.16ZM212.105 205.992C212.281 205.048 213.001 204.36 214.057 204.36C215.065 204.36 215.833 205.048 215.929 205.992H212.105ZM224.635 202.568C223.579 202.616 222.635 202.904 221.643 203.704V202.728H219.387V211H221.643V205.976C222.427 205.272 223.483 204.856 224.635 204.808V202.568ZM231.451 202.728V203.288C230.827 202.792 230.091 202.568 229.259 202.568C226.907 202.568 225.099 204.408 225.099 206.856C225.099 209.304 226.907 211.16 229.291 211.16C230.107 211.16 230.891 210.936 231.451 210.376V211H233.707V202.728H231.451ZM229.611 209.128C228.363 209.128 227.371 208.2 227.371 206.856C227.371 205.528 228.363 204.6 229.611 204.6C230.347 204.6 231.019 204.888 231.451 205.4V208.328C231.019 208.84 230.347 209.128 229.611 209.128ZM240.827 208.76C240.491 208.968 240.139 209.16 239.691 209.16C239.051 209.16 238.459 208.712 238.459 207.656V204.792H240.251L240.795 202.728H238.459V200.088H236.203V202.728H234.795V204.792H236.203V207.976C236.203 210.088 237.515 211.16 239.339 211.16C240.043 211.16 240.667 211 241.483 210.568L240.827 208.76ZM243.726 201.464C244.462 201.464 245.07 200.856 245.07 200.168C245.07 199.496 244.462 198.872 243.726 198.872C242.99 198.872 242.382 199.496 242.382 200.168C242.382 200.856 242.99 201.464 243.726 201.464ZM242.59 211H244.846V202.728H242.59V211ZM250.656 211.16C253.152 211.16 255.04 209.304 255.04 206.856C255.04 204.408 253.152 202.568 250.656 202.568C248.144 202.568 246.256 204.408 246.256 206.856C246.256 209.304 248.144 211.16 250.656 211.16ZM250.656 209.08C249.44 209.08 248.528 208.152 248.528 206.856C248.528 205.576 249.44 204.648 250.656 204.648C251.856 204.648 252.752 205.576 252.752 206.856C252.752 208.152 251.856 209.08 250.656 209.08ZM261.106 202.568C260.162 202.568 259.41 202.84 258.69 203.416V202.728H256.434V211H258.69V205.496C259.186 205.016 259.826 204.648 260.578 204.648C261.618 204.648 262.194 205.336 262.194 206.52V211H264.45V206.296C264.45 204.056 263.09 202.568 261.106 202.568Z" fill="white"/>
<rect width="101" height="64" transform="translate(127.25 229)" fill="#EBEDEE"/>
<path d="M146.421 263.632H150.159V261.77H146.421V259.544H150.677L151.195 257.57H144.349V268H150.705L151.195 266.026H146.421V263.632ZM154.809 268.14C155.187 268.14 155.621 268.084 156.013 267.944L155.775 266.222C155.579 266.264 155.397 266.32 155.201 266.32C154.501 266.32 154.179 265.914 154.179 265.186V257.57H152.205V265.424C152.205 267.118 153.227 268.14 154.809 268.14ZM160.072 268.14C161.36 268.14 162.424 267.622 163.11 266.838L161.892 265.634C161.528 266.082 160.884 266.418 160.058 266.418C159.064 266.418 158.336 265.788 158.182 264.934H163.418C163.446 264.794 163.474 264.57 163.474 264.304C163.474 262.218 162.06 260.622 159.96 260.622C157.818 260.622 156.208 262.148 156.208 264.374C156.208 266.53 157.86 268.14 160.072 268.14ZM158.182 263.618C158.336 262.792 158.966 262.19 159.89 262.19C160.772 262.19 161.444 262.792 161.528 263.618H158.182ZM168.151 268.14C169.369 268.14 170.461 267.608 171.161 266.782L169.901 265.466C169.551 265.942 168.935 266.32 168.249 266.32C167.185 266.32 166.317 265.48 166.317 264.36C166.317 263.268 167.115 262.442 168.221 262.442C168.823 262.442 169.341 262.708 169.691 263.058L170.895 261.714C170.167 261 169.243 260.622 168.165 260.622C166.051 260.622 164.329 262.148 164.329 264.36C164.329 266.586 166.051 268.14 168.151 268.14ZM176.86 266.04C176.566 266.222 176.258 266.39 175.866 266.39C175.306 266.39 174.788 265.998 174.788 265.074V262.568H176.356L176.832 260.762H174.788V258.452H172.814V260.762H171.582V262.568H172.814V265.354C172.814 267.202 173.962 268.14 175.558 268.14C176.174 268.14 176.72 268 177.434 267.622L176.86 266.04ZM182.995 260.622C182.071 260.664 181.245 260.916 180.377 261.616V260.762H178.403V268H180.377V263.604C181.063 262.988 181.987 262.624 182.995 262.582V260.622ZM185.002 259.656C185.646 259.656 186.178 259.124 186.178 258.522C186.178 257.934 185.646 257.388 185.002 257.388C184.358 257.388 183.826 257.934 183.826 258.522C183.826 259.124 184.358 259.656 185.002 259.656ZM184.008 268H185.982V260.762H184.008V268ZM191.038 268.14C192.256 268.14 193.348 267.608 194.048 266.782L192.788 265.466C192.438 265.942 191.822 266.32 191.136 266.32C190.072 266.32 189.204 265.48 189.204 264.36C189.204 263.268 190.002 262.442 191.108 262.442C191.71 262.442 192.228 262.708 192.578 263.058L193.782 261.714C193.054 261 192.13 260.622 191.052 260.622C188.938 260.622 187.216 262.148 187.216 264.36C187.216 266.586 188.938 268.14 191.038 268.14ZM195.967 259.656C196.611 259.656 197.143 259.124 197.143 258.522C197.143 257.934 196.611 257.388 195.967 257.388C195.323 257.388 194.791 257.934 194.791 258.522C194.791 259.124 195.323 259.656 195.967 259.656ZM194.973 268H196.947V260.762H194.973V268ZM203.179 266.04C202.885 266.222 202.577 266.39 202.185 266.39C201.625 266.39 201.107 265.998 201.107 265.074V262.568H202.675L203.151 260.762H201.107V258.452H199.133V260.762H197.901V262.568H199.133V265.354C199.133 267.202 200.281 268.14 201.877 268.14C202.493 268.14 203.039 268 203.753 267.622L203.179 266.04ZM209.732 260.762C209.466 262.708 208.864 264.444 208.024 265.788L205.98 260.762H203.852L206.68 267.482C205.826 268.266 204.776 268.84 203.432 269.19L203.852 270.94C205.826 270.45 207.408 269.414 208.696 268C210.334 266.166 211.398 263.632 211.776 260.762H209.732Z" fill="#3B4956"/>
<path d="M228.25 293L176.009 313L127.25 293L228.25 293Z" fill="#EBEDEE"/>
<rect width="200" height="48" transform="translate(77.75 313)" fill="#4099DA"/>
<path d="M137.461 338.008H141.733V335.88H137.461V333.336H142.325L142.917 331.08H135.093V343H142.357L142.917 340.744H137.461V338.008ZM147.048 343.16C147.48 343.16 147.976 343.096 148.424 342.936L148.152 340.968C147.928 341.016 147.72 341.08 147.496 341.08C146.696 341.08 146.328 340.616 146.328 339.784V331.08H144.072V340.056C144.072 341.992 145.24 343.16 147.048 343.16ZM153.062 343.16C154.534 343.16 155.75 342.568 156.534 341.672L155.142 340.296C154.726 340.808 153.99 341.192 153.046 341.192C151.91 341.192 151.078 340.472 150.902 339.496H156.886C156.918 339.336 156.95 339.08 156.95 338.776C156.95 336.392 155.334 334.568 152.934 334.568C150.486 334.568 148.646 336.312 148.646 338.856C148.646 341.32 150.534 343.16 153.062 343.16ZM150.902 337.992C151.078 337.048 151.798 336.36 152.854 336.36C153.862 336.36 154.63 337.048 154.726 337.992H150.902ZM162.296 343.16C163.688 343.16 164.936 342.552 165.736 341.608L164.296 340.104C163.896 340.648 163.192 341.08 162.408 341.08C161.192 341.08 160.2 340.12 160.2 338.84C160.2 337.592 161.112 336.648 162.376 336.648C163.064 336.648 163.656 336.952 164.056 337.352L165.432 335.816C164.6 335 163.544 334.568 162.312 334.568C159.896 334.568 157.928 336.312 157.928 338.84C157.928 341.384 159.896 343.16 162.296 343.16ZM172.249 340.76C171.913 340.968 171.561 341.16 171.113 341.16C170.473 341.16 169.881 340.712 169.881 339.656V336.792H171.673L172.217 334.728H169.881V332.088H167.625V334.728H166.217V336.792H167.625V339.976C167.625 342.088 168.937 343.16 170.761 343.16C171.465 343.16 172.089 343 172.905 342.568L172.249 340.76ZM179.26 334.568C178.204 334.616 177.26 334.904 176.268 335.704V334.728H174.012V343H176.268V337.976C177.052 337.272 178.108 336.856 179.26 336.808V334.568ZM184.124 343.16C186.62 343.16 188.508 341.304 188.508 338.856C188.508 336.408 186.62 334.568 184.124 334.568C181.612 334.568 179.724 336.408 179.724 338.856C179.724 341.304 181.612 343.16 184.124 343.16ZM184.124 341.08C182.908 341.08 181.996 340.152 181.996 338.856C181.996 337.576 182.908 336.648 184.124 336.648C185.324 336.648 186.22 337.576 186.22 338.856C186.22 340.152 185.324 341.08 184.124 341.08ZM192.766 343.16C193.198 343.16 193.694 343.096 194.142 342.936L193.87 340.968C193.646 341.016 193.438 341.08 193.214 341.08C192.414 341.08 192.046 340.616 192.046 339.784V331.08H189.79V340.056C189.79 341.992 190.958 343.16 192.766 343.16ZM200.394 334.728C200.09 336.952 199.402 338.936 198.442 340.472L196.106 334.728H193.674L196.906 342.408C195.93 343.304 194.73 343.96 193.194 344.36L193.674 346.36C195.93 345.8 197.738 344.616 199.21 343C201.082 340.904 202.298 338.008 202.73 334.728H200.394ZM206.618 343.16C208.426 343.16 209.61 342.12 209.61 340.504C209.61 339.176 208.682 338.264 206.954 337.832C205.946 337.592 205.53 337.464 205.53 337.048C205.53 336.68 205.914 336.456 206.474 336.456C207.162 336.456 207.882 336.76 208.474 337.176L209.45 335.592C208.634 334.968 207.642 334.568 206.41 334.568C204.65 334.568 203.354 335.608 203.354 337.048C203.354 338.488 204.41 339.192 205.994 339.64C207.018 339.928 207.45 340.104 207.45 340.584C207.45 340.968 207.146 341.256 206.57 341.256C205.786 341.256 204.858 340.888 204.09 340.152L203.002 341.736C203.866 342.568 205.178 343.16 206.618 343.16ZM211.991 333.464C212.727 333.464 213.335 332.856 213.335 332.168C213.335 331.496 212.727 330.872 211.991 330.872C211.255 330.872 210.647 331.496 210.647 332.168C210.647 332.856 211.255 333.464 211.991 333.464ZM210.855 343H213.111V334.728H210.855V343ZM217.961 343.16C219.769 343.16 220.953 342.12 220.953 340.504C220.953 339.176 220.025 338.264 218.297 337.832C217.289 337.592 216.873 337.464 216.873 337.048C216.873 336.68 217.257 336.456 217.817 336.456C218.505 336.456 219.225 336.76 219.817 337.176L220.793 335.592C219.977 334.968 218.985 334.568 217.753 334.568C215.993 334.568 214.697 335.608 214.697 337.048C214.697 338.488 215.753 339.192 217.337 339.64C218.361 339.928 218.793 340.104 218.793 340.584C218.793 340.968 218.489 341.256 217.913 341.256C217.129 341.256 216.201 340.888 215.433 340.152L214.345 341.736C215.209 342.568 216.521 343.16 217.961 343.16Z" fill="white"/>
<rect width="99" height="64" transform="translate(128.25 361)" fill="#EBEDEE"/>
<path d="M152.198 389.57V393.798H147.2V389.57H145.128V400H147.2V395.758H152.198V400H154.27V389.57H152.198ZM161.279 392.762C161.013 394.708 160.411 396.444 159.571 397.788L157.527 392.762H155.399L158.227 399.482C157.373 400.266 156.323 400.84 154.979 401.19L155.399 402.94C157.373 402.45 158.955 401.414 160.243 400C161.881 398.166 162.945 395.632 163.323 392.762H161.279ZM167.409 400.14C168.123 400.14 168.809 399.944 169.299 399.454V400H171.273V389.57H169.299V393.252C168.753 392.818 168.109 392.622 167.381 392.622C165.323 392.622 163.741 394.232 163.741 396.374C163.741 398.516 165.323 400.14 167.409 400.14ZM167.689 398.362C166.597 398.362 165.729 397.55 165.729 396.374C165.729 395.212 166.597 394.4 167.689 394.4C168.333 394.4 168.921 394.652 169.299 395.1V397.662C168.921 398.11 168.333 398.362 167.689 398.362ZM177.321 392.622C176.397 392.664 175.571 392.916 174.703 393.616V392.762H172.729V400H174.703V395.604C175.389 394.988 176.313 394.624 177.321 394.582V392.622ZM181.578 400.14C183.762 400.14 185.414 398.516 185.414 396.374C185.414 394.232 183.762 392.622 181.578 392.622C179.38 392.622 177.728 394.232 177.728 396.374C177.728 398.516 179.38 400.14 181.578 400.14ZM181.578 398.32C180.514 398.32 179.716 397.508 179.716 396.374C179.716 395.254 180.514 394.442 181.578 394.442C182.628 394.442 183.412 395.254 183.412 396.374C183.412 397.508 182.628 398.32 181.578 398.32ZM189.083 402.94C192.107 402.898 193.983 401.344 193.983 398.18V392.762H192.009V393.28C191.491 392.846 190.861 392.622 190.091 392.622C187.991 392.622 186.409 394.246 186.409 396.318C186.409 398.362 187.935 399.874 190.049 399.874C190.819 399.874 191.463 399.65 191.981 399.188C191.785 400.588 190.721 401.176 189.083 401.246V402.94ZM190.357 398.264C189.265 398.264 188.397 397.452 188.397 396.29C188.397 395.184 189.265 394.358 190.357 394.358C191.113 394.358 191.715 394.708 192.009 395.142V397.48C191.715 397.928 191.113 398.264 190.357 398.264ZM199.078 400.14C200.366 400.14 201.43 399.622 202.116 398.838L200.898 397.634C200.534 398.082 199.89 398.418 199.064 398.418C198.07 398.418 197.342 397.788 197.188 396.934H202.424C202.452 396.794 202.48 396.57 202.48 396.304C202.48 394.218 201.066 392.622 198.966 392.622C196.824 392.622 195.214 394.148 195.214 396.374C195.214 398.53 196.866 400.14 199.078 400.14ZM197.188 395.618C197.342 394.792 197.972 394.19 198.896 394.19C199.778 394.19 200.45 394.792 200.534 395.618H197.188ZM207.647 392.622C206.821 392.622 206.163 392.86 205.533 393.364V392.762H203.559V400H205.533V395.184C205.967 394.764 206.527 394.442 207.185 394.442C208.095 394.442 208.599 395.044 208.599 396.08V400H210.573V395.884C210.573 393.924 209.383 392.622 207.647 392.622Z" fill="#3B4956"/>
<path d="M227.25 425L176.043 445L128.25 425L227.25 425Z" fill="#EBEDEE"/>
<rect width="200" height="48" transform="translate(77.75 445)" fill="#4099DA"/>
<path d="M109.458 465.336L110.05 463.08H102.21V475H104.578V470.376H109.026V468.248H104.578V465.336H109.458ZM114.221 475.16C115.165 475.16 115.917 474.888 116.637 474.312V475H118.893V466.728H116.637V472.232C116.141 472.712 115.501 473.08 114.749 473.08C113.709 473.08 113.133 472.392 113.133 471.208V466.728H110.877V471.432C110.877 473.672 112.237 475.16 114.221 475.16ZM124.711 475.16C126.183 475.16 127.399 474.568 128.183 473.672L126.791 472.296C126.375 472.808 125.639 473.192 124.695 473.192C123.559 473.192 122.727 472.472 122.551 471.496H128.535C128.567 471.336 128.599 471.08 128.599 470.776C128.599 468.392 126.983 466.568 124.583 466.568C122.135 466.568 120.295 468.312 120.295 470.856C120.295 473.32 122.183 475.16 124.711 475.16ZM122.551 469.992C122.727 469.048 123.447 468.36 124.503 468.36C125.511 468.36 126.279 469.048 126.375 469.992H122.551ZM132.696 475.16C133.128 475.16 133.624 475.096 134.072 474.936L133.8 472.968C133.576 473.016 133.368 473.08 133.144 473.08C132.344 473.08 131.976 472.616 131.976 471.784V463.08H129.72V472.056C129.72 473.992 130.888 475.16 132.696 475.16ZM141.875 475.16C143.683 475.16 144.867 474.12 144.867 472.504C144.867 471.176 143.939 470.264 142.211 469.832C141.203 469.592 140.787 469.464 140.787 469.048C140.787 468.68 141.171 468.456 141.731 468.456C142.419 468.456 143.139 468.76 143.731 469.176L144.707 467.592C143.891 466.968 142.899 466.568 141.667 466.568C139.907 466.568 138.611 467.608 138.611 469.048C138.611 470.488 139.667 471.192 141.251 471.64C142.275 471.928 142.707 472.104 142.707 472.584C142.707 472.968 142.403 473.256 141.827 473.256C141.043 473.256 140.115 472.888 139.347 472.152L138.259 473.736C139.123 474.568 140.435 475.16 141.875 475.16ZM152.23 466.728C151.926 468.952 151.238 470.936 150.278 472.472L147.942 466.728H145.51L148.742 474.408C147.766 475.304 146.566 475.96 145.03 476.36L145.51 478.36C147.766 477.8 149.574 476.616 151.046 475C152.918 472.904 154.134 470.008 154.566 466.728H152.23ZM160.317 466.568C159.373 466.568 158.621 466.84 157.901 467.416V466.728H155.645V475H157.901V469.496C158.397 469.016 159.036 468.648 159.789 468.648C160.829 468.648 161.405 469.336 161.405 470.52V475H163.661V470.296C163.661 468.056 162.301 466.568 160.317 466.568ZM170.679 472.76C170.343 472.968 169.991 473.16 169.543 473.16C168.903 473.16 168.311 472.712 168.311 471.656V468.792H170.103L170.647 466.728H168.311V464.088H166.055V466.728H164.647V468.792H166.055V471.976C166.055 474.088 167.367 475.16 169.191 475.16C169.895 475.16 170.519 475 171.335 474.568L170.679 472.76ZM177.113 466.568C176.169 466.568 175.417 466.84 174.697 467.416V463.08H172.441V475H174.697V469.496C175.193 469.016 175.833 468.648 176.585 468.648C177.625 468.648 178.201 469.336 178.201 470.52V475H180.457V470.296C180.457 468.056 179.097 466.568 177.113 466.568ZM186.18 475.16C187.652 475.16 188.868 474.568 189.652 473.672L188.26 472.296C187.844 472.808 187.108 473.192 186.164 473.192C185.028 473.192 184.196 472.472 184.02 471.496H190.003C190.036 471.336 190.068 471.08 190.068 470.776C190.068 468.392 188.452 466.568 186.052 466.568C183.604 466.568 181.764 468.312 181.764 470.856C181.764 473.32 183.652 475.16 186.18 475.16ZM184.02 469.992C184.196 469.048 184.916 468.36 185.972 468.36C186.98 468.36 187.748 469.048 187.844 469.992H184.02ZM194.297 475.16C196.105 475.16 197.289 474.12 197.289 472.504C197.289 471.176 196.361 470.264 194.633 469.832C193.625 469.592 193.209 469.464 193.209 469.048C193.209 468.68 193.593 468.456 194.153 468.456C194.841 468.456 195.561 468.76 196.153 469.176L197.129 467.592C196.313 466.968 195.321 466.568 194.089 466.568C192.329 466.568 191.033 467.608 191.033 469.048C191.033 470.488 192.089 471.192 193.673 471.64C194.697 471.928 195.129 472.104 195.129 472.584C195.129 472.968 194.825 473.256 194.249 473.256C193.465 473.256 192.537 472.888 191.769 472.152L190.681 473.736C191.545 474.568 192.857 475.16 194.297 475.16ZM199.671 465.464C200.407 465.464 201.015 464.856 201.015 464.168C201.015 463.496 200.407 462.872 199.671 462.872C198.935 462.872 198.327 463.496 198.327 464.168C198.327 464.856 198.935 465.464 199.671 465.464ZM198.535 475H200.791V466.728H198.535V475ZM205.641 475.16C207.449 475.16 208.633 474.12 208.633 472.504C208.633 471.176 207.705 470.264 205.977 469.832C204.969 469.592 204.553 469.464 204.553 469.048C204.553 468.68 204.937 468.456 205.497 468.456C206.185 468.456 206.905 468.76 207.497 469.176L208.473 467.592C207.657 466.968 206.665 466.568 205.433 466.568C203.673 466.568 202.377 467.608 202.377 469.048C202.377 470.488 203.433 471.192 205.017 471.64C206.041 471.928 206.473 472.104 206.473 472.584C206.473 472.968 206.169 473.256 205.593 473.256C204.809 473.256 203.881 472.888 203.113 472.152L202.025 473.736C202.889 474.568 204.201 475.16 205.641 475.16ZM217.983 466.568C217.151 466.568 216.431 466.792 215.791 467.288V466.728H213.535V478.2H215.791V474.376C216.367 474.936 217.135 475.16 217.951 475.16C220.335 475.16 222.159 473.304 222.159 470.856C222.159 468.408 220.335 466.568 217.983 466.568ZM217.647 473.128C216.911 473.128 216.223 472.84 215.791 472.328V469.4C216.223 468.888 216.911 468.6 217.647 468.6C218.879 468.6 219.871 469.528 219.871 470.856C219.871 472.2 218.879 473.128 217.647 473.128ZM226.415 475.16C226.847 475.16 227.343 475.096 227.791 474.936L227.519 472.968C227.295 473.016 227.087 473.08 226.863 473.08C226.063 473.08 225.695 472.616 225.695 471.784V463.08H223.439V472.056C223.439 473.992 224.607 475.16 226.415 475.16ZM234.366 466.728V467.288C233.742 466.792 233.006 466.568 232.174 466.568C229.822 466.568 228.014 468.408 228.014 470.856C228.014 473.304 229.822 475.16 232.206 475.16C233.022 475.16 233.806 474.936 234.366 474.376V475H236.622V466.728H234.366ZM232.526 473.128C231.278 473.128 230.286 472.2 230.286 470.856C230.286 469.528 231.278 468.6 232.526 468.6C233.262 468.6 233.934 468.888 234.366 469.4V472.328C233.934 472.84 233.262 473.128 232.526 473.128ZM242.957 466.568C242.013 466.568 241.261 466.84 240.541 467.416V466.728H238.285V475H240.541V469.496C241.037 469.016 241.677 468.648 242.429 468.648C243.469 468.648 244.045 469.336 244.045 470.52V475H246.301V470.296C246.301 468.056 244.941 466.568 242.957 466.568ZM253.319 472.76C252.983 472.968 252.631 473.16 252.183 473.16C251.543 473.16 250.951 472.712 250.951 471.656V468.792H252.743L253.287 466.728H250.951V464.088H248.695V466.728H247.287V468.792H248.695V471.976C248.695 474.088 250.007 475.16 251.831 475.16C252.535 475.16 253.159 475 253.975 474.568L253.319 472.76Z" fill="white"/>
<rect width="200" height="23" transform="translate(77.75 493)" fill="#D8D1CA"/>
<path d="M136.588 509.127C137.983 509.127 139.276 508.62 140.202 507.694L139.238 506.489C138.541 507.161 137.717 507.58 136.639 507.58C134.8 507.58 133.393 506.134 133.393 504.27C133.393 502.407 134.8 500.974 136.639 500.974C137.615 500.974 138.275 501.316 138.934 501.874L139.898 500.568C139.023 499.871 137.945 499.427 136.588 499.427C133.849 499.427 131.757 501.519 131.757 504.27C131.757 507.035 133.824 509.127 136.588 509.127ZM146.699 501.836V502.267C146.166 501.899 145.481 501.709 144.746 501.709C142.679 501.709 141.132 503.256 141.132 505.412C141.132 507.567 142.679 509.127 144.746 509.127C145.481 509.127 146.153 508.924 146.699 508.544V509H148.22V501.836H146.699ZM144.949 507.77C143.617 507.77 142.705 506.819 142.705 505.412C142.705 504.017 143.63 503.066 144.949 503.066C145.659 503.066 146.293 503.332 146.699 503.814V506.933C146.293 507.402 145.659 507.77 144.949 507.77ZM153.242 501.709C152.506 501.709 151.822 501.899 151.289 502.28V501.836H149.768V511.663H151.289V508.544C151.834 508.924 152.506 509.127 153.242 509.127C155.309 509.127 156.856 507.567 156.856 505.412C156.856 503.256 155.309 501.709 153.242 501.709ZM153.039 507.77C152.329 507.77 151.695 507.466 151.289 506.997V503.839C151.695 503.358 152.342 503.066 153.039 503.066C154.358 503.066 155.283 504.017 155.283 505.412C155.283 506.819 154.37 507.77 153.039 507.77ZM162.454 507.453C162.124 507.631 161.794 507.77 161.389 507.77C160.78 507.77 160.362 507.415 160.362 506.565V503.231H162.187L162.593 501.836H160.362V499.921H158.84V501.836H157.496V503.231H158.84V506.654C158.84 508.239 159.854 509.127 161.173 509.127C161.82 509.127 162.428 508.962 162.898 508.67L162.454 507.453ZM168.641 501.836V506.921C168.235 507.44 167.664 507.732 166.967 507.732C165.876 507.732 165.242 506.971 165.242 505.703V501.836H163.721V505.919C163.721 507.821 164.951 509.127 166.751 509.127C167.436 509.127 168.121 508.911 168.641 508.48V509H170.162V501.836H168.641ZM175.868 501.709C175.057 501.722 174.03 501.925 173.231 502.508V501.836H171.709V509H173.231V504.08C173.878 503.535 174.93 503.294 175.868 503.256V501.709ZM178.231 505.919H183.671C183.696 505.741 183.709 505.5 183.709 505.285C183.709 503.231 182.263 501.709 180.285 501.709C178.18 501.709 176.608 503.269 176.608 505.399C176.608 507.542 178.231 509.127 180.387 509.127C181.591 509.127 182.682 508.683 183.328 507.846L182.352 506.819C181.959 507.352 181.236 507.77 180.399 507.77C179.258 507.77 178.434 506.959 178.231 505.919ZM180.285 503.066C181.287 503.066 181.984 503.675 182.149 504.74H178.244C178.447 503.738 179.119 503.066 180.285 503.066ZM190.335 499.173V502.28C189.802 501.899 189.117 501.709 188.382 501.709C186.315 501.709 184.768 503.256 184.768 505.412C184.768 507.567 186.315 509.127 188.382 509.127C189.117 509.127 189.789 508.924 190.335 508.544V509H191.856V499.173H190.335ZM188.585 507.77C187.253 507.77 186.34 506.819 186.34 505.412C186.34 504.017 187.266 503.066 188.585 503.066C189.295 503.066 189.929 503.332 190.335 503.814V507.022C189.929 507.491 189.295 507.77 188.585 507.77ZM201.113 509.127C202.508 509.127 203.802 508.62 204.727 507.694L203.763 506.489C203.066 507.161 202.242 507.58 201.164 507.58C199.326 507.58 197.918 506.134 197.918 504.27C197.918 502.407 199.326 500.974 201.164 500.974C202.14 500.974 202.8 501.316 203.459 501.874L204.423 500.568C203.548 499.871 202.47 499.427 201.113 499.427C198.375 499.427 196.282 501.519 196.282 504.27C196.282 507.035 198.349 509.127 201.113 509.127ZM210.165 509.127C212.917 509.127 215.009 507.035 215.009 504.27C215.009 501.519 212.917 499.427 210.165 499.427C207.401 499.427 205.322 501.519 205.322 504.27C205.322 507.035 207.401 509.127 210.165 509.127ZM210.165 507.58C208.365 507.58 206.97 506.147 206.97 504.27C206.97 502.407 208.365 500.974 210.165 500.974C211.966 500.974 213.348 502.407 213.348 504.27C213.348 506.147 211.966 507.58 210.165 507.58ZM216.019 509H222.346L222.752 507.466H219.278L220.267 506.325C221.928 504.499 222.511 503.713 222.511 502.407C222.511 500.644 221.154 499.427 219.303 499.427C217.845 499.427 216.729 500.124 215.854 501.418L217.008 502.419C217.591 501.443 218.352 500.974 219.24 500.974C220.216 500.974 220.863 501.608 220.863 502.533C220.863 503.51 220.267 504.232 218.301 506.439L216.019 509Z" fill="#3B4956"/>
<rect width="99" height="64" transform="translate(130 516)" fill="#EBEDEE"/>
<path d="M159.313 550.632H163.051V548.77H159.313V546.544H163.569L164.087 544.57H157.241V555H163.597L164.087 553.026H159.313V550.632ZM165.126 551.57H169.046V549.722H165.126V551.57ZM172.983 547.286C172.983 546.586 173.249 546.18 173.879 546.18C174.173 546.18 174.425 546.25 174.607 546.32L175.069 544.71C174.635 544.556 174.117 544.43 173.543 544.43C172.003 544.43 171.009 545.424 171.009 547.146V547.762H169.833V549.568H171.009V555H172.983V549.568H174.397L174.873 547.762H172.983V547.286ZM178.62 555.14C179.446 555.14 180.104 554.902 180.734 554.398V555H182.708V547.762H180.734V552.578C180.3 552.998 179.74 553.32 179.082 553.32C178.172 553.32 177.668 552.718 177.668 551.682V547.762H175.694V551.878C175.694 553.838 176.884 555.14 178.62 555.14ZM187.799 555.14C189.087 555.14 190.151 554.622 190.837 553.838L189.619 552.634C189.255 553.082 188.611 553.418 187.785 553.418C186.791 553.418 186.063 552.788 185.909 551.934H191.145C191.173 551.794 191.201 551.57 191.201 551.304C191.201 549.218 189.787 547.622 187.687 547.622C185.545 547.622 183.935 549.148 183.935 551.374C183.935 553.53 185.587 555.14 187.799 555.14ZM185.909 550.618C186.063 549.792 186.693 549.19 187.617 549.19C188.499 549.19 189.171 549.792 189.255 550.618H185.909ZM194.786 555.14C195.164 555.14 195.598 555.084 195.99 554.944L195.752 553.222C195.556 553.264 195.374 553.32 195.178 553.32C194.478 553.32 194.156 552.914 194.156 552.186V544.57H192.182V552.424C192.182 554.118 193.204 555.14 194.786 555.14ZM199.618 555.14C201.2 555.14 202.236 554.23 202.236 552.816C202.236 551.654 201.424 550.856 199.912 550.478C199.03 550.268 198.666 550.156 198.666 549.792C198.666 549.47 199.002 549.274 199.492 549.274C200.094 549.274 200.724 549.54 201.242 549.904L202.096 548.518C201.382 547.972 200.514 547.622 199.436 547.622C197.896 547.622 196.762 548.532 196.762 549.792C196.762 551.052 197.686 551.668 199.072 552.06C199.968 552.312 200.346 552.466 200.346 552.886C200.346 553.222 200.08 553.474 199.576 553.474C198.89 553.474 198.078 553.152 197.406 552.508L196.454 553.894C197.21 554.622 198.358 555.14 199.618 555.14Z" fill="#3B4956"/>
<path d="M229 580L177.793 600L130 580L229 580Z" fill="#EBEDEE"/>
<path d="M229 546.5H247.069L250.5 550.5L247.069 554.5H229V546.5Z" fill="#EBEDEE"/>
<path d="M268.665 545.64C270.275 545.64 271.731 545.052 272.767 543.974L271.521 542.42C270.779 543.176 269.939 543.652 268.735 543.652C266.845 543.652 265.417 542.182 265.417 540.278C265.417 538.388 266.845 536.918 268.735 536.918C269.827 536.918 270.499 537.324 271.199 537.94L272.431 536.26C271.465 535.448 270.233 534.93 268.665 534.93C265.613 534.93 263.303 537.24 263.303 540.278C263.303 543.33 265.613 545.64 268.665 545.64ZM277.285 545.64C279.469 545.64 281.121 544.016 281.121 541.874C281.121 539.732 279.469 538.122 277.285 538.122C275.087 538.122 273.435 539.732 273.435 541.874C273.435 544.016 275.087 545.64 277.285 545.64ZM277.285 543.82C276.221 543.82 275.423 543.008 275.423 541.874C275.423 540.754 276.221 539.942 277.285 539.942C278.335 539.942 279.119 540.754 279.119 541.874C279.119 543.008 278.335 543.82 277.285 543.82ZM291.118 538.122C289.984 538.122 289.256 538.472 288.57 539.046C288.038 538.458 287.31 538.122 286.428 538.122C285.602 538.122 284.944 538.36 284.314 538.864V538.262H282.34V545.5H284.314V540.684C284.748 540.264 285.308 539.942 285.966 539.942C286.876 539.942 287.38 540.544 287.38 541.58V545.5H289.354V541.384C289.354 541.09 289.312 540.796 289.256 540.53C289.634 540.208 290.138 539.942 290.726 539.942C291.636 539.942 292.14 540.544 292.14 541.58V545.5H294.1V541.384C294.1 539.424 292.868 538.122 291.118 538.122ZM299.357 545.64C301.443 545.64 303.039 544.016 303.039 541.874C303.039 539.732 301.443 538.122 299.385 538.122C298.657 538.122 298.027 538.318 297.467 538.752V535.07H295.493V545.5H297.467V544.954C297.971 545.444 298.643 545.64 299.357 545.64ZM299.091 543.862C298.447 543.862 297.845 543.61 297.467 543.162V540.6C297.845 540.152 298.447 539.9 299.091 539.9C300.169 539.9 301.037 540.712 301.037 541.874C301.037 543.05 300.169 543.862 299.091 543.862ZM307.098 545.64C307.924 545.64 308.582 545.402 309.212 544.898V545.5H311.186V538.262H309.212V543.078C308.778 543.498 308.218 543.82 307.56 543.82C306.65 543.82 306.146 543.218 306.146 542.182V538.262H304.172V542.378C304.172 544.338 305.362 545.64 307.098 545.64ZM315.423 545.64C317.005 545.64 318.041 544.73 318.041 543.316C318.041 542.154 317.229 541.356 315.717 540.978C314.835 540.768 314.471 540.656 314.471 540.292C314.471 539.97 314.807 539.774 315.297 539.774C315.899 539.774 316.529 540.04 317.047 540.404L317.901 539.018C317.187 538.472 316.319 538.122 315.241 538.122C313.701 538.122 312.567 539.032 312.567 540.292C312.567 541.552 313.491 542.168 314.877 542.56C315.773 542.812 316.151 542.966 316.151 543.386C316.151 543.722 315.885 543.974 315.381 543.974C314.695 543.974 313.883 543.652 313.211 543.008L312.259 544.394C313.015 545.122 314.163 545.64 315.423 545.64ZM323.864 543.54C323.57 543.722 323.262 543.89 322.87 543.89C322.31 543.89 321.792 543.498 321.792 542.574V540.068H323.36L323.836 538.262H321.792V535.952H319.818V538.262H318.586V540.068H319.818V542.854C319.818 544.702 320.966 545.64 322.562 545.64C323.178 545.64 323.724 545.5 324.438 545.122L323.864 543.54ZM326.401 537.156C327.045 537.156 327.577 536.624 327.577 536.022C327.577 535.434 327.045 534.888 326.401 534.888C325.757 534.888 325.225 535.434 325.225 536.022C325.225 536.624 325.757 537.156 326.401 537.156ZM325.407 545.5H327.381V538.262H325.407V545.5ZM332.464 545.64C334.648 545.64 336.3 544.016 336.3 541.874C336.3 539.732 334.648 538.122 332.464 538.122C330.266 538.122 328.614 539.732 328.614 541.874C328.614 544.016 330.266 545.64 332.464 545.64ZM332.464 543.82C331.4 543.82 330.602 543.008 330.602 541.874C330.602 540.754 331.4 539.942 332.464 539.942C333.514 539.942 334.298 540.754 334.298 541.874C334.298 543.008 333.514 543.82 332.464 543.82ZM341.608 538.122C340.782 538.122 340.124 538.36 339.494 538.864V538.262H337.52V545.5H339.494V540.684C339.928 540.264 340.488 539.942 341.146 539.942C342.056 539.942 342.56 540.544 342.56 541.58V545.5H344.534V541.384C344.534 539.424 343.344 538.122 341.608 538.122ZM282.583 565.64C283.871 565.64 284.935 565.122 285.621 564.338L284.403 563.134C284.039 563.582 283.395 563.918 282.569 563.918C281.575 563.918 280.847 563.288 280.693 562.434H285.929C285.957 562.294 285.985 562.07 285.985 561.804C285.985 559.718 284.571 558.122 282.471 558.122C280.329 558.122 278.719 559.648 278.719 561.874C278.719 564.03 280.371 565.64 282.583 565.64ZM280.693 561.118C280.847 560.292 281.477 559.69 282.401 559.69C283.283 559.69 283.955 560.292 284.039 561.118H280.693ZM291.152 558.122C290.326 558.122 289.668 558.36 289.038 558.864V558.262H287.064V565.5H289.038V560.684C289.472 560.264 290.032 559.942 290.69 559.942C291.6 559.942 292.104 560.544 292.104 561.58V565.5H294.078V561.384C294.078 559.424 292.888 558.122 291.152 558.122ZM297.895 568.44C300.919 568.398 302.795 566.844 302.795 563.68V558.262H300.821V558.78C300.303 558.346 299.673 558.122 298.903 558.122C296.803 558.122 295.221 559.746 295.221 561.818C295.221 563.862 296.747 565.374 298.861 565.374C299.631 565.374 300.275 565.15 300.793 564.688C300.597 566.088 299.533 566.676 297.895 566.746V568.44ZM299.169 563.764C298.077 563.764 297.209 562.952 297.209 561.79C297.209 560.684 298.077 559.858 299.169 559.858C299.925 559.858 300.527 560.208 300.821 560.642V562.98C300.527 563.428 299.925 563.764 299.169 563.764ZM305.243 557.156C305.887 557.156 306.419 556.624 306.419 556.022C306.419 555.434 305.887 554.888 305.243 554.888C304.599 554.888 304.067 555.434 304.067 556.022C304.067 556.624 304.599 557.156 305.243 557.156ZM304.249 565.5H306.223V558.262H304.249V565.5ZM311.769 558.122C310.943 558.122 310.285 558.36 309.655 558.864V558.262H307.681V565.5H309.655V560.684C310.089 560.264 310.649 559.942 311.307 559.942C312.217 559.942 312.721 560.544 312.721 561.58V565.5H314.695V561.384C314.695 559.424 313.505 558.122 311.769 558.122ZM319.702 565.64C320.99 565.64 322.054 565.122 322.74 564.338L321.522 563.134C321.158 563.582 320.514 563.918 319.688 563.918C318.694 563.918 317.966 563.288 317.812 562.434H323.048C323.076 562.294 323.104 562.07 323.104 561.804C323.104 559.718 321.69 558.122 319.59 558.122C317.448 558.122 315.838 559.648 315.838 561.874C315.838 564.03 317.49 565.64 319.702 565.64ZM317.812 561.118C317.966 560.292 318.596 559.69 319.52 559.69C320.402 559.69 321.074 560.292 321.158 561.118H317.812ZM326.805 565.64C328.387 565.64 329.423 564.73 329.423 563.316C329.423 562.154 328.611 561.356 327.099 560.978C326.217 560.768 325.853 560.656 325.853 560.292C325.853 559.97 326.189 559.774 326.679 559.774C327.281 559.774 327.911 560.04 328.429 560.404L329.283 559.018C328.569 558.472 327.701 558.122 326.623 558.122C325.083 558.122 323.949 559.032 323.949 560.292C323.949 561.552 324.873 562.168 326.259 562.56C327.155 562.812 327.533 562.966 327.533 563.386C327.533 563.722 327.267 563.974 326.763 563.974C326.077 563.974 325.265 563.652 324.593 563.008L323.641 564.394C324.397 565.122 325.545 565.64 326.805 565.64Z" fill="#3B4956"/>
</svg>
