<svg width="375" height="667" viewBox="0 0 375 667" fill="none" xmlns="http://www.w3.org/2000/svg">
<g clip-path="url(#clip0)">
<path d="M165.747 90.8843C163.187 90.8843 161.105 93.0301 161.105 95.6627C161.105 98.2954 163.187 100.441 165.747 100.441C168.308 100.441 170.39 98.2954 170.39 95.6627C170.39 93.0301 168.308 90.8843 165.747 90.8843Z" fill="#4099DA"/>
<path d="M165.747 90.8843C163.187 90.8843 161.105 93.0301 161.105 95.6627C161.105 98.2954 163.187 100.441 165.747 100.441C168.308 100.441 170.39 98.2954 170.39 95.6627C170.39 93.0301 168.308 90.8843 165.747 90.8843Z" stroke="#4099DA" stroke-width="0.603" stroke-miterlimit="10"/>
<path d="M126.197 90.8843C123.637 90.8843 121.555 93.0301 121.555 95.6627C121.555 98.2954 123.637 100.441 126.197 100.441C128.758 100.441 130.839 98.2954 130.839 95.6627C130.839 93.0301 128.758 90.8843 126.197 90.8843Z" fill="#4099DA"/>
<path d="M126.197 90.8843C123.637 90.8843 121.555 93.0301 121.555 95.6627C121.555 98.2954 123.637 100.441 126.197 100.441C128.758 100.441 130.839 98.2954 130.839 95.6627C130.839 93.0301 128.758 90.8843 126.197 90.8843Z" stroke="#4099DA" stroke-width="0.603" stroke-miterlimit="10"/>
<path d="M153.037 66H114.5V80.5157H153.037V66Z" fill="#4099DA"/>
<path d="M160.276 80.137V70.49H165.084C165.821 70.49 166.503 70.8867 166.908 71.5178L172.158 80.137H160.276ZM170.924 69.4802C169.524 67.2983 167.166 66 164.642 66H156.039V80.5157V82.9681H114.5V93.5889H119.105C119.989 90.3972 122.826 88.0531 126.197 88.0531C129.568 88.0531 132.405 90.3972 133.289 93.5889H158.655C159.539 90.3972 162.376 88.0531 165.747 88.0531C169.118 88.0531 171.955 90.3972 172.839 93.5889H177.5V87.2777V84.3565V79.6141L170.924 69.4802Z" fill="#4099DA"/>
</g>
<path d="M207.845 75.5272H194.081V78.5502H199.098V91.5H202.271V78.5502H207.031L207.845 75.5272ZM214.239 80.2011C212.824 80.2654 211.559 80.6514 210.229 81.7234V80.4155H207.206V91.5H210.229V84.7678C211.28 83.8245 212.695 83.267 214.239 83.2027V80.2011ZM220.143 91.7144C221.408 91.7144 222.416 91.3499 223.38 90.5781V91.5H226.403V80.4155H223.38V87.7909C222.716 88.4341 221.858 88.9272 220.85 88.9272C219.457 88.9272 218.685 88.0053 218.685 86.4187V80.4155H215.662V86.7189C215.662 89.7205 217.484 91.7144 220.143 91.7144ZM234.135 91.7144C236.001 91.7144 237.673 90.8997 238.745 89.6347L236.815 87.6194C236.279 88.3483 235.336 88.9272 234.286 88.9272C232.656 88.9272 231.327 87.6408 231.327 85.9256C231.327 84.2533 232.549 82.9883 234.243 82.9883C235.165 82.9883 235.958 83.3957 236.494 83.9317L238.338 81.8734C237.223 80.78 235.808 80.2011 234.157 80.2011C230.919 80.2011 228.282 82.5381 228.282 85.9256C228.282 89.3346 230.919 91.7144 234.135 91.7144ZM247.516 85.411C248.738 84.2962 249.981 82.388 250.689 80.4155H247.516C247.023 81.7234 246.251 82.9026 245.222 83.7602C244.621 84.2533 243.935 84.6821 243.185 85.0037V75.5272H240.183V91.5H243.185V87.9624C243.892 87.7266 244.493 87.4693 245.179 87.0834L247.902 91.5H251.418L247.516 85.411ZM256.677 91.7144C259.1 91.7144 260.686 90.3208 260.686 88.1554C260.686 86.3758 259.443 85.1538 257.127 84.5749C255.776 84.2533 255.219 84.0818 255.219 83.5243C255.219 83.0312 255.734 82.731 256.484 82.731C257.406 82.731 258.371 83.1384 259.164 83.6958L260.472 81.5733C259.378 80.7371 258.049 80.2011 256.398 80.2011C254.04 80.2011 252.303 81.5947 252.303 83.5243C252.303 85.4539 253.718 86.3973 255.841 86.9976C257.213 87.3835 257.792 87.6194 257.792 88.2626C257.792 88.7771 257.384 89.163 256.613 89.163C255.562 89.163 254.319 88.6699 253.289 87.6837L251.831 89.8062C252.989 90.9211 254.747 91.7144 256.677 91.7144Z" fill="#4099DA"/>
<path d="M45.7249 137H47.0689V125.08H45.7249V137ZM53.3919 128.568C52.3679 128.568 51.4719 128.92 50.7359 129.592V128.728H49.4559V137H50.7359V130.92C51.3279 130.28 52.1279 129.768 53.1519 129.768C54.4799 129.768 55.3279 130.744 55.3279 132.2V137H56.6079V132.184C56.6079 130.008 55.3119 128.568 53.3919 128.568ZM62.5601 137.16C63.5841 137.16 64.5441 136.808 65.2321 136.152V137H66.5281V125.08H65.2321V129.512C64.5281 128.904 63.5841 128.568 62.5441 128.568C60.1761 128.568 58.3841 130.408 58.3841 132.856C58.3841 135.304 60.1761 137.16 62.5601 137.16ZM62.6561 135.96C60.9761 135.96 59.7121 134.648 59.7121 132.856C59.7121 131.08 60.9761 129.768 62.6561 129.768C63.6961 129.768 64.7041 130.216 65.2321 130.936V134.792C64.7041 135.512 63.6961 135.96 62.6561 135.96ZM69.3928 127.144C69.9048 127.144 70.3208 126.744 70.3208 126.232C70.3208 125.752 69.9048 125.336 69.3928 125.336C68.9128 125.336 68.4808 125.752 68.4808 126.232C68.4808 126.744 68.9128 127.144 69.3928 127.144ZM68.7368 137H70.0328V128.728H68.7368V137ZM76.6052 128.568C75.6292 128.584 74.4932 128.952 73.5172 129.752V128.728H72.2212V137H73.5172V131.112C74.2852 130.392 75.4052 129.88 76.6052 129.864V128.568ZM81.3279 137.16C82.8159 137.16 83.9679 136.536 84.7199 135.688L83.9039 134.856C83.3119 135.528 82.4959 135.992 81.3279 135.992C79.7279 135.992 78.5119 134.84 78.3519 133.272H85.0559C85.0719 133.128 85.0879 132.92 85.0879 132.696C85.0879 130.376 83.4559 128.568 81.1839 128.568C78.8159 128.568 77.0559 130.376 77.0559 132.84C77.0559 135.304 78.8959 137.16 81.3279 137.16ZM78.3679 132.248C78.5599 130.76 79.6639 129.656 81.1679 129.656C82.5919 129.656 83.6799 130.76 83.7919 132.248H78.3679ZM90.6561 137.16C91.9841 137.16 93.2161 136.568 94.0001 135.656L93.1521 134.776C92.6401 135.464 91.6801 135.96 90.6881 135.96C88.9921 135.96 87.7121 134.616 87.7121 132.856C87.7121 131.096 88.9601 129.768 90.6721 129.768C91.4721 129.768 92.3041 130.12 92.8481 130.632L93.6321 129.688C92.8481 128.968 91.8561 128.568 90.6561 128.568C88.2561 128.568 86.3841 130.376 86.3841 132.856C86.3841 135.336 88.2561 137.16 90.6561 137.16ZM100.334 135.64C100.014 135.832 99.6621 135.976 99.2461 135.976C98.4301 135.976 97.6781 135.384 97.6781 134.152V129.928H99.8061L100.174 128.728H97.6781V126.088H96.3981V128.728H94.8301V129.928H96.3981V134.28C96.3981 136.104 97.5341 137.16 99.1341 137.16C99.6941 137.16 100.158 137.016 100.734 136.712L100.334 135.64ZM110.14 137.16C111.628 137.16 112.78 136.536 113.532 135.688L112.716 134.856C112.124 135.528 111.308 135.992 110.14 135.992C108.54 135.992 107.324 134.84 107.164 133.272H113.868C113.884 133.128 113.9 132.92 113.9 132.696C113.9 130.376 112.268 128.568 109.996 128.568C107.628 128.568 105.868 130.376 105.868 132.84C105.868 135.304 107.708 137.16 110.14 137.16ZM107.18 132.248C107.372 130.76 108.476 129.656 109.98 129.656C111.404 129.656 112.492 130.76 112.604 132.248H107.18ZM118.045 137.16C118.381 137.16 118.781 137.112 119.117 136.968L118.909 135.848C118.669 135.912 118.429 135.96 118.205 135.96C117.277 135.96 116.781 135.368 116.781 134.264V125.08H115.501V134.376C115.501 136.2 116.461 137.16 118.045 137.16ZM123.765 137.16C125.253 137.16 126.405 136.536 127.157 135.688L126.341 134.856C125.749 135.528 124.933 135.992 123.765 135.992C122.165 135.992 120.949 134.84 120.789 133.272H127.493C127.509 133.128 127.525 132.92 127.525 132.696C127.525 130.376 125.893 128.568 123.621 128.568C121.253 128.568 119.493 130.376 119.493 132.84C119.493 135.304 121.333 137.16 123.765 137.16ZM120.805 132.248C120.997 130.76 122.101 129.656 123.605 129.656C125.029 129.656 126.117 130.76 126.229 132.248H120.805ZM133.094 137.16C134.422 137.16 135.654 136.568 136.438 135.656L135.59 134.776C135.078 135.464 134.118 135.96 133.126 135.96C131.43 135.96 130.15 134.616 130.15 132.856C130.15 131.096 131.398 129.768 133.11 129.768C133.91 129.768 134.742 130.12 135.286 130.632L136.07 129.688C135.286 128.968 134.294 128.568 133.094 128.568C130.694 128.568 128.822 130.376 128.822 132.856C128.822 135.336 130.694 137.16 133.094 137.16ZM142.772 135.64C142.452 135.832 142.1 135.976 141.684 135.976C140.868 135.976 140.116 135.384 140.116 134.152V129.928H142.244L142.612 128.728H140.116V126.088H138.836V128.728H137.268V129.928H138.836V134.28C138.836 136.104 139.972 137.16 141.572 137.16C142.132 137.16 142.596 137.016 143.172 136.712L142.772 135.64ZM149.183 128.568C148.207 128.584 147.071 128.952 146.095 129.752V128.728H144.799V137H146.095V131.112C146.863 130.392 147.983 129.88 149.183 129.864V128.568ZM151.283 127.144C151.795 127.144 152.211 126.744 152.211 126.232C152.211 125.752 151.795 125.336 151.283 125.336C150.803 125.336 150.371 125.752 150.371 126.232C150.371 126.744 150.803 127.144 151.283 127.144ZM150.627 137H151.923V128.728H150.627V137ZM156.256 127.736C156.256 126.68 156.672 126.104 157.552 126.104C157.84 126.104 158.128 126.168 158.384 126.232L158.704 125.16C158.352 125.016 157.872 124.92 157.424 124.92C155.968 124.92 154.96 125.848 154.96 127.688V128.728H153.392V129.928H154.96V137H156.256V129.928H158.032L158.416 128.728H156.256V127.736ZM160.58 127.144C161.092 127.144 161.508 126.744 161.508 126.232C161.508 125.752 161.092 125.336 160.58 125.336C160.1 125.336 159.668 125.752 159.668 126.232C159.668 126.744 160.1 127.144 160.58 127.144ZM159.924 137H161.22V128.728H159.924V137ZM167.297 137.16C168.625 137.16 169.857 136.568 170.641 135.656L169.793 134.776C169.281 135.464 168.321 135.96 167.329 135.96C165.633 135.96 164.353 134.616 164.353 132.856C164.353 131.096 165.601 129.768 167.313 129.768C168.113 129.768 168.945 130.12 169.489 130.632L170.273 129.688C169.489 128.968 168.497 128.568 167.297 128.568C164.897 128.568 163.025 130.376 163.025 132.856C163.025 135.336 164.897 137.16 167.297 137.16ZM178.263 128.728V129.512C177.559 128.904 176.615 128.568 175.575 128.568C173.207 128.568 171.415 130.408 171.415 132.856C171.415 135.304 173.207 137.16 175.591 137.16C176.615 137.16 177.575 136.808 178.263 136.152V137H179.559V128.728H178.263ZM175.687 135.96C174.007 135.96 172.743 134.648 172.743 132.856C172.743 131.08 174.007 129.768 175.687 129.768C176.727 129.768 177.735 130.216 178.263 130.936V134.792C177.735 135.512 176.727 135.96 175.687 135.96ZM186.584 135.64C186.264 135.832 185.912 135.976 185.496 135.976C184.68 135.976 183.928 135.384 183.928 134.152V129.928H186.056L186.424 128.728H183.928V126.088H182.648V128.728H181.08V129.928H182.648V134.28C182.648 136.104 183.784 137.16 185.384 137.16C185.944 137.16 186.408 137.016 186.984 136.712L186.584 135.64ZM189.268 127.144C189.78 127.144 190.196 126.744 190.196 126.232C190.196 125.752 189.78 125.336 189.268 125.336C188.788 125.336 188.356 125.752 188.356 126.232C188.356 126.744 188.788 127.144 189.268 127.144ZM188.612 137H189.908V128.728H188.612V137ZM196.032 137.16C198.48 137.16 200.336 135.32 200.336 132.856C200.336 130.408 198.48 128.568 196.032 128.568C193.568 128.568 191.712 130.408 191.712 132.856C191.712 135.32 193.568 137.16 196.032 137.16ZM196.032 135.96C194.32 135.96 193.04 134.632 193.04 132.856C193.04 131.096 194.32 129.768 196.032 129.768C197.728 129.768 199.024 131.096 199.024 132.856C199.024 134.632 197.728 135.96 196.032 135.96ZM206.126 128.568C205.102 128.568 204.206 128.92 203.47 129.592V128.728H202.19V137H203.47V130.92C204.062 130.28 204.862 129.768 205.886 129.768C207.214 129.768 208.062 130.744 208.062 132.2V137H209.342V132.184C209.342 130.008 208.046 128.568 206.126 128.568ZM226.385 128.728C226.049 131.4 224.961 133.608 223.553 135.208L221.009 128.728H219.585L220.817 131.656C220.273 133.064 219.521 134.264 218.609 135.272L215.921 128.728H214.513L218.161 137.16C219.393 136.312 220.561 134.888 221.425 133.128L223.121 137.16C225.345 135.656 227.297 132.408 227.729 128.728H226.385ZM229.987 127.144C230.499 127.144 230.915 126.744 230.915 126.232C230.915 125.752 230.499 125.336 229.987 125.336C229.507 125.336 229.075 125.752 229.075 126.232C229.075 126.744 229.507 127.144 229.987 127.144ZM229.331 137H230.627V128.728H229.331V137ZM237.631 135.64C237.311 135.832 236.959 135.976 236.543 135.976C235.727 135.976 234.975 135.384 234.975 134.152V129.928H237.103L237.471 128.728H234.975V126.088H233.695V128.728H232.127V129.928H233.695V134.28C233.695 136.104 234.831 137.16 236.431 137.16C236.991 137.16 237.455 137.016 238.031 136.712L237.631 135.64ZM243.611 128.568C242.587 128.568 241.691 128.92 240.955 129.592V125.08H239.675V137H240.955V130.92C241.547 130.28 242.347 129.768 243.371 129.768C244.699 129.768 245.547 130.744 245.547 132.2V137H246.827V132.184C246.827 130.008 245.531 128.568 243.611 128.568ZM257.261 128.568C256.285 128.584 255.149 128.952 254.173 129.752V128.728H252.877V137H254.173V131.112C254.941 130.392 256.061 129.88 257.261 129.864V128.568ZM261.984 137.16C263.472 137.16 264.624 136.536 265.376 135.688L264.56 134.856C263.968 135.528 263.152 135.992 261.984 135.992C260.384 135.992 259.168 134.84 259.008 133.272H265.712C265.728 133.128 265.744 132.92 265.744 132.696C265.744 130.376 264.112 128.568 261.84 128.568C259.472 128.568 257.712 130.376 257.712 132.84C257.712 135.304 259.552 137.16 261.984 137.16ZM259.024 132.248C259.216 130.76 260.32 129.656 261.824 129.656C263.248 129.656 264.336 130.76 264.448 132.248H259.024ZM271.376 128.568C270.352 128.568 269.456 128.92 268.72 129.592V128.728H267.44V137H268.72V130.92C269.312 130.28 270.112 129.768 271.136 129.768C272.464 129.768 273.312 130.744 273.312 132.2V137H274.592V132.184C274.592 130.008 273.296 128.568 271.376 128.568ZM280.64 137.16C282.128 137.16 283.28 136.536 284.032 135.688L283.216 134.856C282.624 135.528 281.808 135.992 280.64 135.992C279.04 135.992 277.824 134.84 277.664 133.272H284.368C284.384 133.128 284.4 132.92 284.4 132.696C284.4 130.376 282.768 128.568 280.496 128.568C278.128 128.568 276.368 130.376 276.368 132.84C276.368 135.304 278.208 137.16 280.64 137.16ZM277.68 132.248C277.872 130.76 278.976 129.656 280.48 129.656C281.904 129.656 282.992 130.76 283.104 132.248H277.68ZM296.526 128.728C296.19 131.4 295.102 133.608 293.694 135.208L291.15 128.728H289.726L290.958 131.656C290.414 133.064 289.662 134.264 288.75 135.272L286.062 128.728H284.654L288.302 137.16C289.534 136.312 290.702 134.888 291.566 133.128L293.262 137.16C295.486 135.656 297.438 132.408 297.87 128.728H296.526ZM305.545 128.728V129.512C304.841 128.904 303.897 128.568 302.857 128.568C300.489 128.568 298.697 130.408 298.697 132.856C298.697 135.304 300.489 137.16 302.873 137.16C303.897 137.16 304.857 136.808 305.545 136.152V137H306.841V128.728H305.545ZM302.969 135.96C301.289 135.96 300.025 134.648 300.025 132.856C300.025 131.08 301.289 129.768 302.969 129.768C304.009 129.768 305.017 130.216 305.545 130.936V134.792C305.017 135.512 304.009 135.96 302.969 135.96ZM313.033 137.16C315.401 137.16 317.193 135.304 317.193 132.856C317.193 130.408 315.401 128.568 313.033 128.568C312.009 128.568 311.049 128.904 310.345 129.512V125.08H309.065V137H310.345V136.152C311.033 136.808 311.993 137.16 313.033 137.16ZM312.937 135.96C311.897 135.96 310.889 135.512 310.345 134.792V130.936C310.889 130.216 311.897 129.768 312.937 129.768C314.601 129.768 315.881 131.08 315.881 132.856C315.881 134.648 314.601 135.96 312.937 135.96ZM321.482 137.16C321.818 137.16 322.218 137.112 322.554 136.968L322.346 135.848C322.106 135.912 321.866 135.96 321.642 135.96C320.714 135.96 320.218 135.368 320.218 134.264V125.08H318.938V134.376C318.938 136.2 319.898 137.16 321.482 137.16ZM327.203 137.16C328.691 137.16 329.843 136.536 330.595 135.688L329.779 134.856C329.187 135.528 328.371 135.992 327.203 135.992C325.603 135.992 324.387 134.84 324.227 133.272H330.931C330.947 133.128 330.963 132.92 330.963 132.696C330.963 130.376 329.331 128.568 327.059 128.568C324.691 128.568 322.931 130.376 322.931 132.84C322.931 135.304 324.771 137.16 327.203 137.16ZM324.243 132.248C324.435 130.76 325.539 129.656 327.043 129.656C328.467 129.656 329.555 130.76 329.667 132.248H324.243ZM120.892 152.568C119.868 152.568 118.972 152.92 118.236 153.592V149.08H116.956V161H118.236V154.92C118.828 154.28 119.628 153.768 120.652 153.768C121.98 153.768 122.828 154.744 122.828 156.2V161H124.108V156.184C124.108 154.008 122.812 152.568 120.892 152.568ZM132.137 152.728C131.753 155.464 130.777 157.992 129.497 159.736L126.649 152.728H125.225L128.601 160.776C127.481 161.896 126.137 162.712 124.489 163.208L124.761 164.36C126.777 163.8 128.665 162.568 130.009 161C131.817 158.888 133.081 155.928 133.465 152.728H132.137ZM138.466 161.16C139.49 161.16 140.45 160.808 141.138 160.152V161H142.434V149.08H141.138V153.512C140.434 152.904 139.49 152.568 138.45 152.568C136.082 152.568 134.29 154.408 134.29 156.856C134.29 159.304 136.082 161.16 138.466 161.16ZM138.562 159.96C136.882 159.96 135.618 158.648 135.618 156.856C135.618 155.08 136.882 153.768 138.562 153.768C139.602 153.768 140.61 154.216 141.138 154.936V158.792C140.61 159.512 139.602 159.96 138.562 159.96ZM149.027 152.568C148.051 152.584 146.915 152.952 145.939 153.752V152.728H144.643V161H145.939V155.112C146.707 154.392 147.827 153.88 149.027 153.864V152.568ZM153.798 161.16C156.246 161.16 158.102 159.32 158.102 156.856C158.102 154.408 156.246 152.568 153.798 152.568C151.334 152.568 149.478 154.408 149.478 156.856C149.478 159.32 151.334 161.16 153.798 161.16ZM153.798 159.96C152.086 159.96 150.806 158.632 150.806 156.856C150.806 155.096 152.086 153.768 153.798 153.768C155.494 153.768 156.79 155.096 156.79 156.856C156.79 158.632 155.494 159.96 153.798 159.96ZM162.532 164.36C165.428 164.248 167.716 162.824 167.716 159.064V152.728H166.436V153.528C165.748 152.904 164.788 152.568 163.732 152.568C161.364 152.568 159.556 154.408 159.556 156.84C159.556 159.24 161.348 161.064 163.732 161.064C164.772 161.064 165.7 160.728 166.404 160.088C166.148 162.216 164.612 163.112 162.532 163.192V164.36ZM163.844 159.928C162.164 159.928 160.884 158.616 160.884 156.824C160.884 155.064 162.164 153.752 163.844 153.752C164.916 153.752 165.924 154.232 166.436 154.952V158.728C165.924 159.448 164.916 159.928 163.844 159.928ZM173.828 161.16C175.316 161.16 176.468 160.536 177.22 159.688L176.404 158.856C175.812 159.528 174.996 159.992 173.828 159.992C172.228 159.992 171.012 158.84 170.852 157.272H177.556C177.572 157.128 177.588 156.92 177.588 156.696C177.588 154.376 175.956 152.568 173.684 152.568C171.316 152.568 169.556 154.376 169.556 156.84C169.556 159.304 171.396 161.16 173.828 161.16ZM170.868 156.248C171.06 154.76 172.164 153.656 173.668 153.656C175.092 153.656 176.18 154.76 176.292 156.248H170.868ZM183.22 152.568C182.196 152.568 181.3 152.92 180.564 153.592V152.728H179.284V161H180.564V154.92C181.156 154.28 181.956 153.768 182.98 153.768C184.308 153.768 185.156 154.744 185.156 156.2V161H186.436V156.184C186.436 154.008 185.14 152.568 183.22 152.568ZM188.116 163.496C189.332 162.456 189.86 161.24 189.908 159.192H188.612C188.564 160.824 188.276 161.672 187.348 162.664L188.116 163.496ZM204.972 156.504L204.156 155.64L202.044 157.688L198.556 153.592C198.092 153.048 197.484 152.536 197.484 151.688C197.484 150.84 198.156 150.152 199.148 150.152C199.772 150.152 200.38 150.44 200.94 150.984L201.756 150.04C201.036 149.384 200.22 148.92 199.18 148.92C197.5 148.92 196.172 150.168 196.172 151.656C196.172 152.984 197.052 153.736 197.596 154.344L197.532 154.392C195.804 155.784 195.132 156.76 195.132 158.008C195.132 159.88 196.652 161.16 198.524 161.16C199.74 161.16 200.7 160.632 201.916 159.464L203.196 161H204.876L202.812 158.584L204.972 156.504ZM201.116 158.6C200.124 159.544 199.42 159.944 198.604 159.944C197.372 159.944 196.46 159.032 196.46 157.96C196.46 157.016 197.004 156.376 198.332 155.272L198.364 155.256L201.148 158.568L201.116 158.6ZM214.453 161.16C215.941 161.16 217.093 160.536 217.845 159.688L217.029 158.856C216.437 159.528 215.621 159.992 214.453 159.992C212.853 159.992 211.637 158.84 211.477 157.272H218.181C218.197 157.128 218.213 156.92 218.213 156.696C218.213 154.376 216.581 152.568 214.309 152.568C211.941 152.568 210.181 154.376 210.181 156.84C210.181 159.304 212.021 161.16 214.453 161.16ZM211.493 156.248C211.685 154.76 212.789 153.656 214.293 153.656C215.717 153.656 216.805 154.76 216.917 156.248H211.493ZM219.461 156.792H223.349V155.576H219.461V156.792ZM226.896 151.736C226.896 150.68 227.312 150.104 228.192 150.104C228.48 150.104 228.768 150.168 229.024 150.232L229.344 149.16C228.992 149.016 228.512 148.92 228.064 148.92C226.608 148.92 225.6 149.848 225.6 151.688V152.728H224.032V153.928H225.6V161H226.896V153.928H228.672L229.056 152.728H226.896V151.736ZM233.733 161.16C234.757 161.16 235.653 160.808 236.389 160.136V161H237.669V152.728H236.389V158.808C235.797 159.448 234.997 159.96 233.973 159.96C232.645 159.96 231.797 158.984 231.797 157.528V152.728H230.517V157.544C230.517 159.72 231.813 161.16 233.733 161.16ZM243.781 161.16C245.269 161.16 246.421 160.536 247.173 159.688L246.357 158.856C245.765 159.528 244.949 159.992 243.781 159.992C242.181 159.992 240.965 158.84 240.805 157.272H247.509C247.525 157.128 247.541 156.92 247.541 156.696C247.541 154.376 245.909 152.568 243.637 152.568C241.269 152.568 239.509 154.376 239.509 156.84C239.509 159.304 241.349 161.16 243.781 161.16ZM240.821 156.248C241.013 154.76 242.117 153.656 243.621 153.656C245.045 153.656 246.133 154.76 246.245 156.248H240.821ZM251.685 161.16C252.021 161.16 252.421 161.112 252.757 160.968L252.549 159.848C252.309 159.912 252.069 159.96 251.845 159.96C250.917 159.96 250.421 159.368 250.421 158.264V149.08H249.141V158.376C249.141 160.2 250.101 161.16 251.685 161.16ZM256.658 161.16C258.354 161.16 259.362 160.152 259.362 158.712C259.362 157.384 258.466 156.632 256.818 156.136C255.938 155.88 255.106 155.64 255.106 154.84C255.106 154.168 255.714 153.72 256.626 153.72C257.298 153.72 257.97 153.976 258.514 154.472L259.17 153.544C258.498 152.92 257.618 152.568 256.61 152.568C255.01 152.568 253.826 153.528 253.826 154.872C253.826 156.312 255.122 156.904 256.354 157.272C257.282 157.56 258.082 157.88 258.082 158.76C258.082 159.464 257.57 160.008 256.642 160.008C255.778 160.008 254.882 159.592 254.226 158.856L253.474 159.784C254.258 160.616 255.394 161.16 256.658 161.16Z" fill="#3B4956"/>
<rect width="200" height="48" transform="translate(77.75 191)" fill="#4099DA"/>
<path d="M98.2723 216.584C99.6003 215.928 100.4 214.696 100.4 213.112C100.4 210.68 98.5603 209.08 95.8083 209.08H91.2803V221H93.6483V217.112H95.8083H95.8883C96.7363 219.304 98.4483 220.92 100.656 221.16L101.152 218.984C99.8403 218.744 98.8003 217.88 98.2723 216.584ZM93.6483 211.336H95.6963C97.1683 211.336 97.9683 211.96 97.9683 213.112C97.9683 214.264 97.1683 214.856 95.6963 214.856H93.6483V211.336ZM106.094 221.16C107.566 221.16 108.782 220.568 109.566 219.672L108.174 218.296C107.758 218.808 107.022 219.192 106.078 219.192C104.942 219.192 104.11 218.472 103.934 217.496H109.918C109.95 217.336 109.982 217.08 109.982 216.776C109.982 214.392 108.366 212.568 105.966 212.568C103.518 212.568 101.678 214.312 101.678 216.856C101.678 219.32 103.566 221.16 106.094 221.16ZM103.934 215.992C104.11 215.048 104.83 214.36 105.886 214.36C106.894 214.36 107.662 215.048 107.758 215.992H103.934ZM115.887 212.568C114.943 212.568 114.191 212.84 113.471 213.416V212.728H111.215V221H113.471V215.496C113.967 215.016 114.607 214.648 115.359 214.648C116.399 214.648 116.975 215.336 116.975 216.52V221H119.231V216.296C119.231 214.056 117.871 212.568 115.887 212.568ZM124.953 221.16C126.425 221.16 127.641 220.568 128.425 219.672L127.033 218.296C126.617 218.808 125.881 219.192 124.937 219.192C123.801 219.192 122.969 218.472 122.793 217.496H128.777C128.809 217.336 128.841 217.08 128.841 216.776C128.841 214.392 127.225 212.568 124.825 212.568C122.377 212.568 120.537 214.312 120.537 216.856C120.537 219.32 122.425 221.16 124.953 221.16ZM122.793 215.992C122.969 215.048 123.689 214.36 124.745 214.36C125.753 214.36 126.521 215.048 126.617 215.992H122.793ZM140.427 212.728C140.219 214.712 139.595 216.408 138.363 217.88L136.315 212.728H133.899L135.019 215.272C134.635 216.248 134.107 217.144 133.339 218.024L131.115 212.728H128.699L132.571 221.16C133.947 220.392 135.179 219.128 136.059 217.608L137.643 221.16C140.507 219.656 142.395 216.344 142.763 212.728H140.427ZM149.592 212.728V213.288C148.968 212.792 148.232 212.568 147.4 212.568C145.048 212.568 143.24 214.408 143.24 216.856C143.24 219.304 145.048 221.16 147.432 221.16C148.248 221.16 149.032 220.936 149.592 220.376V221H151.848V212.728H149.592ZM147.752 219.128C146.504 219.128 145.512 218.2 145.512 216.856C145.512 215.528 146.504 214.6 147.752 214.6C148.488 214.6 149.16 214.888 149.592 215.4V218.328C149.16 218.84 148.488 219.128 147.752 219.128ZM157.928 221.16C160.312 221.16 162.136 219.304 162.136 216.856C162.136 214.408 160.312 212.568 157.96 212.568C157.128 212.568 156.408 212.792 155.768 213.288V209.08H153.512V221H155.768V220.376C156.344 220.936 157.112 221.16 157.928 221.16ZM157.624 219.128C156.888 219.128 156.2 218.84 155.768 218.328V215.4C156.2 214.888 156.888 214.6 157.624 214.6C158.856 214.6 159.848 215.528 159.848 216.856C159.848 218.2 158.856 219.128 157.624 219.128ZM166.391 221.16C166.823 221.16 167.319 221.096 167.767 220.936L167.495 218.968C167.271 219.016 167.063 219.08 166.839 219.08C166.039 219.08 165.671 218.616 165.671 217.784V209.08H163.415V218.056C163.415 219.992 164.583 221.16 166.391 221.16ZM172.406 221.16C173.878 221.16 175.094 220.568 175.878 219.672L174.486 218.296C174.07 218.808 173.334 219.192 172.39 219.192C171.254 219.192 170.422 218.472 170.246 217.496H176.23C176.262 217.336 176.294 217.08 176.294 216.776C176.294 214.392 174.678 212.568 172.278 212.568C169.83 212.568 167.99 214.312 167.99 216.856C167.99 219.32 169.878 221.16 172.406 221.16ZM170.246 215.992C170.422 215.048 171.142 214.36 172.198 214.36C173.206 214.36 173.974 215.048 174.07 215.992H170.246ZM183.984 224.36C187.44 224.312 189.584 222.536 189.584 218.92V212.728H187.328V213.32C186.736 212.824 186.016 212.568 185.136 212.568C182.736 212.568 180.928 214.424 180.928 216.792C180.928 219.128 182.672 220.856 185.088 220.856C185.968 220.856 186.704 220.6 187.296 220.072C187.072 221.672 185.856 222.344 183.984 222.424V224.36ZM185.44 219.016C184.192 219.016 183.2 218.088 183.2 216.76C183.2 215.496 184.192 214.552 185.44 214.552C186.304 214.552 186.992 214.952 187.328 215.448V218.12C186.992 218.632 186.304 219.016 185.44 219.016ZM195.406 221.16C196.878 221.16 198.094 220.568 198.878 219.672L197.486 218.296C197.07 218.808 196.334 219.192 195.39 219.192C194.254 219.192 193.422 218.472 193.246 217.496H199.23C199.262 217.336 199.294 217.08 199.294 216.776C199.294 214.392 197.678 212.568 195.278 212.568C192.83 212.568 190.99 214.312 190.99 216.856C190.99 219.32 192.878 221.16 195.406 221.16ZM193.246 215.992C193.422 215.048 194.142 214.36 195.198 214.36C196.206 214.36 196.974 215.048 197.07 215.992H193.246ZM205.199 212.568C204.255 212.568 203.503 212.84 202.783 213.416V212.728H200.527V221H202.783V215.496C203.279 215.016 203.919 214.648 204.671 214.648C205.711 214.648 206.287 215.336 206.287 216.52V221H208.543V216.296C208.543 214.056 207.183 212.568 205.199 212.568ZM214.265 221.16C215.737 221.16 216.953 220.568 217.737 219.672L216.345 218.296C215.929 218.808 215.193 219.192 214.249 219.192C213.113 219.192 212.281 218.472 212.105 217.496H218.089C218.121 217.336 218.153 217.08 218.153 216.776C218.153 214.392 216.537 212.568 214.137 212.568C211.689 212.568 209.849 214.312 209.849 216.856C209.849 219.32 211.737 221.16 214.265 221.16ZM212.105 215.992C212.281 215.048 213.001 214.36 214.057 214.36C215.065 214.36 215.833 215.048 215.929 215.992H212.105ZM224.635 212.568C223.579 212.616 222.635 212.904 221.643 213.704V212.728H219.387V221H221.643V215.976C222.427 215.272 223.483 214.856 224.635 214.808V212.568ZM231.451 212.728V213.288C230.827 212.792 230.091 212.568 229.259 212.568C226.907 212.568 225.099 214.408 225.099 216.856C225.099 219.304 226.907 221.16 229.291 221.16C230.107 221.16 230.891 220.936 231.451 220.376V221H233.707V212.728H231.451ZM229.611 219.128C228.363 219.128 227.371 218.2 227.371 216.856C227.371 215.528 228.363 214.6 229.611 214.6C230.347 214.6 231.019 214.888 231.451 215.4V218.328C231.019 218.84 230.347 219.128 229.611 219.128ZM240.827 218.76C240.491 218.968 240.139 219.16 239.691 219.16C239.051 219.16 238.459 218.712 238.459 217.656V214.792H240.251L240.795 212.728H238.459V210.088H236.203V212.728H234.795V214.792H236.203V217.976C236.203 220.088 237.515 221.16 239.339 221.16C240.043 221.16 240.667 221 241.483 220.568L240.827 218.76ZM243.726 211.464C244.462 211.464 245.07 210.856 245.07 210.168C245.07 209.496 244.462 208.872 243.726 208.872C242.99 208.872 242.382 209.496 242.382 210.168C242.382 210.856 242.99 211.464 243.726 211.464ZM242.59 221H244.846V212.728H242.59V221ZM250.656 221.16C253.152 221.16 255.04 219.304 255.04 216.856C255.04 214.408 253.152 212.568 250.656 212.568C248.144 212.568 246.256 214.408 246.256 216.856C246.256 219.304 248.144 221.16 250.656 221.16ZM250.656 219.08C249.44 219.08 248.528 218.152 248.528 216.856C248.528 215.576 249.44 214.648 250.656 214.648C251.856 214.648 252.752 215.576 252.752 216.856C252.752 218.152 251.856 219.08 250.656 219.08ZM261.106 212.568C260.162 212.568 259.41 212.84 258.69 213.416V212.728H256.434V221H258.69V215.496C259.186 215.016 259.826 214.648 260.578 214.648C261.618 214.648 262.194 215.336 262.194 216.52V221H264.45V216.296C264.45 214.056 263.09 212.568 261.106 212.568Z" fill="white"/>
<rect width="101" height="64" transform="translate(127.25 239)" fill="#EBEDEE"/>
<path d="M146.421 273.632H150.159V271.77H146.421V269.544H150.677L151.195 267.57H144.349V278H150.705L151.195 276.026H146.421V273.632ZM154.809 278.14C155.187 278.14 155.621 278.084 156.013 277.944L155.775 276.222C155.579 276.264 155.397 276.32 155.201 276.32C154.501 276.32 154.179 275.914 154.179 275.186V267.57H152.205V275.424C152.205 277.118 153.227 278.14 154.809 278.14ZM160.072 278.14C161.36 278.14 162.424 277.622 163.11 276.838L161.892 275.634C161.528 276.082 160.884 276.418 160.058 276.418C159.064 276.418 158.336 275.788 158.182 274.934H163.418C163.446 274.794 163.474 274.57 163.474 274.304C163.474 272.218 162.06 270.622 159.96 270.622C157.818 270.622 156.208 272.148 156.208 274.374C156.208 276.53 157.86 278.14 160.072 278.14ZM158.182 273.618C158.336 272.792 158.966 272.19 159.89 272.19C160.772 272.19 161.444 272.792 161.528 273.618H158.182ZM168.151 278.14C169.369 278.14 170.461 277.608 171.161 276.782L169.901 275.466C169.551 275.942 168.935 276.32 168.249 276.32C167.185 276.32 166.317 275.48 166.317 274.36C166.317 273.268 167.115 272.442 168.221 272.442C168.823 272.442 169.341 272.708 169.691 273.058L170.895 271.714C170.167 271 169.243 270.622 168.165 270.622C166.051 270.622 164.329 272.148 164.329 274.36C164.329 276.586 166.051 278.14 168.151 278.14ZM176.86 276.04C176.566 276.222 176.258 276.39 175.866 276.39C175.306 276.39 174.788 275.998 174.788 275.074V272.568H176.356L176.832 270.762H174.788V268.452H172.814V270.762H171.582V272.568H172.814V275.354C172.814 277.202 173.962 278.14 175.558 278.14C176.174 278.14 176.72 278 177.434 277.622L176.86 276.04ZM182.995 270.622C182.071 270.664 181.245 270.916 180.377 271.616V270.762H178.403V278H180.377V273.604C181.063 272.988 181.987 272.624 182.995 272.582V270.622ZM185.002 269.656C185.646 269.656 186.178 269.124 186.178 268.522C186.178 267.934 185.646 267.388 185.002 267.388C184.358 267.388 183.826 267.934 183.826 268.522C183.826 269.124 184.358 269.656 185.002 269.656ZM184.008 278H185.982V270.762H184.008V278ZM191.038 278.14C192.256 278.14 193.348 277.608 194.048 276.782L192.788 275.466C192.438 275.942 191.822 276.32 191.136 276.32C190.072 276.32 189.204 275.48 189.204 274.36C189.204 273.268 190.002 272.442 191.108 272.442C191.71 272.442 192.228 272.708 192.578 273.058L193.782 271.714C193.054 271 192.13 270.622 191.052 270.622C188.938 270.622 187.216 272.148 187.216 274.36C187.216 276.586 188.938 278.14 191.038 278.14ZM195.967 269.656C196.611 269.656 197.143 269.124 197.143 268.522C197.143 267.934 196.611 267.388 195.967 267.388C195.323 267.388 194.791 267.934 194.791 268.522C194.791 269.124 195.323 269.656 195.967 269.656ZM194.973 278H196.947V270.762H194.973V278ZM203.179 276.04C202.885 276.222 202.577 276.39 202.185 276.39C201.625 276.39 201.107 275.998 201.107 275.074V272.568H202.675L203.151 270.762H201.107V268.452H199.133V270.762H197.901V272.568H199.133V275.354C199.133 277.202 200.281 278.14 201.877 278.14C202.493 278.14 203.039 278 203.753 277.622L203.179 276.04ZM209.732 270.762C209.466 272.708 208.864 274.444 208.024 275.788L205.98 270.762H203.852L206.68 277.482C205.826 278.266 204.776 278.84 203.432 279.19L203.852 280.94C205.826 280.45 207.408 279.414 208.696 278C210.334 276.166 211.398 273.632 211.776 270.762H209.732Z" fill="#3B4956"/>
<path d="M228.25 303L176.009 323L127.25 303L228.25 303Z" fill="#EBEDEE"/>
<rect width="200" height="48" transform="translate(77.75 323)" fill="#4099DA"/>
<path d="M137.461 348.008H141.733V345.88H137.461V343.336H142.325L142.917 341.08H135.093V353H142.357L142.917 350.744H137.461V348.008ZM147.048 353.16C147.48 353.16 147.976 353.096 148.424 352.936L148.152 350.968C147.928 351.016 147.72 351.08 147.496 351.08C146.696 351.08 146.328 350.616 146.328 349.784V341.08H144.072V350.056C144.072 351.992 145.24 353.16 147.048 353.16ZM153.062 353.16C154.534 353.16 155.75 352.568 156.534 351.672L155.142 350.296C154.726 350.808 153.99 351.192 153.046 351.192C151.91 351.192 151.078 350.472 150.902 349.496H156.886C156.918 349.336 156.95 349.08 156.95 348.776C156.95 346.392 155.334 344.568 152.934 344.568C150.486 344.568 148.646 346.312 148.646 348.856C148.646 351.32 150.534 353.16 153.062 353.16ZM150.902 347.992C151.078 347.048 151.798 346.36 152.854 346.36C153.862 346.36 154.63 347.048 154.726 347.992H150.902ZM162.296 353.16C163.688 353.16 164.936 352.552 165.736 351.608L164.296 350.104C163.896 350.648 163.192 351.08 162.408 351.08C161.192 351.08 160.2 350.12 160.2 348.84C160.2 347.592 161.112 346.648 162.376 346.648C163.064 346.648 163.656 346.952 164.056 347.352L165.432 345.816C164.6 345 163.544 344.568 162.312 344.568C159.896 344.568 157.928 346.312 157.928 348.84C157.928 351.384 159.896 353.16 162.296 353.16ZM172.249 350.76C171.913 350.968 171.561 351.16 171.113 351.16C170.473 351.16 169.881 350.712 169.881 349.656V346.792H171.673L172.217 344.728H169.881V342.088H167.625V344.728H166.217V346.792H167.625V349.976C167.625 352.088 168.937 353.16 170.761 353.16C171.465 353.16 172.089 353 172.905 352.568L172.249 350.76ZM179.26 344.568C178.204 344.616 177.26 344.904 176.268 345.704V344.728H174.012V353H176.268V347.976C177.052 347.272 178.108 346.856 179.26 346.808V344.568ZM184.124 353.16C186.62 353.16 188.508 351.304 188.508 348.856C188.508 346.408 186.62 344.568 184.124 344.568C181.612 344.568 179.724 346.408 179.724 348.856C179.724 351.304 181.612 353.16 184.124 353.16ZM184.124 351.08C182.908 351.08 181.996 350.152 181.996 348.856C181.996 347.576 182.908 346.648 184.124 346.648C185.324 346.648 186.22 347.576 186.22 348.856C186.22 350.152 185.324 351.08 184.124 351.08ZM192.766 353.16C193.198 353.16 193.694 353.096 194.142 352.936L193.87 350.968C193.646 351.016 193.438 351.08 193.214 351.08C192.414 351.08 192.046 350.616 192.046 349.784V341.08H189.79V350.056C189.79 351.992 190.958 353.16 192.766 353.16ZM200.394 344.728C200.09 346.952 199.402 348.936 198.442 350.472L196.106 344.728H193.674L196.906 352.408C195.93 353.304 194.73 353.96 193.194 354.36L193.674 356.36C195.93 355.8 197.738 354.616 199.21 353C201.082 350.904 202.298 348.008 202.73 344.728H200.394ZM206.618 353.16C208.426 353.16 209.61 352.12 209.61 350.504C209.61 349.176 208.682 348.264 206.954 347.832C205.946 347.592 205.53 347.464 205.53 347.048C205.53 346.68 205.914 346.456 206.474 346.456C207.162 346.456 207.882 346.76 208.474 347.176L209.45 345.592C208.634 344.968 207.642 344.568 206.41 344.568C204.65 344.568 203.354 345.608 203.354 347.048C203.354 348.488 204.41 349.192 205.994 349.64C207.018 349.928 207.45 350.104 207.45 350.584C207.45 350.968 207.146 351.256 206.57 351.256C205.786 351.256 204.858 350.888 204.09 350.152L203.002 351.736C203.866 352.568 205.178 353.16 206.618 353.16ZM211.991 343.464C212.727 343.464 213.335 342.856 213.335 342.168C213.335 341.496 212.727 340.872 211.991 340.872C211.255 340.872 210.647 341.496 210.647 342.168C210.647 342.856 211.255 343.464 211.991 343.464ZM210.855 353H213.111V344.728H210.855V353ZM217.961 353.16C219.769 353.16 220.953 352.12 220.953 350.504C220.953 349.176 220.025 348.264 218.297 347.832C217.289 347.592 216.873 347.464 216.873 347.048C216.873 346.68 217.257 346.456 217.817 346.456C218.505 346.456 219.225 346.76 219.817 347.176L220.793 345.592C219.977 344.968 218.985 344.568 217.753 344.568C215.993 344.568 214.697 345.608 214.697 347.048C214.697 348.488 215.753 349.192 217.337 349.64C218.361 349.928 218.793 350.104 218.793 350.584C218.793 350.968 218.489 351.256 217.913 351.256C217.129 351.256 216.201 350.888 215.433 350.152L214.345 351.736C215.209 352.568 216.521 353.16 217.961 353.16Z" fill="white"/>
<rect width="99" height="64" transform="translate(130 371)" fill="#EBEDEE"/>
<path d="M153.948 399.57V403.798H148.95V399.57H146.878V410H148.95V405.758H153.948V410H156.02V399.57H153.948ZM163.029 402.762C162.763 404.708 162.161 406.444 161.321 407.788L159.277 402.762H157.149L159.977 409.482C159.123 410.266 158.073 410.84 156.729 411.19L157.149 412.94C159.123 412.45 160.705 411.414 161.993 410C163.631 408.166 164.695 405.632 165.073 402.762H163.029ZM169.159 410.14C169.873 410.14 170.559 409.944 171.049 409.454V410H173.023V399.57H171.049V403.252C170.503 402.818 169.859 402.622 169.131 402.622C167.073 402.622 165.491 404.232 165.491 406.374C165.491 408.516 167.073 410.14 169.159 410.14ZM169.439 408.362C168.347 408.362 167.479 407.55 167.479 406.374C167.479 405.212 168.347 404.4 169.439 404.4C170.083 404.4 170.671 404.652 171.049 405.1V407.662C170.671 408.11 170.083 408.362 169.439 408.362ZM179.071 402.622C178.147 402.664 177.321 402.916 176.453 403.616V402.762H174.479V410H176.453V405.604C177.139 404.988 178.063 404.624 179.071 404.582V402.622ZM183.328 410.14C185.512 410.14 187.164 408.516 187.164 406.374C187.164 404.232 185.512 402.622 183.328 402.622C181.13 402.622 179.478 404.232 179.478 406.374C179.478 408.516 181.13 410.14 183.328 410.14ZM183.328 408.32C182.264 408.32 181.466 407.508 181.466 406.374C181.466 405.254 182.264 404.442 183.328 404.442C184.378 404.442 185.162 405.254 185.162 406.374C185.162 407.508 184.378 408.32 183.328 408.32ZM190.833 412.94C193.857 412.898 195.733 411.344 195.733 408.18V402.762H193.759V403.28C193.241 402.846 192.611 402.622 191.841 402.622C189.741 402.622 188.159 404.246 188.159 406.318C188.159 408.362 189.685 409.874 191.799 409.874C192.569 409.874 193.213 409.65 193.731 409.188C193.535 410.588 192.471 411.176 190.833 411.246V412.94ZM192.107 408.264C191.015 408.264 190.147 407.452 190.147 406.29C190.147 405.184 191.015 404.358 192.107 404.358C192.863 404.358 193.465 404.708 193.759 405.142V407.48C193.465 407.928 192.863 408.264 192.107 408.264ZM200.828 410.14C202.116 410.14 203.18 409.622 203.866 408.838L202.648 407.634C202.284 408.082 201.64 408.418 200.814 408.418C199.82 408.418 199.092 407.788 198.938 406.934H204.174C204.202 406.794 204.23 406.57 204.23 406.304C204.23 404.218 202.816 402.622 200.716 402.622C198.574 402.622 196.964 404.148 196.964 406.374C196.964 408.53 198.616 410.14 200.828 410.14ZM198.938 405.618C199.092 404.792 199.722 404.19 200.646 404.19C201.528 404.19 202.2 404.792 202.284 405.618H198.938ZM209.397 402.622C208.571 402.622 207.913 402.86 207.283 403.364V402.762H205.309V410H207.283V405.184C207.717 404.764 208.277 404.442 208.935 404.442C209.845 404.442 210.349 405.044 210.349 406.08V410H212.323V405.884C212.323 403.924 211.133 402.622 209.397 402.622Z" fill="#3B4956"/>
<path d="M229 435L177.793 455L130 435L229 435Z" fill="#EBEDEE"/>
<path d="M229 401.5H247.069L250.5 405.5L247.069 409.5H229V401.5Z" fill="#EBEDEE"/>
<path d="M269.771 402.044L270.289 400.07H263.429V410.5H265.501V406.454H269.393V404.592H265.501V402.044H269.771ZM273.938 410.64C274.764 410.64 275.422 410.402 276.052 409.898V410.5H278.026V403.262H276.052V408.078C275.618 408.498 275.058 408.82 274.4 408.82C273.49 408.82 272.986 408.218 272.986 407.182V403.262H271.012V407.378C271.012 409.338 272.202 410.64 273.938 410.64ZM283.117 410.64C284.405 410.64 285.469 410.122 286.155 409.338L284.937 408.134C284.573 408.582 283.929 408.918 283.103 408.918C282.109 408.918 281.381 408.288 281.227 407.434H286.463C286.491 407.294 286.519 407.07 286.519 406.804C286.519 404.718 285.105 403.122 283.005 403.122C280.863 403.122 279.253 404.648 279.253 406.874C279.253 409.03 280.905 410.64 283.117 410.64ZM281.227 406.118C281.381 405.292 282.011 404.69 282.935 404.69C283.817 404.69 284.489 405.292 284.573 406.118H281.227ZM290.104 410.64C290.482 410.64 290.916 410.584 291.308 410.444L291.07 408.722C290.874 408.764 290.692 408.82 290.496 408.82C289.796 408.82 289.474 408.414 289.474 407.686V400.07H287.5V407.924C287.5 409.618 288.522 410.64 290.104 410.64ZM298.948 410.64C300.166 410.64 301.258 410.108 301.958 409.282L300.698 407.966C300.348 408.442 299.732 408.82 299.046 408.82C297.982 408.82 297.114 407.98 297.114 406.86C297.114 405.768 297.912 404.942 299.018 404.942C299.62 404.942 300.138 405.208 300.488 405.558L301.692 404.214C300.964 403.5 300.04 403.122 298.962 403.122C296.848 403.122 295.126 404.648 295.126 406.86C295.126 409.086 296.848 410.64 298.948 410.64ZM306.14 410.64C307.428 410.64 308.492 410.122 309.178 409.338L307.96 408.134C307.596 408.582 306.952 408.918 306.126 408.918C305.132 408.918 304.404 408.288 304.25 407.434H309.486C309.514 407.294 309.542 407.07 309.542 406.804C309.542 404.718 308.128 403.122 306.028 403.122C303.886 403.122 302.276 404.648 302.276 406.874C302.276 409.03 303.928 410.64 306.14 410.64ZM304.25 406.118C304.404 405.292 305.034 404.69 305.958 404.69C306.84 404.69 307.512 405.292 307.596 406.118H304.25ZM313.128 410.64C313.506 410.64 313.94 410.584 314.332 410.444L314.094 408.722C313.898 408.764 313.716 408.82 313.52 408.82C312.82 408.82 312.498 408.414 312.498 407.686V400.07H310.524V407.924C310.524 409.618 311.546 410.64 313.128 410.64ZM317.598 410.64C317.976 410.64 318.41 410.584 318.802 410.444L318.564 408.722C318.368 408.764 318.186 408.82 317.99 408.82C317.29 408.82 316.968 408.414 316.968 407.686V400.07H314.994V407.924C314.994 409.618 316.016 410.64 317.598 410.64ZM322.431 410.64C324.013 410.64 325.049 409.73 325.049 408.316C325.049 407.154 324.237 406.356 322.725 405.978C321.843 405.768 321.479 405.656 321.479 405.292C321.479 404.97 321.815 404.774 322.305 404.774C322.907 404.774 323.537 405.04 324.055 405.404L324.909 404.018C324.195 403.472 323.327 403.122 322.249 403.122C320.709 403.122 319.575 404.032 319.575 405.292C319.575 406.552 320.499 407.168 321.885 407.56C322.781 407.812 323.159 407.966 323.159 408.386C323.159 408.722 322.893 408.974 322.389 408.974C321.703 408.974 320.891 408.652 320.219 408.008L319.267 409.394C320.023 410.122 321.171 410.64 322.431 410.64Z" fill="#3B4956"/>
<rect width="200" height="48" transform="translate(77.75 455)" fill="#4099DA"/>
<path d="M109.458 475.336L110.05 473.08H102.21V485H104.578V480.376H109.026V478.248H104.578V475.336H109.458ZM114.221 485.16C115.165 485.16 115.917 484.888 116.637 484.312V485H118.893V476.728H116.637V482.232C116.141 482.712 115.501 483.08 114.749 483.08C113.709 483.08 113.133 482.392 113.133 481.208V476.728H110.877V481.432C110.877 483.672 112.237 485.16 114.221 485.16ZM124.711 485.16C126.183 485.16 127.399 484.568 128.183 483.672L126.791 482.296C126.375 482.808 125.639 483.192 124.695 483.192C123.559 483.192 122.727 482.472 122.551 481.496H128.535C128.567 481.336 128.599 481.08 128.599 480.776C128.599 478.392 126.983 476.568 124.583 476.568C122.135 476.568 120.295 478.312 120.295 480.856C120.295 483.32 122.183 485.16 124.711 485.16ZM122.551 479.992C122.727 479.048 123.447 478.36 124.503 478.36C125.511 478.36 126.279 479.048 126.375 479.992H122.551ZM132.696 485.16C133.128 485.16 133.624 485.096 134.072 484.936L133.8 482.968C133.576 483.016 133.368 483.08 133.144 483.08C132.344 483.08 131.976 482.616 131.976 481.784V473.08H129.72V482.056C129.72 483.992 130.888 485.16 132.696 485.16ZM141.875 485.16C143.683 485.16 144.867 484.12 144.867 482.504C144.867 481.176 143.939 480.264 142.211 479.832C141.203 479.592 140.787 479.464 140.787 479.048C140.787 478.68 141.171 478.456 141.731 478.456C142.419 478.456 143.139 478.76 143.731 479.176L144.707 477.592C143.891 476.968 142.899 476.568 141.667 476.568C139.907 476.568 138.611 477.608 138.611 479.048C138.611 480.488 139.667 481.192 141.251 481.64C142.275 481.928 142.707 482.104 142.707 482.584C142.707 482.968 142.403 483.256 141.827 483.256C141.043 483.256 140.115 482.888 139.347 482.152L138.259 483.736C139.123 484.568 140.435 485.16 141.875 485.16ZM152.23 476.728C151.926 478.952 151.238 480.936 150.278 482.472L147.942 476.728H145.51L148.742 484.408C147.766 485.304 146.566 485.96 145.03 486.36L145.51 488.36C147.766 487.8 149.574 486.616 151.046 485C152.918 482.904 154.134 480.008 154.566 476.728H152.23ZM160.317 476.568C159.373 476.568 158.621 476.84 157.901 477.416V476.728H155.645V485H157.901V479.496C158.397 479.016 159.036 478.648 159.789 478.648C160.829 478.648 161.405 479.336 161.405 480.52V485H163.661V480.296C163.661 478.056 162.301 476.568 160.317 476.568ZM170.679 482.76C170.343 482.968 169.991 483.16 169.543 483.16C168.903 483.16 168.311 482.712 168.311 481.656V478.792H170.103L170.647 476.728H168.311V474.088H166.055V476.728H164.647V478.792H166.055V481.976C166.055 484.088 167.367 485.16 169.191 485.16C169.895 485.16 170.519 485 171.335 484.568L170.679 482.76ZM177.113 476.568C176.169 476.568 175.417 476.84 174.697 477.416V473.08H172.441V485H174.697V479.496C175.193 479.016 175.833 478.648 176.585 478.648C177.625 478.648 178.201 479.336 178.201 480.52V485H180.457V480.296C180.457 478.056 179.097 476.568 177.113 476.568ZM186.18 485.16C187.652 485.16 188.868 484.568 189.652 483.672L188.26 482.296C187.844 482.808 187.108 483.192 186.164 483.192C185.028 483.192 184.196 482.472 184.02 481.496H190.003C190.036 481.336 190.068 481.08 190.068 480.776C190.068 478.392 188.452 476.568 186.052 476.568C183.604 476.568 181.764 478.312 181.764 480.856C181.764 483.32 183.652 485.16 186.18 485.16ZM184.02 479.992C184.196 479.048 184.916 478.36 185.972 478.36C186.98 478.36 187.748 479.048 187.844 479.992H184.02ZM194.297 485.16C196.105 485.16 197.289 484.12 197.289 482.504C197.289 481.176 196.361 480.264 194.633 479.832C193.625 479.592 193.209 479.464 193.209 479.048C193.209 478.68 193.593 478.456 194.153 478.456C194.841 478.456 195.561 478.76 196.153 479.176L197.129 477.592C196.313 476.968 195.321 476.568 194.089 476.568C192.329 476.568 191.033 477.608 191.033 479.048C191.033 480.488 192.089 481.192 193.673 481.64C194.697 481.928 195.129 482.104 195.129 482.584C195.129 482.968 194.825 483.256 194.249 483.256C193.465 483.256 192.537 482.888 191.769 482.152L190.681 483.736C191.545 484.568 192.857 485.16 194.297 485.16ZM199.671 475.464C200.407 475.464 201.015 474.856 201.015 474.168C201.015 473.496 200.407 472.872 199.671 472.872C198.935 472.872 198.327 473.496 198.327 474.168C198.327 474.856 198.935 475.464 199.671 475.464ZM198.535 485H200.791V476.728H198.535V485ZM205.641 485.16C207.449 485.16 208.633 484.12 208.633 482.504C208.633 481.176 207.705 480.264 205.977 479.832C204.969 479.592 204.553 479.464 204.553 479.048C204.553 478.68 204.937 478.456 205.497 478.456C206.185 478.456 206.905 478.76 207.497 479.176L208.473 477.592C207.657 476.968 206.665 476.568 205.433 476.568C203.673 476.568 202.377 477.608 202.377 479.048C202.377 480.488 203.433 481.192 205.017 481.64C206.041 481.928 206.473 482.104 206.473 482.584C206.473 482.968 206.169 483.256 205.593 483.256C204.809 483.256 203.881 482.888 203.113 482.152L202.025 483.736C202.889 484.568 204.201 485.16 205.641 485.16ZM217.983 476.568C217.151 476.568 216.431 476.792 215.791 477.288V476.728H213.535V488.2H215.791V484.376C216.367 484.936 217.135 485.16 217.951 485.16C220.335 485.16 222.159 483.304 222.159 480.856C222.159 478.408 220.335 476.568 217.983 476.568ZM217.647 483.128C216.911 483.128 216.223 482.84 215.791 482.328V479.4C216.223 478.888 216.911 478.6 217.647 478.6C218.879 478.6 219.871 479.528 219.871 480.856C219.871 482.2 218.879 483.128 217.647 483.128ZM226.415 485.16C226.847 485.16 227.343 485.096 227.791 484.936L227.519 482.968C227.295 483.016 227.087 483.08 226.863 483.08C226.063 483.08 225.695 482.616 225.695 481.784V473.08H223.439V482.056C223.439 483.992 224.607 485.16 226.415 485.16ZM234.366 476.728V477.288C233.742 476.792 233.006 476.568 232.174 476.568C229.822 476.568 228.014 478.408 228.014 480.856C228.014 483.304 229.822 485.16 232.206 485.16C233.022 485.16 233.806 484.936 234.366 484.376V485H236.622V476.728H234.366ZM232.526 483.128C231.278 483.128 230.286 482.2 230.286 480.856C230.286 479.528 231.278 478.6 232.526 478.6C233.262 478.6 233.934 478.888 234.366 479.4V482.328C233.934 482.84 233.262 483.128 232.526 483.128ZM242.957 476.568C242.013 476.568 241.261 476.84 240.541 477.416V476.728H238.285V485H240.541V479.496C241.037 479.016 241.677 478.648 242.429 478.648C243.469 478.648 244.045 479.336 244.045 480.52V485H246.301V480.296C246.301 478.056 244.941 476.568 242.957 476.568ZM253.319 482.76C252.983 482.968 252.631 483.16 252.183 483.16C251.543 483.16 250.951 482.712 250.951 481.656V478.792H252.743L253.287 476.728H250.951V474.088H248.695V476.728H247.287V478.792H248.695V481.976C248.695 484.088 250.007 485.16 251.831 485.16C252.535 485.16 253.159 485 253.975 484.568L253.319 482.76Z" fill="white"/>
<rect width="200" height="23" transform="translate(77.75 503)" fill="#D8D1CA"/>
<path d="M136.588 519.127C137.983 519.127 139.276 518.62 140.202 517.694L139.238 516.489C138.541 517.161 137.717 517.58 136.639 517.58C134.8 517.58 133.393 516.134 133.393 514.27C133.393 512.407 134.8 510.974 136.639 510.974C137.615 510.974 138.275 511.316 138.934 511.874L139.898 510.568C139.023 509.871 137.945 509.427 136.588 509.427C133.849 509.427 131.757 511.519 131.757 514.27C131.757 517.035 133.824 519.127 136.588 519.127ZM146.699 511.836V512.267C146.166 511.899 145.481 511.709 144.746 511.709C142.679 511.709 141.132 513.256 141.132 515.412C141.132 517.567 142.679 519.127 144.746 519.127C145.481 519.127 146.153 518.924 146.699 518.544V519H148.22V511.836H146.699ZM144.949 517.77C143.617 517.77 142.705 516.819 142.705 515.412C142.705 514.017 143.63 513.066 144.949 513.066C145.659 513.066 146.293 513.332 146.699 513.814V516.933C146.293 517.402 145.659 517.77 144.949 517.77ZM153.242 511.709C152.506 511.709 151.822 511.899 151.289 512.28V511.836H149.768V521.663H151.289V518.544C151.834 518.924 152.506 519.127 153.242 519.127C155.309 519.127 156.856 517.567 156.856 515.412C156.856 513.256 155.309 511.709 153.242 511.709ZM153.039 517.77C152.329 517.77 151.695 517.466 151.289 516.997V513.839C151.695 513.358 152.342 513.066 153.039 513.066C154.358 513.066 155.283 514.017 155.283 515.412C155.283 516.819 154.37 517.77 153.039 517.77ZM162.454 517.453C162.124 517.631 161.794 517.77 161.389 517.77C160.78 517.77 160.362 517.415 160.362 516.565V513.231H162.187L162.593 511.836H160.362V509.921H158.84V511.836H157.496V513.231H158.84V516.654C158.84 518.239 159.854 519.127 161.173 519.127C161.82 519.127 162.428 518.962 162.898 518.67L162.454 517.453ZM168.641 511.836V516.921C168.235 517.44 167.664 517.732 166.967 517.732C165.876 517.732 165.242 516.971 165.242 515.703V511.836H163.721V515.919C163.721 517.821 164.951 519.127 166.751 519.127C167.436 519.127 168.121 518.911 168.641 518.48V519H170.162V511.836H168.641ZM175.868 511.709C175.057 511.722 174.03 511.925 173.231 512.508V511.836H171.709V519H173.231V514.08C173.878 513.535 174.93 513.294 175.868 513.256V511.709ZM178.231 515.919H183.671C183.696 515.741 183.709 515.5 183.709 515.285C183.709 513.231 182.263 511.709 180.285 511.709C178.18 511.709 176.608 513.269 176.608 515.399C176.608 517.542 178.231 519.127 180.387 519.127C181.591 519.127 182.682 518.683 183.328 517.846L182.352 516.819C181.959 517.352 181.236 517.77 180.399 517.77C179.258 517.77 178.434 516.959 178.231 515.919ZM180.285 513.066C181.287 513.066 181.984 513.675 182.149 514.74H178.244C178.447 513.738 179.119 513.066 180.285 513.066ZM190.335 509.173V512.28C189.802 511.899 189.117 511.709 188.382 511.709C186.315 511.709 184.768 513.256 184.768 515.412C184.768 517.567 186.315 519.127 188.382 519.127C189.117 519.127 189.789 518.924 190.335 518.544V519H191.856V509.173H190.335ZM188.585 517.77C187.253 517.77 186.34 516.819 186.34 515.412C186.34 514.017 187.266 513.066 188.585 513.066C189.295 513.066 189.929 513.332 190.335 513.814V517.022C189.929 517.491 189.295 517.77 188.585 517.77ZM201.113 519.127C202.508 519.127 203.802 518.62 204.727 517.694L203.763 516.489C203.066 517.161 202.242 517.58 201.164 517.58C199.326 517.58 197.918 516.134 197.918 514.27C197.918 512.407 199.326 510.974 201.164 510.974C202.14 510.974 202.8 511.316 203.459 511.874L204.423 510.568C203.548 509.871 202.47 509.427 201.113 509.427C198.375 509.427 196.282 511.519 196.282 514.27C196.282 517.035 198.349 519.127 201.113 519.127ZM210.165 519.127C212.917 519.127 215.009 517.035 215.009 514.27C215.009 511.519 212.917 509.427 210.165 509.427C207.401 509.427 205.322 511.519 205.322 514.27C205.322 517.035 207.401 519.127 210.165 519.127ZM210.165 517.58C208.365 517.58 206.97 516.147 206.97 514.27C206.97 512.407 208.365 510.974 210.165 510.974C211.966 510.974 213.348 512.407 213.348 514.27C213.348 516.147 211.966 517.58 210.165 517.58ZM216.019 519H222.346L222.752 517.466H219.278L220.267 516.325C221.928 514.499 222.511 513.713 222.511 512.407C222.511 510.644 221.154 509.427 219.303 509.427C217.845 509.427 216.729 510.124 215.854 511.418L217.008 512.419C217.591 511.443 218.352 510.974 219.24 510.974C220.216 510.974 220.863 511.608 220.863 512.533C220.863 513.51 220.267 514.232 218.301 516.439L216.019 519Z" fill="#3B4956"/>
<rect width="99" height="64" transform="translate(130 526)" fill="#EBEDEE"/>
<path d="M159.313 560.632H163.051V558.77H159.313V556.544H163.569L164.087 554.57H157.241V565H163.597L164.087 563.026H159.313V560.632ZM165.126 561.57H169.046V559.722H165.126V561.57ZM172.983 557.286C172.983 556.586 173.249 556.18 173.879 556.18C174.173 556.18 174.425 556.25 174.607 556.32L175.069 554.71C174.635 554.556 174.117 554.43 173.543 554.43C172.003 554.43 171.009 555.424 171.009 557.146V557.762H169.833V559.568H171.009V565H172.983V559.568H174.397L174.873 557.762H172.983V557.286ZM178.62 565.14C179.446 565.14 180.104 564.902 180.734 564.398V565H182.708V557.762H180.734V562.578C180.3 562.998 179.74 563.32 179.082 563.32C178.172 563.32 177.668 562.718 177.668 561.682V557.762H175.694V561.878C175.694 563.838 176.884 565.14 178.62 565.14ZM187.799 565.14C189.087 565.14 190.151 564.622 190.837 563.838L189.619 562.634C189.255 563.082 188.611 563.418 187.785 563.418C186.791 563.418 186.063 562.788 185.909 561.934H191.145C191.173 561.794 191.201 561.57 191.201 561.304C191.201 559.218 189.787 557.622 187.687 557.622C185.545 557.622 183.935 559.148 183.935 561.374C183.935 563.53 185.587 565.14 187.799 565.14ZM185.909 560.618C186.063 559.792 186.693 559.19 187.617 559.19C188.499 559.19 189.171 559.792 189.255 560.618H185.909ZM194.786 565.14C195.164 565.14 195.598 565.084 195.99 564.944L195.752 563.222C195.556 563.264 195.374 563.32 195.178 563.32C194.478 563.32 194.156 562.914 194.156 562.186V554.57H192.182V562.424C192.182 564.118 193.204 565.14 194.786 565.14ZM199.618 565.14C201.2 565.14 202.236 564.23 202.236 562.816C202.236 561.654 201.424 560.856 199.912 560.478C199.03 560.268 198.666 560.156 198.666 559.792C198.666 559.47 199.002 559.274 199.492 559.274C200.094 559.274 200.724 559.54 201.242 559.904L202.096 558.518C201.382 557.972 200.514 557.622 199.436 557.622C197.896 557.622 196.762 558.532 196.762 559.792C196.762 561.052 197.686 561.668 199.072 562.06C199.968 562.312 200.346 562.466 200.346 562.886C200.346 563.222 200.08 563.474 199.576 563.474C198.89 563.474 198.078 563.152 197.406 562.508L196.454 563.894C197.21 564.622 198.358 565.14 199.618 565.14Z" fill="#3B4956"/>
<path d="M229 590L177.793 610L130 590L229 590Z" fill="#EBEDEE"/>
<path d="M229 556.5H247.069L250.5 560.5L247.069 564.5H229V556.5Z" fill="#EBEDEE"/>
<path d="M268.665 555.64C270.275 555.64 271.731 555.052 272.767 553.974L271.521 552.42C270.779 553.176 269.939 553.652 268.735 553.652C266.845 553.652 265.417 552.182 265.417 550.278C265.417 548.388 266.845 546.918 268.735 546.918C269.827 546.918 270.499 547.324 271.199 547.94L272.431 546.26C271.465 545.448 270.233 544.93 268.665 544.93C265.613 544.93 263.303 547.24 263.303 550.278C263.303 553.33 265.613 555.64 268.665 555.64ZM277.285 555.64C279.469 555.64 281.121 554.016 281.121 551.874C281.121 549.732 279.469 548.122 277.285 548.122C275.087 548.122 273.435 549.732 273.435 551.874C273.435 554.016 275.087 555.64 277.285 555.64ZM277.285 553.82C276.221 553.82 275.423 553.008 275.423 551.874C275.423 550.754 276.221 549.942 277.285 549.942C278.335 549.942 279.119 550.754 279.119 551.874C279.119 553.008 278.335 553.82 277.285 553.82ZM291.118 548.122C289.984 548.122 289.256 548.472 288.57 549.046C288.038 548.458 287.31 548.122 286.428 548.122C285.602 548.122 284.944 548.36 284.314 548.864V548.262H282.34V555.5H284.314V550.684C284.748 550.264 285.308 549.942 285.966 549.942C286.876 549.942 287.38 550.544 287.38 551.58V555.5H289.354V551.384C289.354 551.09 289.312 550.796 289.256 550.53C289.634 550.208 290.138 549.942 290.726 549.942C291.636 549.942 292.14 550.544 292.14 551.58V555.5H294.1V551.384C294.1 549.424 292.868 548.122 291.118 548.122ZM299.357 555.64C301.443 555.64 303.039 554.016 303.039 551.874C303.039 549.732 301.443 548.122 299.385 548.122C298.657 548.122 298.027 548.318 297.467 548.752V545.07H295.493V555.5H297.467V554.954C297.971 555.444 298.643 555.64 299.357 555.64ZM299.091 553.862C298.447 553.862 297.845 553.61 297.467 553.162V550.6C297.845 550.152 298.447 549.9 299.091 549.9C300.169 549.9 301.037 550.712 301.037 551.874C301.037 553.05 300.169 553.862 299.091 553.862ZM307.098 555.64C307.924 555.64 308.582 555.402 309.212 554.898V555.5H311.186V548.262H309.212V553.078C308.778 553.498 308.218 553.82 307.56 553.82C306.65 553.82 306.146 553.218 306.146 552.182V548.262H304.172V552.378C304.172 554.338 305.362 555.64 307.098 555.64ZM315.423 555.64C317.005 555.64 318.041 554.73 318.041 553.316C318.041 552.154 317.229 551.356 315.717 550.978C314.835 550.768 314.471 550.656 314.471 550.292C314.471 549.97 314.807 549.774 315.297 549.774C315.899 549.774 316.529 550.04 317.047 550.404L317.901 549.018C317.187 548.472 316.319 548.122 315.241 548.122C313.701 548.122 312.567 549.032 312.567 550.292C312.567 551.552 313.491 552.168 314.877 552.56C315.773 552.812 316.151 552.966 316.151 553.386C316.151 553.722 315.885 553.974 315.381 553.974C314.695 553.974 313.883 553.652 313.211 553.008L312.259 554.394C313.015 555.122 314.163 555.64 315.423 555.64ZM323.864 553.54C323.57 553.722 323.262 553.89 322.87 553.89C322.31 553.89 321.792 553.498 321.792 552.574V550.068H323.36L323.836 548.262H321.792V545.952H319.818V548.262H318.586V550.068H319.818V552.854C319.818 554.702 320.966 555.64 322.562 555.64C323.178 555.64 323.724 555.5 324.438 555.122L323.864 553.54ZM326.401 547.156C327.045 547.156 327.577 546.624 327.577 546.022C327.577 545.434 327.045 544.888 326.401 544.888C325.757 544.888 325.225 545.434 325.225 546.022C325.225 546.624 325.757 547.156 326.401 547.156ZM325.407 555.5H327.381V548.262H325.407V555.5ZM332.464 555.64C334.648 555.64 336.3 554.016 336.3 551.874C336.3 549.732 334.648 548.122 332.464 548.122C330.266 548.122 328.614 549.732 328.614 551.874C328.614 554.016 330.266 555.64 332.464 555.64ZM332.464 553.82C331.4 553.82 330.602 553.008 330.602 551.874C330.602 550.754 331.4 549.942 332.464 549.942C333.514 549.942 334.298 550.754 334.298 551.874C334.298 553.008 333.514 553.82 332.464 553.82ZM341.608 548.122C340.782 548.122 340.124 548.36 339.494 548.864V548.262H337.52V555.5H339.494V550.684C339.928 550.264 340.488 549.942 341.146 549.942C342.056 549.942 342.56 550.544 342.56 551.58V555.5H344.534V551.384C344.534 549.424 343.344 548.122 341.608 548.122ZM282.583 575.64C283.871 575.64 284.935 575.122 285.621 574.338L284.403 573.134C284.039 573.582 283.395 573.918 282.569 573.918C281.575 573.918 280.847 573.288 280.693 572.434H285.929C285.957 572.294 285.985 572.07 285.985 571.804C285.985 569.718 284.571 568.122 282.471 568.122C280.329 568.122 278.719 569.648 278.719 571.874C278.719 574.03 280.371 575.64 282.583 575.64ZM280.693 571.118C280.847 570.292 281.477 569.69 282.401 569.69C283.283 569.69 283.955 570.292 284.039 571.118H280.693ZM291.152 568.122C290.326 568.122 289.668 568.36 289.038 568.864V568.262H287.064V575.5H289.038V570.684C289.472 570.264 290.032 569.942 290.69 569.942C291.6 569.942 292.104 570.544 292.104 571.58V575.5H294.078V571.384C294.078 569.424 292.888 568.122 291.152 568.122ZM297.895 578.44C300.919 578.398 302.795 576.844 302.795 573.68V568.262H300.821V568.78C300.303 568.346 299.673 568.122 298.903 568.122C296.803 568.122 295.221 569.746 295.221 571.818C295.221 573.862 296.747 575.374 298.861 575.374C299.631 575.374 300.275 575.15 300.793 574.688C300.597 576.088 299.533 576.676 297.895 576.746V578.44ZM299.169 573.764C298.077 573.764 297.209 572.952 297.209 571.79C297.209 570.684 298.077 569.858 299.169 569.858C299.925 569.858 300.527 570.208 300.821 570.642V572.98C300.527 573.428 299.925 573.764 299.169 573.764ZM305.243 567.156C305.887 567.156 306.419 566.624 306.419 566.022C306.419 565.434 305.887 564.888 305.243 564.888C304.599 564.888 304.067 565.434 304.067 566.022C304.067 566.624 304.599 567.156 305.243 567.156ZM304.249 575.5H306.223V568.262H304.249V575.5ZM311.769 568.122C310.943 568.122 310.285 568.36 309.655 568.864V568.262H307.681V575.5H309.655V570.684C310.089 570.264 310.649 569.942 311.307 569.942C312.217 569.942 312.721 570.544 312.721 571.58V575.5H314.695V571.384C314.695 569.424 313.505 568.122 311.769 568.122ZM319.702 575.64C320.99 575.64 322.054 575.122 322.74 574.338L321.522 573.134C321.158 573.582 320.514 573.918 319.688 573.918C318.694 573.918 317.966 573.288 317.812 572.434H323.048C323.076 572.294 323.104 572.07 323.104 571.804C323.104 569.718 321.69 568.122 319.59 568.122C317.448 568.122 315.838 569.648 315.838 571.874C315.838 574.03 317.49 575.64 319.702 575.64ZM317.812 571.118C317.966 570.292 318.596 569.69 319.52 569.69C320.402 569.69 321.074 570.292 321.158 571.118H317.812ZM326.805 575.64C328.387 575.64 329.423 574.73 329.423 573.316C329.423 572.154 328.611 571.356 327.099 570.978C326.217 570.768 325.853 570.656 325.853 570.292C325.853 569.97 326.189 569.774 326.679 569.774C327.281 569.774 327.911 570.04 328.429 570.404L329.283 569.018C328.569 568.472 327.701 568.122 326.623 568.122C325.083 568.122 323.949 569.032 323.949 570.292C323.949 571.552 324.873 572.168 326.259 572.56C327.155 572.812 327.533 572.966 327.533 573.386C327.533 573.722 327.267 573.974 326.763 573.974C326.077 573.974 325.265 573.652 324.593 573.008L323.641 574.394C324.397 575.122 325.545 575.64 326.805 575.64Z" fill="#3B4956"/>
<defs>
<clipPath id="clip0">
<rect width="63" height="35" fill="white" transform="translate(114.5 66)"/>
</clipPath>
</defs>
</svg>
