<svg width="375" height="667" viewBox="0 0 375 667" fill="none" xmlns="http://www.w3.org/2000/svg">
<path d="M209 89.0456V85.1519L208.575 85.2102C207.606 85.3414 206.994 85.6331 206.332 85.9831C206.128 86.0706 205.924 86.1581 205.72 86.2456C204.683 86.6831 203.629 87.1352 201.93 87.1352C199.907 87.1352 198.887 86.581 197.987 86.0998L197.885 86.056C197.086 85.6477 196.321 85.2685 194.825 85.2685C193.33 85.2685 192.565 85.6477 191.766 86.056L191.664 86.1144C190.814 86.581 189.76 87.1498 187.721 87.1498C185.681 87.1498 184.628 86.581 183.778 86.1144L183.676 86.0706C182.877 85.6623 182.112 85.2831 180.617 85.2831C179.07 85.2831 178.254 85.6039 177.353 86.0414C176.504 86.5081 175.433 87.0769 173.41 87.0769C171.388 87.0769 170.317 86.5081 169.467 86.0414L169.365 85.9831C168.566 85.5748 167.819 85.1956 166.357 85.1956H166V89.0748H166.357C167.326 89.0748 167.819 89.3227 168.532 89.731L168.821 89.8769C169.807 90.3289 171.15 90.9998 173.41 90.9998C175.807 90.9998 177.132 90.3581 178.271 89.7019L178.373 89.6435C179.087 89.2644 179.512 89.031 180.617 89.031C181.704 89.031 182.265 89.3081 182.962 89.7019L183.234 89.8331C184.203 90.3289 185.545 90.9998 187.806 90.9998C190.202 90.9998 191.528 90.3581 192.667 89.7019L192.769 89.6435C193.483 89.2644 193.908 89.031 195.012 89.031C196.1 89.031 196.661 89.3081 197.358 89.7019L197.63 89.8331C198.598 90.3289 199.941 90.9998 202.202 90.9998C204.598 90.9998 205.924 90.3581 207.079 89.7019C207.657 89.381 208.031 89.1623 208.677 89.0894L209 89.0456Z" fill="#4099DA"/>
<path d="M209 89.0456V85.1519L208.575 85.2102C207.606 85.3414 206.994 85.6331 206.332 85.9831C206.128 86.0706 205.924 86.1581 205.72 86.2456C204.683 86.6831 203.629 87.1352 201.93 87.1352C199.907 87.1352 198.887 86.581 197.987 86.0998L197.885 86.056C197.086 85.6477 196.321 85.2685 194.825 85.2685C193.33 85.2685 192.565 85.6477 191.766 86.056L191.664 86.1144C190.814 86.581 189.76 87.1498 187.721 87.1498C185.681 87.1498 184.628 86.581 183.778 86.1144L183.676 86.0706C182.877 85.6623 182.112 85.2831 180.617 85.2831C179.07 85.2831 178.254 85.6039 177.353 86.0414C176.504 86.5081 175.433 87.0769 173.41 87.0769C171.388 87.0769 170.317 86.5081 169.467 86.0414L169.365 85.9831C168.566 85.5748 167.819 85.1956 166.357 85.1956H166V89.0748H166.357C167.326 89.0748 167.819 89.3227 168.532 89.731L168.821 89.8769C169.807 90.3289 171.15 90.9998 173.41 90.9998C175.807 90.9998 177.132 90.3581 178.271 89.7019L178.373 89.6435C179.087 89.2644 179.512 89.031 180.617 89.031C181.704 89.031 182.265 89.3081 182.962 89.7019L183.234 89.8331C184.203 90.3289 185.545 90.9998 187.806 90.9998C190.202 90.9998 191.528 90.3581 192.667 89.7019L192.769 89.6435C193.483 89.2644 193.908 89.031 195.012 89.031C196.1 89.031 196.661 89.3081 197.358 89.7019L197.63 89.8331C198.598 90.3289 199.941 90.9998 202.202 90.9998C204.598 90.9998 205.924 90.3581 207.079 89.7019C207.657 89.381 208.031 89.1623 208.677 89.0894L209 89.0456Z" fill="#4099DA"/>
<path d="M200.842 64.5021L199.941 59.2083H195.131V57.3271C195.131 56.5979 194.434 56 193.585 56H181.415C180.566 56 179.869 56.5979 179.869 57.3271V59.2083H175.059L174.141 64.5021H178.373V68.9792L183.591 67.3896C184.849 67.0104 186.157 66.8063 187.483 66.8063C188.809 66.8063 190.117 66.9958 191.375 67.3896L196.593 68.9792V64.5021H200.842Z" fill="#4099DA"/>
<path d="M199.669 83.2998L204.394 74.6956L190.168 70.3498C189.302 70.0873 188.401 69.9561 187.5 69.9561C186.599 69.9561 185.698 70.0873 184.832 70.3498L170.589 74.6956L175.348 83.3727C175.365 83.3581 175.382 83.3581 175.399 83.3436L175.484 83.2998L175.569 83.2561C176.741 82.7019 178.186 82.104 180.617 82.104C183.115 82.104 184.56 82.8331 185.528 83.329H185.545H185.562L185.664 83.3873L185.715 83.4019L185.749 83.4165C186.429 83.7811 186.769 83.9706 187.738 83.9706C188.707 83.9706 189.047 83.7811 189.726 83.4165L189.76 83.4019L189.794 83.3873L189.896 83.329H189.913H189.93C190.899 82.8477 192.344 82.104 194.842 82.104C197.273 82.104 198.717 82.804 199.669 83.2998Z" fill="#4099DA"/>
<path d="M91.1912 128.214C94.4715 128.214 96.5726 126.07 96.5726 123.498C96.5726 117.773 89.0257 118.845 89.0257 116.315C89.0257 115.308 89.9477 114.772 91.2769 114.772C92.7134 114.772 93.9141 115.393 94.6645 116.208L96.3153 113.764C95.0075 112.456 93.1208 111.813 91.0625 111.813C88.0609 111.813 85.7669 113.785 85.7669 116.315C85.7669 121.868 93.3137 120.346 93.3137 123.519C93.3137 124.741 92.3918 125.234 91.1912 125.234C89.3902 125.234 87.9537 124.269 86.796 123.047L85.1022 125.62C86.8174 127.314 89.0257 128.214 91.1912 128.214ZM111.754 116.701C110.018 116.701 108.903 117.237 107.852 118.116C107.038 117.216 105.923 116.701 104.572 116.701C103.307 116.701 102.299 117.066 101.334 117.837V116.916H98.3114V128H101.334V120.625C101.999 119.981 102.857 119.488 103.864 119.488C105.258 119.488 106.03 120.41 106.03 121.997V128H109.053V121.697C109.053 121.246 108.989 120.796 108.903 120.389C109.482 119.896 110.254 119.488 111.154 119.488C112.548 119.488 113.319 120.41 113.319 121.997V128H116.321V121.697C116.321 118.695 114.434 116.701 111.754 116.701ZM126.622 116.916V117.666C125.786 117.001 124.8 116.701 123.685 116.701C120.533 116.701 118.11 119.167 118.11 122.447C118.11 125.727 120.533 128.214 123.728 128.214C124.821 128.214 125.872 127.914 126.622 127.164V128H129.645V116.916H126.622ZM124.156 125.492C122.484 125.492 121.155 124.248 121.155 122.447C121.155 120.668 122.484 119.424 124.156 119.424C125.143 119.424 126.043 119.81 126.622 120.496V124.42C126.043 125.106 125.143 125.492 124.156 125.492ZM135.712 128.214C136.291 128.214 136.956 128.129 137.556 127.914L137.191 125.277C136.891 125.341 136.612 125.427 136.312 125.427C135.24 125.427 134.747 124.805 134.747 123.691V112.027H131.724V124.055C131.724 126.649 133.289 128.214 135.712 128.214ZM142.559 128.214C143.137 128.214 143.802 128.129 144.402 127.914L144.038 125.277C143.738 125.341 143.459 125.427 143.159 125.427C142.087 125.427 141.594 124.805 141.594 123.691V112.027H138.571V124.055C138.571 126.649 140.136 128.214 142.559 128.214ZM154.859 128.214C157.282 128.214 158.868 126.821 158.868 124.655C158.868 122.876 157.625 121.654 155.309 121.075C153.958 120.753 153.401 120.582 153.401 120.024C153.401 119.531 153.916 119.231 154.666 119.231C155.588 119.231 156.553 119.638 157.346 120.196L158.654 118.073C157.56 117.237 156.231 116.701 154.58 116.701C152.222 116.701 150.485 118.095 150.485 120.024C150.485 121.954 151.9 122.897 154.023 123.498C155.395 123.884 155.974 124.119 155.974 124.763C155.974 125.277 155.566 125.663 154.795 125.663C153.744 125.663 152.501 125.17 151.471 124.184L150.014 126.306C151.171 127.421 152.929 128.214 154.859 128.214ZM166.798 116.701C165.533 116.701 164.526 117.066 163.561 117.837V112.027H160.538V128H163.561V120.625C164.225 119.981 165.083 119.488 166.091 119.488C167.484 119.488 168.256 120.41 168.256 121.997V128H171.279V121.697C171.279 118.695 169.457 116.701 166.798 116.701ZM174.895 115.222C175.881 115.222 176.696 114.407 176.696 113.485C176.696 112.585 175.881 111.748 174.895 111.748C173.908 111.748 173.094 112.585 173.094 113.485C173.094 114.407 173.908 115.222 174.895 115.222ZM173.372 128H176.395V116.916H173.372V128ZM184.588 116.701C183.473 116.701 182.508 117.001 181.651 117.666V116.916H178.628V132.288H181.651V127.164C182.423 127.914 183.452 128.214 184.545 128.214C187.74 128.214 190.184 125.727 190.184 122.447C190.184 119.167 187.74 116.701 184.588 116.701ZM184.138 125.492C183.152 125.492 182.23 125.106 181.651 124.42V120.496C182.23 119.81 183.152 119.424 184.138 119.424C185.789 119.424 187.118 120.668 187.118 122.447C187.118 124.248 185.789 125.492 184.138 125.492ZM196.064 128.214C198.487 128.214 200.073 126.821 200.073 124.655C200.073 122.876 198.83 121.654 196.514 121.075C195.163 120.753 194.606 120.582 194.606 120.024C194.606 119.531 195.121 119.231 195.871 119.231C196.793 119.231 197.758 119.638 198.551 120.196L199.859 118.073C198.765 117.237 197.436 116.701 195.785 116.701C193.427 116.701 191.69 118.095 191.69 120.024C191.69 121.954 193.105 122.897 195.228 123.498C196.6 123.884 197.179 124.119 197.179 124.763C197.179 125.277 196.771 125.663 196 125.663C194.949 125.663 193.706 125.17 192.676 124.184L191.219 126.306C192.376 127.421 194.134 128.214 196.064 128.214ZM220.278 128L217.255 124.484L219.999 121.825L218.112 119.81L215.454 122.361L211.852 118.18C211.316 117.559 210.501 116.83 210.501 115.951C210.501 115.179 211.123 114.579 212.024 114.579C212.752 114.579 213.353 115.007 214.125 115.801L216.119 113.828C215.025 112.649 213.739 111.813 212.045 111.813C209.494 111.813 207.457 113.592 207.457 115.865C207.457 117.387 208.272 118.438 208.915 119.145C206.985 120.775 206.106 122.04 206.106 123.755C206.106 126.435 208.314 128.214 210.973 128.214C212.452 128.214 213.76 127.678 215.154 126.478L216.44 128H220.278ZM211.166 125.406C210.03 125.406 209.193 124.57 209.193 123.583C209.193 122.833 209.622 122.211 210.737 121.225L213.374 124.355C212.495 125.106 211.852 125.406 211.166 125.406ZM230.942 116.187C230.942 115.115 231.349 114.493 232.314 114.493C232.764 114.493 233.15 114.6 233.429 114.707L234.136 112.242C233.472 112.006 232.678 111.813 231.799 111.813C229.441 111.813 227.919 113.335 227.919 115.972V116.916H226.118V119.681H227.919V128H230.942V119.681H233.107L233.836 116.916H230.942V116.187ZM239.917 128.214C241.889 128.214 243.519 127.421 244.569 126.22L242.704 124.377C242.147 125.063 241.16 125.577 239.895 125.577C238.373 125.577 237.258 124.612 237.022 123.305H245.041C245.084 123.09 245.127 122.747 245.127 122.34C245.127 119.145 242.961 116.701 239.745 116.701C236.465 116.701 233.999 119.038 233.999 122.447C233.999 125.749 236.529 128.214 239.917 128.214ZM237.022 121.289C237.258 120.024 238.223 119.102 239.638 119.102C240.989 119.102 242.018 120.024 242.147 121.289H237.022ZM253.812 116.701C252.397 116.765 251.132 117.151 249.802 118.223V116.916H246.779V128H249.802V121.268C250.853 120.324 252.268 119.767 253.812 119.703V116.701ZM262.396 116.701C260.981 116.765 259.716 117.151 258.387 118.223V116.916H255.364V128H258.387V121.268C259.437 120.324 260.852 119.767 262.396 119.703V116.701ZM265.47 115.222C266.456 115.222 267.271 114.407 267.271 113.485C267.271 112.585 266.456 111.748 265.47 111.748C264.484 111.748 263.669 112.585 263.669 113.485C263.669 114.407 264.484 115.222 265.47 115.222ZM263.948 128H266.971V116.916H263.948V128ZM274.778 128.214C276.75 128.214 278.38 127.421 279.43 126.22L277.565 124.377C277.007 125.063 276.021 125.577 274.756 125.577C273.234 125.577 272.119 124.612 271.883 123.305H279.902C279.945 123.09 279.988 122.747 279.988 122.34C279.988 119.145 277.822 116.701 274.606 116.701C271.326 116.701 268.86 119.038 268.86 122.447C268.86 125.749 271.39 128.214 274.778 128.214ZM271.883 121.289C272.119 120.024 273.084 119.102 274.499 119.102C275.85 119.102 276.879 120.024 277.007 121.289H271.883ZM285.656 128.214C288.078 128.214 289.665 126.821 289.665 124.655C289.665 122.876 288.421 121.654 286.106 121.075C284.755 120.753 284.198 120.582 284.198 120.024C284.198 119.531 284.712 119.231 285.463 119.231C286.384 119.231 287.349 119.638 288.143 120.196L289.45 118.073C288.357 117.237 287.028 116.701 285.377 116.701C283.018 116.701 281.282 118.095 281.282 120.024C281.282 121.954 282.697 122.897 284.819 123.498C286.192 123.884 286.77 124.119 286.77 124.763C286.77 125.277 286.363 125.663 285.591 125.663C284.541 125.663 283.297 125.17 282.268 124.184L280.81 126.306C281.968 127.421 283.726 128.214 285.656 128.214Z" fill="#4099DA"/>
<path d="M28.9311 157.08H24.8031V169H28.9311C32.3391 169 34.9631 166.536 34.9631 163.032C34.9631 159.528 32.3391 157.08 28.9311 157.08ZM28.9311 167.72H26.1471V158.36H28.9311C31.5391 158.36 33.5871 160.248 33.5871 163.032C33.5871 165.816 31.5391 167.72 28.9311 167.72ZM37.5022 159.144C38.0142 159.144 38.4302 158.744 38.4302 158.232C38.4302 157.752 38.0142 157.336 37.5022 157.336C37.0222 157.336 36.5902 157.752 36.5902 158.232C36.5902 158.744 37.0222 159.144 37.5022 159.144ZM36.8462 169H38.1422V160.728H36.8462V169ZM44.7146 160.568C43.7386 160.584 42.6026 160.952 41.6266 161.752V160.728H40.3306V169H41.6266V163.112C42.3946 162.392 43.5146 161.88 44.7146 161.864V160.568ZM49.4373 169.16C50.9253 169.16 52.0773 168.536 52.8293 167.688L52.0133 166.856C51.4213 167.528 50.6053 167.992 49.4373 167.992C47.8373 167.992 46.6213 166.84 46.4613 165.272H53.1653C53.1813 165.128 53.1973 164.92 53.1973 164.696C53.1973 162.376 51.5653 160.568 49.2933 160.568C46.9253 160.568 45.1653 162.376 45.1653 164.84C45.1653 167.304 47.0053 169.16 49.4373 169.16ZM46.4773 164.248C46.6693 162.76 47.7733 161.656 49.2773 161.656C50.7013 161.656 51.7893 162.76 51.9013 164.248H46.4773ZM58.7654 169.16C60.0934 169.16 61.3254 168.568 62.1094 167.656L61.2614 166.776C60.7494 167.464 59.7894 167.96 58.7974 167.96C57.1014 167.96 55.8214 166.616 55.8214 164.856C55.8214 163.096 57.0694 161.768 58.7814 161.768C59.5814 161.768 60.4134 162.12 60.9574 162.632L61.7414 161.688C60.9574 160.968 59.9654 160.568 58.7654 160.568C56.3654 160.568 54.4934 162.376 54.4934 164.856C54.4934 167.336 56.3654 169.16 58.7654 169.16ZM68.4434 167.64C68.1234 167.832 67.7714 167.976 67.3554 167.976C66.5394 167.976 65.7874 167.384 65.7874 166.152V161.928H67.9154L68.2834 160.728H65.7874V158.088H64.5074V160.728H62.9394V161.928H64.5074V166.28C64.5074 168.104 65.6434 169.16 67.2434 169.16C67.8034 169.16 68.2674 169.016 68.8434 168.712L68.4434 167.64ZM78.2498 169.16C79.7378 169.16 80.8898 168.536 81.6418 167.688L80.8258 166.856C80.2338 167.528 79.4178 167.992 78.2498 167.992C76.6498 167.992 75.4338 166.84 75.2738 165.272H81.9778C81.9938 165.128 82.0098 164.92 82.0098 164.696C82.0098 162.376 80.3778 160.568 78.1058 160.568C75.7378 160.568 73.9778 162.376 73.9778 164.84C73.9778 167.304 75.8178 169.16 78.2498 169.16ZM75.2898 164.248C75.4818 162.76 76.5858 161.656 78.0898 161.656C79.5138 161.656 80.6018 162.76 80.7138 164.248H75.2898ZM86.1539 169.16C86.4899 169.16 86.8899 169.112 87.2259 168.968L87.0179 167.848C86.7779 167.912 86.5379 167.96 86.3139 167.96C85.3859 167.96 84.8899 167.368 84.8899 166.264V157.08H83.6099V166.376C83.6099 168.2 84.5699 169.16 86.1539 169.16ZM91.8748 169.16C93.3628 169.16 94.5148 168.536 95.2668 167.688L94.4508 166.856C93.8588 167.528 93.0428 167.992 91.8748 167.992C90.2748 167.992 89.0588 166.84 88.8988 165.272H95.6028C95.6188 165.128 95.6348 164.92 95.6348 164.696C95.6348 162.376 94.0028 160.568 91.7308 160.568C89.3628 160.568 87.6028 162.376 87.6028 164.84C87.6028 167.304 89.4428 169.16 91.8748 169.16ZM88.9148 164.248C89.1068 162.76 90.2108 161.656 91.7148 161.656C93.1388 161.656 94.2268 162.76 94.3388 164.248H88.9148ZM101.203 169.16C102.531 169.16 103.763 168.568 104.547 167.656L103.699 166.776C103.187 167.464 102.227 167.96 101.235 167.96C99.5389 167.96 98.2589 166.616 98.2589 164.856C98.2589 163.096 99.5069 161.768 101.219 161.768C102.019 161.768 102.851 162.12 103.395 162.632L104.179 161.688C103.395 160.968 102.403 160.568 101.203 160.568C98.8029 160.568 96.9309 162.376 96.9309 164.856C96.9309 167.336 98.8029 169.16 101.203 169.16ZM110.881 167.64C110.561 167.832 110.209 167.976 109.793 167.976C108.977 167.976 108.225 167.384 108.225 166.152V161.928H110.353L110.721 160.728H108.225V158.088H106.945V160.728H105.377V161.928H106.945V166.28C106.945 168.104 108.081 169.16 109.681 169.16C110.241 169.16 110.705 169.016 111.281 168.712L110.881 167.64ZM117.293 160.568C116.317 160.584 115.181 160.952 114.205 161.752V160.728H112.909V169H114.205V163.112C114.973 162.392 116.093 161.88 117.293 161.864V160.568ZM119.393 159.144C119.905 159.144 120.321 158.744 120.321 158.232C120.321 157.752 119.905 157.336 119.393 157.336C118.913 157.336 118.481 157.752 118.481 158.232C118.481 158.744 118.913 159.144 119.393 159.144ZM118.737 169H120.033V160.728H118.737V169ZM124.365 159.736C124.365 158.68 124.781 158.104 125.661 158.104C125.949 158.104 126.237 158.168 126.493 158.232L126.813 157.16C126.461 157.016 125.981 156.92 125.533 156.92C124.077 156.92 123.069 157.848 123.069 159.688V160.728H121.501V161.928H123.069V169H124.365V161.928H126.141L126.525 160.728H124.365V159.736ZM128.69 159.144C129.202 159.144 129.618 158.744 129.618 158.232C129.618 157.752 129.202 157.336 128.69 157.336C128.21 157.336 127.778 157.752 127.778 158.232C127.778 158.744 128.21 159.144 128.69 159.144ZM128.034 169H129.33V160.728H128.034V169ZM135.406 169.16C136.734 169.16 137.966 168.568 138.75 167.656L137.902 166.776C137.39 167.464 136.43 167.96 135.438 167.96C133.742 167.96 132.462 166.616 132.462 164.856C132.462 163.096 133.71 161.768 135.422 161.768C136.222 161.768 137.054 162.12 137.598 162.632L138.382 161.688C137.598 160.968 136.606 160.568 135.406 160.568C133.006 160.568 131.134 162.376 131.134 164.856C131.134 167.336 133.006 169.16 135.406 169.16ZM146.373 160.728V161.512C145.669 160.904 144.725 160.568 143.685 160.568C141.317 160.568 139.525 162.408 139.525 164.856C139.525 167.304 141.317 169.16 143.701 169.16C144.725 169.16 145.685 168.808 146.373 168.152V169H147.669V160.728H146.373ZM143.797 167.96C142.117 167.96 140.853 166.648 140.853 164.856C140.853 163.08 142.117 161.768 143.797 161.768C144.837 161.768 145.845 162.216 146.373 162.936V166.792C145.845 167.512 144.837 167.96 143.797 167.96ZM154.693 167.64C154.373 167.832 154.021 167.976 153.605 167.976C152.789 167.976 152.037 167.384 152.037 166.152V161.928H154.165L154.533 160.728H152.037V158.088H150.757V160.728H149.189V161.928H150.757V166.28C150.757 168.104 151.893 169.16 153.493 169.16C154.053 169.16 154.517 169.016 155.093 168.712L154.693 167.64ZM157.377 159.144C157.889 159.144 158.305 158.744 158.305 158.232C158.305 157.752 157.889 157.336 157.377 157.336C156.897 157.336 156.465 157.752 156.465 158.232C156.465 158.744 156.897 159.144 157.377 159.144ZM156.721 169H158.017V160.728H156.721V169ZM164.142 169.16C166.59 169.16 168.446 167.32 168.446 164.856C168.446 162.408 166.59 160.568 164.142 160.568C161.678 160.568 159.822 162.408 159.822 164.856C159.822 167.32 161.678 169.16 164.142 169.16ZM164.142 167.96C162.43 167.96 161.15 166.632 161.15 164.856C161.15 163.096 162.43 161.768 164.142 161.768C165.838 161.768 167.134 163.096 167.134 164.856C167.134 166.632 165.838 167.96 164.142 167.96ZM174.236 160.568C173.212 160.568 172.316 160.92 171.58 161.592V160.728H170.3V169H171.58V162.92C172.172 162.28 172.972 161.768 173.996 161.768C175.324 161.768 176.172 162.744 176.172 164.2V169H177.452V164.184C177.452 162.008 176.156 160.568 174.236 160.568ZM179.132 171.496C180.348 170.456 180.876 169.24 180.924 167.192H179.628C179.58 168.824 179.292 169.672 178.364 170.664L179.132 171.496ZM186.787 169H188.131V157.08H186.787V169ZM194.454 160.568C193.43 160.568 192.534 160.92 191.798 161.592V160.728H190.518V169H191.798V162.92C192.39 162.28 193.19 161.768 194.214 161.768C195.542 161.768 196.39 162.744 196.39 164.2V169H197.67V164.184C197.67 162.008 196.374 160.568 194.454 160.568ZM203.623 169.16C204.647 169.16 205.607 168.808 206.295 168.152V169H207.591V157.08H206.295V161.512C205.591 160.904 204.647 160.568 203.607 160.568C201.239 160.568 199.447 162.408 199.447 164.856C199.447 167.304 201.239 169.16 203.623 169.16ZM203.719 167.96C202.039 167.96 200.775 166.648 200.775 164.856C200.775 163.08 202.039 161.768 203.719 161.768C204.759 161.768 205.767 162.216 206.295 162.936V166.792C205.767 167.512 204.759 167.96 203.719 167.96ZM210.455 159.144C210.967 159.144 211.383 158.744 211.383 158.232C211.383 157.752 210.967 157.336 210.455 157.336C209.975 157.336 209.543 157.752 209.543 158.232C209.543 158.744 209.975 159.144 210.455 159.144ZM209.799 169H211.095V160.728H209.799V169ZM217.668 160.568C216.692 160.584 215.556 160.952 214.58 161.752V160.728H213.284V169H214.58V163.112C215.348 162.392 216.468 161.88 217.668 161.864V160.568ZM222.39 169.16C223.878 169.16 225.03 168.536 225.782 167.688L224.966 166.856C224.374 167.528 223.558 167.992 222.39 167.992C220.79 167.992 219.574 166.84 219.414 165.272H226.118C226.134 165.128 226.15 164.92 226.15 164.696C226.15 162.376 224.518 160.568 222.246 160.568C219.878 160.568 218.118 162.376 218.118 164.84C218.118 167.304 219.958 169.16 222.39 169.16ZM219.43 164.248C219.622 162.76 220.726 161.656 222.23 161.656C223.654 161.656 224.742 162.76 224.854 164.248H219.43ZM231.719 169.16C233.047 169.16 234.279 168.568 235.063 167.656L234.215 166.776C233.703 167.464 232.743 167.96 231.751 167.96C230.055 167.96 228.775 166.616 228.775 164.856C228.775 163.096 230.023 161.768 231.735 161.768C232.535 161.768 233.367 162.12 233.911 162.632L234.695 161.688C233.911 160.968 232.919 160.568 231.719 160.568C229.319 160.568 227.447 162.376 227.447 164.856C227.447 167.336 229.319 169.16 231.719 169.16ZM241.397 167.64C241.077 167.832 240.725 167.976 240.309 167.976C239.493 167.976 238.741 167.384 238.741 166.152V161.928H240.869L241.237 160.728H238.741V158.088H237.461V160.728H235.893V161.928H237.461V166.28C237.461 168.104 238.597 169.16 240.197 169.16C240.757 169.16 241.221 169.016 241.797 168.712L241.397 167.64ZM251.203 169.16C252.691 169.16 253.843 168.536 254.595 167.688L253.779 166.856C253.187 167.528 252.371 167.992 251.203 167.992C249.603 167.992 248.387 166.84 248.227 165.272H254.931C254.947 165.128 254.963 164.92 254.963 164.696C254.963 162.376 253.331 160.568 251.059 160.568C248.691 160.568 246.931 162.376 246.931 164.84C246.931 167.304 248.771 169.16 251.203 169.16ZM248.243 164.248C248.435 162.76 249.539 161.656 251.043 161.656C252.467 161.656 253.555 162.76 253.667 164.248H248.243ZM259.107 169.16C259.443 169.16 259.843 169.112 260.179 168.968L259.971 167.848C259.731 167.912 259.491 167.96 259.267 167.96C258.339 167.96 257.843 167.368 257.843 166.264V157.08H256.563V166.376C256.563 168.2 257.523 169.16 259.107 169.16ZM264.828 169.16C266.316 169.16 267.468 168.536 268.22 167.688L267.404 166.856C266.812 167.528 265.996 167.992 264.828 167.992C263.228 167.992 262.012 166.84 261.852 165.272H268.556C268.572 165.128 268.588 164.92 268.588 164.696C268.588 162.376 266.956 160.568 264.684 160.568C262.316 160.568 260.556 162.376 260.556 164.84C260.556 167.304 262.396 169.16 264.828 169.16ZM261.868 164.248C262.06 162.76 263.164 161.656 264.668 161.656C266.092 161.656 267.18 162.76 267.292 164.248H261.868ZM274.156 169.16C275.484 169.16 276.716 168.568 277.5 167.656L276.652 166.776C276.14 167.464 275.18 167.96 274.188 167.96C272.492 167.96 271.212 166.616 271.212 164.856C271.212 163.096 272.46 161.768 274.172 161.768C274.972 161.768 275.804 162.12 276.348 162.632L277.132 161.688C276.348 160.968 275.356 160.568 274.156 160.568C271.756 160.568 269.884 162.376 269.884 164.856C269.884 167.336 271.756 169.16 274.156 169.16ZM283.834 167.64C283.514 167.832 283.162 167.976 282.746 167.976C281.93 167.976 281.178 167.384 281.178 166.152V161.928H283.306L283.674 160.728H281.178V158.088H279.898V160.728H278.33V161.928H279.898V166.28C279.898 168.104 281.034 169.16 282.634 169.16C283.194 169.16 283.658 169.016 284.234 168.712L283.834 167.64ZM290.246 160.568C289.27 160.584 288.134 160.952 287.158 161.752V160.728H285.862V169H287.158V163.112C287.926 162.392 289.046 161.88 290.246 161.864V160.568ZM292.346 159.144C292.858 159.144 293.274 158.744 293.274 158.232C293.274 157.752 292.858 157.336 292.346 157.336C291.866 157.336 291.434 157.752 291.434 158.232C291.434 158.744 291.866 159.144 292.346 159.144ZM291.69 169H292.986V160.728H291.69V169ZM297.318 159.736C297.318 158.68 297.734 158.104 298.614 158.104C298.902 158.104 299.19 158.168 299.446 158.232L299.766 157.16C299.414 157.016 298.934 156.92 298.486 156.92C297.03 156.92 296.022 157.848 296.022 159.688V160.728H294.454V161.928H296.022V169H297.318V161.928H299.094L299.478 160.728H297.318V159.736ZM301.643 159.144C302.155 159.144 302.571 158.744 302.571 158.232C302.571 157.752 302.155 157.336 301.643 157.336C301.163 157.336 300.731 157.752 300.731 158.232C300.731 158.744 301.163 159.144 301.643 159.144ZM300.987 169H302.283V160.728H300.987V169ZM308.359 169.16C309.687 169.16 310.919 168.568 311.703 167.656L310.855 166.776C310.343 167.464 309.383 167.96 308.391 167.96C306.695 167.96 305.415 166.616 305.415 164.856C305.415 163.096 306.663 161.768 308.375 161.768C309.175 161.768 310.007 162.12 310.551 162.632L311.335 161.688C310.551 160.968 309.559 160.568 308.359 160.568C305.959 160.568 304.087 162.376 304.087 164.856C304.087 167.336 305.959 169.16 308.359 169.16ZM319.326 160.728V161.512C318.622 160.904 317.678 160.568 316.638 160.568C314.27 160.568 312.478 162.408 312.478 164.856C312.478 167.304 314.27 169.16 316.654 169.16C317.678 169.16 318.638 168.808 319.326 168.152V169H320.622V160.728H319.326ZM316.75 167.96C315.07 167.96 313.806 166.648 313.806 164.856C313.806 163.08 315.07 161.768 316.75 161.768C317.79 161.768 318.798 162.216 319.326 162.936V166.792C318.798 167.512 317.79 167.96 316.75 167.96ZM327.647 167.64C327.327 167.832 326.975 167.976 326.559 167.976C325.743 167.976 324.991 167.384 324.991 166.152V161.928H327.119L327.487 160.728H324.991V158.088H323.711V160.728H322.143V161.928H323.711V166.28C323.711 168.104 324.847 169.16 326.447 169.16C327.007 169.16 327.471 169.016 328.047 168.712L327.647 167.64ZM330.33 159.144C330.842 159.144 331.258 158.744 331.258 158.232C331.258 157.752 330.842 157.336 330.33 157.336C329.85 157.336 329.418 157.752 329.418 158.232C329.418 158.744 329.85 159.144 330.33 159.144ZM329.674 169H330.97V160.728H329.674V169ZM337.095 169.16C339.543 169.16 341.399 167.32 341.399 164.856C341.399 162.408 339.543 160.568 337.095 160.568C334.631 160.568 332.775 162.408 332.775 164.856C332.775 167.32 334.631 169.16 337.095 169.16ZM337.095 167.96C335.383 167.96 334.103 166.632 334.103 164.856C334.103 163.096 335.383 161.768 337.095 161.768C338.791 161.768 340.087 163.096 340.087 164.856C340.087 166.632 338.791 167.96 337.095 167.96ZM347.189 160.568C346.165 160.568 345.269 160.92 344.533 161.592V160.728H343.253V169H344.533V162.92C345.125 162.28 345.925 161.768 346.949 161.768C348.277 161.768 349.125 162.744 349.125 164.2V169H350.405V164.184C350.405 162.008 349.109 160.568 347.189 160.568ZM66.8616 184.728C66.5256 187.4 65.4376 189.608 64.0296 191.208L61.4856 184.728H60.0616L61.2936 187.656C60.7496 189.064 59.9976 190.264 59.0856 191.272L56.3976 184.728H54.9896L58.6376 193.16C59.8696 192.312 61.0376 190.888 61.9016 189.128L63.5976 193.16C65.8216 191.656 67.7736 188.408 68.2056 184.728H66.8616ZM70.4631 183.144C70.9751 183.144 71.3911 182.744 71.3911 182.232C71.3911 181.752 70.9751 181.336 70.4631 181.336C69.9831 181.336 69.5511 181.752 69.5511 182.232C69.5511 182.744 69.9831 183.144 70.4631 183.144ZM69.8071 193H71.1031V184.728H69.8071V193ZM78.1075 191.64C77.7875 191.832 77.4355 191.976 77.0195 191.976C76.2035 191.976 75.4515 191.384 75.4515 190.152V185.928H77.5795L77.9475 184.728H75.4515V182.088H74.1715V184.728H72.6035V185.928H74.1715V190.28C74.1715 192.104 75.3075 193.16 76.9075 193.16C77.4675 193.16 77.9315 193.016 78.5075 192.712L78.1075 191.64ZM84.0873 184.568C83.0633 184.568 82.1673 184.92 81.4313 185.592V181.08H80.1513V193H81.4313V186.92C82.0233 186.28 82.8233 185.768 83.8473 185.768C85.1753 185.768 86.0233 186.744 86.0233 188.2V193H87.3033V188.184C87.3033 186.008 86.0073 184.568 84.0873 184.568ZM97.738 184.568C96.762 184.584 95.626 184.952 94.65 185.752V184.728H93.354V193H94.65V187.112C95.418 186.392 96.538 185.88 97.738 185.864V184.568ZM102.461 193.16C103.949 193.16 105.101 192.536 105.853 191.688L105.037 190.856C104.445 191.528 103.629 191.992 102.461 191.992C100.861 191.992 99.6448 190.84 99.4848 189.272H106.189C106.205 189.128 106.221 188.92 106.221 188.696C106.221 186.376 104.589 184.568 102.317 184.568C99.9488 184.568 98.1888 186.376 98.1888 188.84C98.1888 191.304 100.029 193.16 102.461 193.16ZM99.5008 188.248C99.6928 186.76 100.797 185.656 102.301 185.656C103.725 185.656 104.813 186.76 104.925 188.248H99.5008ZM111.853 184.568C110.829 184.568 109.933 184.92 109.197 185.592V184.728H107.917V193H109.197V186.92C109.789 186.28 110.589 185.768 111.613 185.768C112.941 185.768 113.789 186.744 113.789 188.2V193H115.069V188.184C115.069 186.008 113.773 184.568 111.853 184.568ZM121.117 193.16C122.605 193.16 123.757 192.536 124.509 191.688L123.693 190.856C123.101 191.528 122.285 191.992 121.117 191.992C119.517 191.992 118.301 190.84 118.141 189.272H124.845C124.861 189.128 124.877 188.92 124.877 188.696C124.877 186.376 123.245 184.568 120.973 184.568C118.605 184.568 116.845 186.376 116.845 188.84C116.845 191.304 118.685 193.16 121.117 193.16ZM118.157 188.248C118.349 186.76 119.453 185.656 120.957 185.656C122.381 185.656 123.469 186.76 123.581 188.248H118.157ZM137.002 184.728C136.666 187.4 135.578 189.608 134.17 191.208L131.626 184.728H130.202L131.434 187.656C130.89 189.064 130.138 190.264 129.226 191.272L126.538 184.728H125.13L128.778 193.16C130.01 192.312 131.178 190.888 132.042 189.128L133.738 193.16C135.962 191.656 137.914 188.408 138.346 184.728H137.002ZM146.021 184.728V185.512C145.317 184.904 144.373 184.568 143.333 184.568C140.965 184.568 139.173 186.408 139.173 188.856C139.173 191.304 140.965 193.16 143.349 193.16C144.373 193.16 145.333 192.808 146.021 192.152V193H147.317V184.728H146.021ZM143.445 191.96C141.765 191.96 140.501 190.648 140.501 188.856C140.501 187.08 141.765 185.768 143.445 185.768C144.485 185.768 145.493 186.216 146.021 186.936V190.792C145.493 191.512 144.485 191.96 143.445 191.96ZM153.51 193.16C155.878 193.16 157.67 191.304 157.67 188.856C157.67 186.408 155.878 184.568 153.51 184.568C152.486 184.568 151.526 184.904 150.822 185.512V181.08H149.542V193H150.822V192.152C151.51 192.808 152.47 193.16 153.51 193.16ZM153.414 191.96C152.374 191.96 151.366 191.512 150.822 190.792V186.936C151.366 186.216 152.374 185.768 153.414 185.768C155.078 185.768 156.358 187.08 156.358 188.856C156.358 190.648 155.078 191.96 153.414 191.96ZM161.959 193.16C162.295 193.16 162.695 193.112 163.031 192.968L162.823 191.848C162.583 191.912 162.343 191.96 162.119 191.96C161.191 191.96 160.695 191.368 160.695 190.264V181.08H159.415V190.376C159.415 192.2 160.375 193.16 161.959 193.16ZM167.68 193.16C169.168 193.16 170.32 192.536 171.072 191.688L170.256 190.856C169.664 191.528 168.848 191.992 167.68 191.992C166.08 191.992 164.864 190.84 164.704 189.272H171.408C171.424 189.128 171.44 188.92 171.44 188.696C171.44 186.376 169.808 184.568 167.536 184.568C165.168 184.568 163.408 186.376 163.408 188.84C163.408 191.304 165.248 193.16 167.68 193.16ZM164.72 188.248C164.912 186.76 166.016 185.656 167.52 185.656C168.944 185.656 170.032 186.76 170.144 188.248H164.72ZM180.962 184.568C179.938 184.568 179.042 184.92 178.306 185.592V181.08H177.026V193H178.306V186.92C178.898 186.28 179.698 185.768 180.722 185.768C182.05 185.768 182.898 186.744 182.898 188.2V193H184.178V188.184C184.178 186.008 182.882 184.568 180.962 184.568ZM192.208 184.728C191.824 187.464 190.848 189.992 189.568 191.736L186.72 184.728H185.296L188.672 192.776C187.552 193.896 186.208 194.712 184.559 195.208L184.832 196.36C186.848 195.8 188.736 194.568 190.08 193C191.888 190.888 193.152 187.928 193.536 184.728H192.208ZM198.537 193.16C199.561 193.16 200.521 192.808 201.209 192.152V193H202.505V181.08H201.209V185.512C200.505 184.904 199.561 184.568 198.521 184.568C196.153 184.568 194.361 186.408 194.361 188.856C194.361 191.304 196.153 193.16 198.537 193.16ZM198.633 191.96C196.953 191.96 195.689 190.648 195.689 188.856C195.689 187.08 196.953 185.768 198.633 185.768C199.673 185.768 200.681 186.216 201.209 186.936V190.792C200.681 191.512 199.673 191.96 198.633 191.96ZM209.097 184.568C208.121 184.584 206.985 184.952 206.009 185.752V184.728H204.713V193H206.009V187.112C206.777 186.392 207.897 185.88 209.097 185.864V184.568ZM213.868 193.16C216.316 193.16 218.172 191.32 218.172 188.856C218.172 186.408 216.316 184.568 213.868 184.568C211.404 184.568 209.548 186.408 209.548 188.856C209.548 191.32 211.404 193.16 213.868 193.16ZM213.868 191.96C212.156 191.96 210.876 190.632 210.876 188.856C210.876 187.096 212.156 185.768 213.868 185.768C215.564 185.768 216.86 187.096 216.86 188.856C216.86 190.632 215.564 191.96 213.868 191.96ZM222.602 196.36C225.498 196.248 227.786 194.824 227.786 191.064V184.728H226.506V185.528C225.818 184.904 224.858 184.568 223.802 184.568C221.434 184.568 219.626 186.408 219.626 188.84C219.626 191.24 221.418 193.064 223.802 193.064C224.842 193.064 225.77 192.728 226.474 192.088C226.218 194.216 224.682 195.112 222.602 195.192V196.36ZM223.914 191.928C222.234 191.928 220.954 190.616 220.954 188.824C220.954 187.064 222.234 185.752 223.914 185.752C224.986 185.752 225.994 186.232 226.506 186.952V190.728C225.994 191.448 224.986 191.928 223.914 191.928ZM233.898 193.16C235.386 193.16 236.538 192.536 237.29 191.688L236.474 190.856C235.882 191.528 235.066 191.992 233.898 191.992C232.298 191.992 231.082 190.84 230.922 189.272H237.626C237.642 189.128 237.658 188.92 237.658 188.696C237.658 186.376 236.026 184.568 233.754 184.568C231.386 184.568 229.626 186.376 229.626 188.84C229.626 191.304 231.466 193.16 233.898 193.16ZM230.938 188.248C231.13 186.76 232.234 185.656 233.738 185.656C235.162 185.656 236.25 186.76 236.362 188.248H230.938ZM243.29 184.568C242.266 184.568 241.37 184.92 240.634 185.592V184.728H239.354V193H240.634V186.92C241.226 186.28 242.026 185.768 243.05 185.768C244.378 185.768 245.226 186.744 245.226 188.2V193H246.506V188.184C246.506 186.008 245.21 184.568 243.29 184.568ZM248.187 195.496C249.403 194.456 249.931 193.24 249.979 191.192H248.683C248.635 192.824 248.347 193.672 247.418 194.664L248.187 195.496ZM265.042 188.504L264.226 187.64L262.114 189.688L258.626 185.592C258.162 185.048 257.554 184.536 257.554 183.688C257.554 182.84 258.226 182.152 259.218 182.152C259.842 182.152 260.45 182.44 261.01 182.984L261.826 182.04C261.106 181.384 260.29 180.92 259.25 180.92C257.57 180.92 256.242 182.168 256.242 183.656C256.242 184.984 257.122 185.736 257.666 186.344L257.602 186.392C255.874 187.784 255.202 188.76 255.202 190.008C255.202 191.88 256.722 193.16 258.594 193.16C259.81 193.16 260.77 192.632 261.986 191.464L263.266 193H264.946L262.882 190.584L265.042 188.504ZM261.186 190.6C260.194 191.544 259.49 191.944 258.674 191.944C257.442 191.944 256.53 191.032 256.53 189.96C256.53 189.016 257.074 188.376 258.402 187.272L258.434 187.256L261.218 190.568L261.186 190.6ZM274.523 193.16C276.011 193.16 277.163 192.536 277.915 191.688L277.099 190.856C276.507 191.528 275.691 191.992 274.523 191.992C272.923 191.992 271.707 190.84 271.547 189.272H278.251C278.267 189.128 278.283 188.92 278.283 188.696C278.283 186.376 276.651 184.568 274.379 184.568C272.011 184.568 270.251 186.376 270.251 188.84C270.251 191.304 272.091 193.16 274.523 193.16ZM271.563 188.248C271.755 186.76 272.859 185.656 274.363 185.656C275.787 185.656 276.875 186.76 276.987 188.248H271.563ZM279.531 188.792H283.419V187.576H279.531V188.792ZM286.967 183.736C286.967 182.68 287.383 182.104 288.263 182.104C288.551 182.104 288.839 182.168 289.095 182.232L289.415 181.16C289.063 181.016 288.583 180.92 288.135 180.92C286.679 180.92 285.671 181.848 285.671 183.688V184.728H284.103V185.928H285.671V193H286.967V185.928H288.743L289.127 184.728H286.967V183.736ZM293.803 193.16C294.827 193.16 295.723 192.808 296.459 192.136V193H297.739V184.728H296.459V190.808C295.867 191.448 295.067 191.96 294.043 191.96C292.715 191.96 291.867 190.984 291.867 189.528V184.728H290.587V189.544C290.587 191.72 291.883 193.16 293.803 193.16ZM303.851 193.16C305.339 193.16 306.491 192.536 307.243 191.688L306.427 190.856C305.835 191.528 305.019 191.992 303.851 191.992C302.251 191.992 301.035 190.84 300.875 189.272H307.579C307.595 189.128 307.611 188.92 307.611 188.696C307.611 186.376 305.979 184.568 303.707 184.568C301.339 184.568 299.579 186.376 299.579 188.84C299.579 191.304 301.419 193.16 303.851 193.16ZM300.891 188.248C301.083 186.76 302.187 185.656 303.691 185.656C305.115 185.656 306.203 186.76 306.315 188.248H300.891ZM311.756 193.16C312.092 193.16 312.492 193.112 312.828 192.968L312.62 191.848C312.38 191.912 312.14 191.96 311.916 191.96C310.988 191.96 310.492 191.368 310.492 190.264V181.08H309.212V190.376C309.212 192.2 310.172 193.16 311.756 193.16ZM316.729 193.16C318.425 193.16 319.433 192.152 319.433 190.712C319.433 189.384 318.537 188.632 316.889 188.136C316.009 187.88 315.177 187.64 315.177 186.84C315.177 186.168 315.785 185.72 316.697 185.72C317.369 185.72 318.041 185.976 318.585 186.472L319.241 185.544C318.569 184.92 317.689 184.568 316.681 184.568C315.081 184.568 313.897 185.528 313.897 186.872C313.897 188.312 315.193 188.904 316.425 189.272C317.353 189.56 318.153 189.88 318.153 190.76C318.153 191.464 317.641 192.008 316.713 192.008C315.849 192.008 314.953 191.592 314.297 190.856L313.545 191.784C314.329 192.616 315.465 193.16 316.729 193.16Z" fill="#3B4956"/>
<rect width="200" height="48" transform="translate(85.75 223)" fill="#4099DA"/>
<path d="M106.272 248.584C107.6 247.928 108.4 246.696 108.4 245.112C108.4 242.68 106.56 241.08 103.808 241.08H99.2803V253H101.648V249.112H103.808H103.888C104.736 251.304 106.448 252.92 108.656 253.16L109.152 250.984C107.84 250.744 106.8 249.88 106.272 248.584ZM101.648 243.336H103.696C105.168 243.336 105.968 243.96 105.968 245.112C105.968 246.264 105.168 246.856 103.696 246.856H101.648V243.336ZM114.094 253.16C115.566 253.16 116.782 252.568 117.566 251.672L116.174 250.296C115.758 250.808 115.022 251.192 114.078 251.192C112.942 251.192 112.11 250.472 111.934 249.496H117.918C117.95 249.336 117.982 249.08 117.982 248.776C117.982 246.392 116.366 244.568 113.966 244.568C111.518 244.568 109.678 246.312 109.678 248.856C109.678 251.32 111.566 253.16 114.094 253.16ZM111.934 247.992C112.11 247.048 112.83 246.36 113.886 246.36C114.894 246.36 115.662 247.048 115.758 247.992H111.934ZM123.887 244.568C122.943 244.568 122.191 244.84 121.471 245.416V244.728H119.215V253H121.471V247.496C121.967 247.016 122.607 246.648 123.359 246.648C124.399 246.648 124.975 247.336 124.975 248.52V253H127.231V248.296C127.231 246.056 125.871 244.568 123.887 244.568ZM132.953 253.16C134.425 253.16 135.641 252.568 136.425 251.672L135.033 250.296C134.617 250.808 133.881 251.192 132.937 251.192C131.801 251.192 130.969 250.472 130.793 249.496H136.777C136.809 249.336 136.841 249.08 136.841 248.776C136.841 246.392 135.225 244.568 132.825 244.568C130.377 244.568 128.537 246.312 128.537 248.856C128.537 251.32 130.425 253.16 132.953 253.16ZM130.793 247.992C130.969 247.048 131.689 246.36 132.745 246.36C133.753 246.36 134.521 247.048 134.617 247.992H130.793ZM148.427 244.728C148.219 246.712 147.595 248.408 146.363 249.88L144.315 244.728H141.899L143.019 247.272C142.635 248.248 142.107 249.144 141.339 250.024L139.115 244.728H136.699L140.571 253.16C141.947 252.392 143.179 251.128 144.059 249.608L145.643 253.16C148.507 251.656 150.395 248.344 150.763 244.728H148.427ZM157.592 244.728V245.288C156.968 244.792 156.232 244.568 155.4 244.568C153.048 244.568 151.24 246.408 151.24 248.856C151.24 251.304 153.048 253.16 155.432 253.16C156.248 253.16 157.032 252.936 157.592 252.376V253H159.848V244.728H157.592ZM155.752 251.128C154.504 251.128 153.512 250.2 153.512 248.856C153.512 247.528 154.504 246.6 155.752 246.6C156.488 246.6 157.16 246.888 157.592 247.4V250.328C157.16 250.84 156.488 251.128 155.752 251.128ZM165.928 253.16C168.312 253.16 170.136 251.304 170.136 248.856C170.136 246.408 168.312 244.568 165.96 244.568C165.128 244.568 164.408 244.792 163.768 245.288V241.08H161.512V253H163.768V252.376C164.344 252.936 165.112 253.16 165.928 253.16ZM165.624 251.128C164.888 251.128 164.2 250.84 163.768 250.328V247.4C164.2 246.888 164.888 246.6 165.624 246.6C166.856 246.6 167.848 247.528 167.848 248.856C167.848 250.2 166.856 251.128 165.624 251.128ZM174.391 253.16C174.823 253.16 175.319 253.096 175.767 252.936L175.495 250.968C175.271 251.016 175.063 251.08 174.839 251.08C174.039 251.08 173.671 250.616 173.671 249.784V241.08H171.415V250.056C171.415 251.992 172.583 253.16 174.391 253.16ZM180.406 253.16C181.878 253.16 183.094 252.568 183.878 251.672L182.486 250.296C182.07 250.808 181.334 251.192 180.39 251.192C179.254 251.192 178.422 250.472 178.246 249.496H184.23C184.262 249.336 184.294 249.08 184.294 248.776C184.294 246.392 182.678 244.568 180.278 244.568C177.83 244.568 175.99 246.312 175.99 248.856C175.99 251.32 177.878 253.16 180.406 253.16ZM178.246 247.992C178.422 247.048 179.142 246.36 180.198 246.36C181.206 246.36 181.974 247.048 182.07 247.992H178.246ZM191.984 256.36C195.44 256.312 197.584 254.536 197.584 250.92V244.728H195.328V245.32C194.736 244.824 194.016 244.568 193.136 244.568C190.736 244.568 188.928 246.424 188.928 248.792C188.928 251.128 190.672 252.856 193.088 252.856C193.968 252.856 194.704 252.6 195.296 252.072C195.072 253.672 193.856 254.344 191.984 254.424V256.36ZM193.44 251.016C192.192 251.016 191.2 250.088 191.2 248.76C191.2 247.496 192.192 246.552 193.44 246.552C194.304 246.552 194.992 246.952 195.328 247.448V250.12C194.992 250.632 194.304 251.016 193.44 251.016ZM203.406 253.16C204.878 253.16 206.094 252.568 206.878 251.672L205.486 250.296C205.07 250.808 204.334 251.192 203.39 251.192C202.254 251.192 201.422 250.472 201.246 249.496H207.23C207.262 249.336 207.294 249.08 207.294 248.776C207.294 246.392 205.678 244.568 203.278 244.568C200.83 244.568 198.99 246.312 198.99 248.856C198.99 251.32 200.878 253.16 203.406 253.16ZM201.246 247.992C201.422 247.048 202.142 246.36 203.198 246.36C204.206 246.36 204.974 247.048 205.07 247.992H201.246ZM213.199 244.568C212.255 244.568 211.503 244.84 210.783 245.416V244.728H208.527V253H210.783V247.496C211.279 247.016 211.919 246.648 212.671 246.648C213.711 246.648 214.287 247.336 214.287 248.52V253H216.543V248.296C216.543 246.056 215.183 244.568 213.199 244.568ZM222.265 253.16C223.737 253.16 224.953 252.568 225.737 251.672L224.345 250.296C223.929 250.808 223.193 251.192 222.249 251.192C221.113 251.192 220.281 250.472 220.105 249.496H226.089C226.121 249.336 226.153 249.08 226.153 248.776C226.153 246.392 224.537 244.568 222.137 244.568C219.689 244.568 217.849 246.312 217.849 248.856C217.849 251.32 219.737 253.16 222.265 253.16ZM220.105 247.992C220.281 247.048 221.001 246.36 222.057 246.36C223.065 246.36 223.833 247.048 223.929 247.992H220.105ZM232.635 244.568C231.579 244.616 230.635 244.904 229.643 245.704V244.728H227.387V253H229.643V247.976C230.427 247.272 231.483 246.856 232.635 246.808V244.568ZM239.451 244.728V245.288C238.827 244.792 238.091 244.568 237.259 244.568C234.907 244.568 233.099 246.408 233.099 248.856C233.099 251.304 234.907 253.16 237.291 253.16C238.107 253.16 238.891 252.936 239.451 252.376V253H241.707V244.728H239.451ZM237.611 251.128C236.363 251.128 235.371 250.2 235.371 248.856C235.371 247.528 236.363 246.6 237.611 246.6C238.347 246.6 239.019 246.888 239.451 247.4V250.328C239.019 250.84 238.347 251.128 237.611 251.128ZM248.827 250.76C248.491 250.968 248.139 251.16 247.691 251.16C247.051 251.16 246.459 250.712 246.459 249.656V246.792H248.251L248.795 244.728H246.459V242.088H244.203V244.728H242.795V246.792H244.203V249.976C244.203 252.088 245.515 253.16 247.339 253.16C248.043 253.16 248.667 253 249.483 252.568L248.827 250.76ZM251.726 243.464C252.462 243.464 253.07 242.856 253.07 242.168C253.07 241.496 252.462 240.872 251.726 240.872C250.99 240.872 250.382 241.496 250.382 242.168C250.382 242.856 250.99 243.464 251.726 243.464ZM250.59 253H252.846V244.728H250.59V253ZM258.656 253.16C261.152 253.16 263.04 251.304 263.04 248.856C263.04 246.408 261.152 244.568 258.656 244.568C256.144 244.568 254.256 246.408 254.256 248.856C254.256 251.304 256.144 253.16 258.656 253.16ZM258.656 251.08C257.44 251.08 256.528 250.152 256.528 248.856C256.528 247.576 257.44 246.648 258.656 246.648C259.856 246.648 260.752 247.576 260.752 248.856C260.752 250.152 259.856 251.08 258.656 251.08ZM269.106 244.568C268.162 244.568 267.41 244.84 266.69 245.416V244.728H264.434V253H266.69V247.496C267.186 247.016 267.826 246.648 268.578 246.648C269.618 246.648 270.194 247.336 270.194 248.52V253H272.45V248.296C272.45 246.056 271.09 244.568 269.106 244.568Z" fill="white"/>
<rect width="100" height="64" transform="translate(138 271)" fill="#EBEDEE"/>
<path d="M157.171 305.632H160.909V303.77H157.171V301.544H161.427L161.945 299.57H155.099V310H161.455L161.945 308.026H157.171V305.632ZM165.559 310.14C165.937 310.14 166.371 310.084 166.763 309.944L166.525 308.222C166.329 308.264 166.147 308.32 165.951 308.32C165.251 308.32 164.929 307.914 164.929 307.186V299.57H162.955V307.424C162.955 309.118 163.977 310.14 165.559 310.14ZM170.822 310.14C172.11 310.14 173.174 309.622 173.86 308.838L172.642 307.634C172.278 308.082 171.634 308.418 170.808 308.418C169.814 308.418 169.086 307.788 168.932 306.934H174.168C174.196 306.794 174.224 306.57 174.224 306.304C174.224 304.218 172.81 302.622 170.71 302.622C168.568 302.622 166.958 304.148 166.958 306.374C166.958 308.53 168.61 310.14 170.822 310.14ZM168.932 305.618C169.086 304.792 169.716 304.19 170.64 304.19C171.522 304.19 172.194 304.792 172.278 305.618H168.932ZM178.901 310.14C180.119 310.14 181.211 309.608 181.911 308.782L180.651 307.466C180.301 307.942 179.685 308.32 178.999 308.32C177.935 308.32 177.067 307.48 177.067 306.36C177.067 305.268 177.865 304.442 178.971 304.442C179.573 304.442 180.091 304.708 180.441 305.058L181.645 303.714C180.917 303 179.993 302.622 178.915 302.622C176.801 302.622 175.079 304.148 175.079 306.36C175.079 308.586 176.801 310.14 178.901 310.14ZM187.61 308.04C187.316 308.222 187.008 308.39 186.616 308.39C186.056 308.39 185.538 307.998 185.538 307.074V304.568H187.106L187.582 302.762H185.538V300.452H183.564V302.762H182.332V304.568H183.564V307.354C183.564 309.202 184.712 310.14 186.308 310.14C186.924 310.14 187.47 310 188.184 309.622L187.61 308.04ZM193.745 302.622C192.821 302.664 191.995 302.916 191.127 303.616V302.762H189.153V310H191.127V305.604C191.813 304.988 192.737 304.624 193.745 304.582V302.622ZM195.752 301.656C196.396 301.656 196.928 301.124 196.928 300.522C196.928 299.934 196.396 299.388 195.752 299.388C195.108 299.388 194.576 299.934 194.576 300.522C194.576 301.124 195.108 301.656 195.752 301.656ZM194.758 310H196.732V302.762H194.758V310ZM201.788 310.14C203.006 310.14 204.098 309.608 204.798 308.782L203.538 307.466C203.188 307.942 202.572 308.32 201.886 308.32C200.822 308.32 199.954 307.48 199.954 306.36C199.954 305.268 200.752 304.442 201.858 304.442C202.46 304.442 202.978 304.708 203.328 305.058L204.532 303.714C203.804 303 202.88 302.622 201.802 302.622C199.688 302.622 197.966 304.148 197.966 306.36C197.966 308.586 199.688 310.14 201.788 310.14ZM206.717 301.656C207.361 301.656 207.893 301.124 207.893 300.522C207.893 299.934 207.361 299.388 206.717 299.388C206.073 299.388 205.541 299.934 205.541 300.522C205.541 301.124 206.073 301.656 206.717 301.656ZM205.723 310H207.697V302.762H205.723V310ZM213.929 308.04C213.635 308.222 213.327 308.39 212.935 308.39C212.375 308.39 211.857 307.998 211.857 307.074V304.568H213.425L213.901 302.762H211.857V300.452H209.883V302.762H208.651V304.568H209.883V307.354C209.883 309.202 211.031 310.14 212.627 310.14C213.243 310.14 213.789 310 214.503 309.622L213.929 308.04ZM220.482 302.762C220.216 304.708 219.614 306.444 218.774 307.788L216.73 302.762H214.602L217.43 309.482C216.576 310.266 215.526 310.84 214.182 311.19L214.602 312.94C216.576 312.45 218.158 311.414 219.446 310C221.084 308.166 222.148 305.632 222.526 302.762H220.482Z" fill="#3B4956"/>
<path d="M237.5 335L186.293 355L138.5 335L237.5 335Z" fill="#EBEDEE"/>
<path d="M238 301.5H256.069L259.5 305.5L256.069 309.5H238V301.5Z" fill="#EBEDEE"/>
<path d="M279.07 304.55C279.56 304.046 279.784 303.458 279.784 302.842C279.784 301.204 278.482 300.07 276.396 300.07H272.462V310.5H277.166C279.308 310.5 280.834 309.212 280.834 307.28C280.834 306.034 280.176 305.054 279.07 304.55ZM276.298 301.904C277.278 301.904 277.768 302.338 277.768 303.136C277.768 303.528 277.572 303.892 277.222 304.158H277.11H274.534V301.904H276.298ZM276.914 308.666H274.534V305.936H276.97C278.076 305.936 278.748 306.398 278.748 307.308C278.748 308.204 278.006 308.666 276.914 308.666ZM287.295 303.262V303.752C286.749 303.318 286.105 303.122 285.377 303.122C283.319 303.122 281.737 304.732 281.737 306.874C281.737 309.016 283.319 310.64 285.405 310.64C286.119 310.64 286.805 310.444 287.295 309.954V310.5H289.269V303.262H287.295ZM285.685 308.862C284.593 308.862 283.725 308.05 283.725 306.874C283.725 305.712 284.593 304.9 285.685 304.9C286.329 304.9 286.917 305.152 287.295 305.6V308.162C286.917 308.61 286.329 308.862 285.685 308.862ZM295.499 308.54C295.205 308.722 294.897 308.89 294.505 308.89C293.945 308.89 293.427 308.498 293.427 307.574V305.068H294.995L295.471 303.262H293.427V300.952H291.453V303.262H290.221V305.068H291.453V307.854C291.453 309.702 292.601 310.64 294.197 310.64C294.813 310.64 295.359 310.5 296.073 310.122L295.499 308.54ZM301.446 308.54C301.152 308.722 300.844 308.89 300.452 308.89C299.892 308.89 299.374 308.498 299.374 307.574V305.068H300.942L301.418 303.262H299.374V300.952H297.4V303.262H296.168V305.068H297.4V307.854C297.4 309.702 298.548 310.64 300.144 310.64C300.76 310.64 301.306 310.5 302.02 310.122L301.446 308.54ZM306.137 310.64C307.425 310.64 308.489 310.122 309.175 309.338L307.957 308.134C307.593 308.582 306.949 308.918 306.123 308.918C305.129 308.918 304.401 308.288 304.247 307.434H309.483C309.511 307.294 309.539 307.07 309.539 306.804C309.539 304.718 308.125 303.122 306.025 303.122C303.883 303.122 302.273 304.648 302.273 306.874C302.273 309.03 303.925 310.64 306.137 310.64ZM304.247 306.118C304.401 305.292 305.031 304.69 305.955 304.69C306.837 304.69 307.509 305.292 307.593 306.118H304.247ZM315.21 303.122C314.286 303.164 313.46 303.416 312.592 304.116V303.262H310.618V310.5H312.592V306.104C313.278 305.488 314.202 305.124 315.21 305.082V303.122ZM317.217 302.156C317.861 302.156 318.393 301.624 318.393 301.022C318.393 300.434 317.861 299.888 317.217 299.888C316.573 299.888 316.041 300.434 316.041 301.022C316.041 301.624 316.573 302.156 317.217 302.156ZM316.223 310.5H318.197V303.262H316.223V310.5ZM323.295 310.64C324.583 310.64 325.647 310.122 326.333 309.338L325.115 308.134C324.751 308.582 324.107 308.918 323.281 308.918C322.287 308.918 321.559 308.288 321.405 307.434H326.641C326.669 307.294 326.697 307.07 326.697 306.804C326.697 304.718 325.283 303.122 323.183 303.122C321.041 303.122 319.431 304.648 319.431 306.874C319.431 309.03 321.083 310.64 323.295 310.64ZM321.405 306.118C321.559 305.292 322.189 304.69 323.113 304.69C323.995 304.69 324.667 305.292 324.751 306.118H321.405ZM330.398 310.64C331.98 310.64 333.016 309.73 333.016 308.316C333.016 307.154 332.204 306.356 330.692 305.978C329.81 305.768 329.446 305.656 329.446 305.292C329.446 304.97 329.782 304.774 330.272 304.774C330.874 304.774 331.504 305.04 332.022 305.404L332.876 304.018C332.162 303.472 331.294 303.122 330.216 303.122C328.676 303.122 327.542 304.032 327.542 305.292C327.542 306.552 328.466 307.168 329.852 307.56C330.748 307.812 331.126 307.966 331.126 308.386C331.126 308.722 330.86 308.974 330.356 308.974C329.67 308.974 328.858 308.652 328.186 308.008L327.234 309.394C327.99 310.122 329.138 310.64 330.398 310.64Z" fill="#3B4956"/>
<rect width="200" height="48" transform="translate(85.75 355)" fill="#4099DA"/>
<path d="M145.461 380.008H149.733V377.88H145.461V375.336H150.325L150.917 373.08H143.093V385H150.357L150.917 382.744H145.461V380.008ZM155.048 385.16C155.48 385.16 155.976 385.096 156.424 384.936L156.152 382.968C155.928 383.016 155.72 383.08 155.496 383.08C154.696 383.08 154.328 382.616 154.328 381.784V373.08H152.072V382.056C152.072 383.992 153.24 385.16 155.048 385.16ZM161.062 385.16C162.534 385.16 163.75 384.568 164.534 383.672L163.142 382.296C162.726 382.808 161.99 383.192 161.046 383.192C159.91 383.192 159.078 382.472 158.902 381.496H164.886C164.918 381.336 164.95 381.08 164.95 380.776C164.95 378.392 163.334 376.568 160.934 376.568C158.486 376.568 156.646 378.312 156.646 380.856C156.646 383.32 158.534 385.16 161.062 385.16ZM158.902 379.992C159.078 379.048 159.798 378.36 160.854 378.36C161.862 378.36 162.63 379.048 162.726 379.992H158.902ZM170.296 385.16C171.688 385.16 172.936 384.552 173.736 383.608L172.296 382.104C171.896 382.648 171.192 383.08 170.408 383.08C169.192 383.08 168.2 382.12 168.2 380.84C168.2 379.592 169.112 378.648 170.376 378.648C171.064 378.648 171.656 378.952 172.056 379.352L173.432 377.816C172.6 377 171.544 376.568 170.312 376.568C167.896 376.568 165.928 378.312 165.928 380.84C165.928 383.384 167.896 385.16 170.296 385.16ZM180.249 382.76C179.913 382.968 179.561 383.16 179.113 383.16C178.473 383.16 177.881 382.712 177.881 381.656V378.792H179.673L180.217 376.728H177.881V374.088H175.625V376.728H174.217V378.792H175.625V381.976C175.625 384.088 176.937 385.16 178.761 385.16C179.465 385.16 180.089 385 180.905 384.568L180.249 382.76ZM187.26 376.568C186.204 376.616 185.26 376.904 184.268 377.704V376.728H182.012V385H184.268V379.976C185.052 379.272 186.108 378.856 187.26 378.808V376.568ZM192.124 385.16C194.62 385.16 196.508 383.304 196.508 380.856C196.508 378.408 194.62 376.568 192.124 376.568C189.612 376.568 187.724 378.408 187.724 380.856C187.724 383.304 189.612 385.16 192.124 385.16ZM192.124 383.08C190.908 383.08 189.996 382.152 189.996 380.856C189.996 379.576 190.908 378.648 192.124 378.648C193.324 378.648 194.22 379.576 194.22 380.856C194.22 382.152 193.324 383.08 192.124 383.08ZM200.766 385.16C201.198 385.16 201.694 385.096 202.142 384.936L201.87 382.968C201.646 383.016 201.438 383.08 201.214 383.08C200.414 383.08 200.046 382.616 200.046 381.784V373.08H197.79V382.056C197.79 383.992 198.958 385.16 200.766 385.16ZM208.394 376.728C208.09 378.952 207.402 380.936 206.442 382.472L204.106 376.728H201.674L204.906 384.408C203.93 385.304 202.73 385.96 201.194 386.36L201.674 388.36C203.93 387.8 205.738 386.616 207.21 385C209.082 382.904 210.298 380.008 210.73 376.728H208.394ZM214.618 385.16C216.426 385.16 217.61 384.12 217.61 382.504C217.61 381.176 216.682 380.264 214.954 379.832C213.946 379.592 213.53 379.464 213.53 379.048C213.53 378.68 213.914 378.456 214.474 378.456C215.162 378.456 215.882 378.76 216.474 379.176L217.45 377.592C216.634 376.968 215.642 376.568 214.41 376.568C212.65 376.568 211.354 377.608 211.354 379.048C211.354 380.488 212.41 381.192 213.994 381.64C215.018 381.928 215.45 382.104 215.45 382.584C215.45 382.968 215.146 383.256 214.57 383.256C213.786 383.256 212.858 382.888 212.09 382.152L211.002 383.736C211.866 384.568 213.178 385.16 214.618 385.16ZM219.991 375.464C220.727 375.464 221.335 374.856 221.335 374.168C221.335 373.496 220.727 372.872 219.991 372.872C219.255 372.872 218.647 373.496 218.647 374.168C218.647 374.856 219.255 375.464 219.991 375.464ZM218.855 385H221.111V376.728H218.855V385ZM225.961 385.16C227.769 385.16 228.953 384.12 228.953 382.504C228.953 381.176 228.025 380.264 226.297 379.832C225.289 379.592 224.873 379.464 224.873 379.048C224.873 378.68 225.257 378.456 225.817 378.456C226.505 378.456 227.225 378.76 227.817 379.176L228.793 377.592C227.977 376.968 226.985 376.568 225.753 376.568C223.993 376.568 222.697 377.608 222.697 379.048C222.697 380.488 223.753 381.192 225.337 381.64C226.361 381.928 226.793 382.104 226.793 382.584C226.793 382.968 226.489 383.256 225.913 383.256C225.129 383.256 224.201 382.888 223.433 382.152L222.345 383.736C223.209 384.568 224.521 385.16 225.961 385.16Z" fill="white"/>
<rect width="99" height="64" transform="translate(138 403)" fill="#EBEDEE"/>
<path d="M161.948 431.57V435.798H156.95V431.57H154.878V442H156.95V437.758H161.948V442H164.02V431.57H161.948ZM171.029 434.762C170.763 436.708 170.161 438.444 169.321 439.788L167.277 434.762H165.149L167.977 441.482C167.123 442.266 166.073 442.84 164.729 443.19L165.149 444.94C167.123 444.45 168.705 443.414 169.993 442C171.631 440.166 172.695 437.632 173.073 434.762H171.029ZM177.159 442.14C177.873 442.14 178.559 441.944 179.049 441.454V442H181.023V431.57H179.049V435.252C178.503 434.818 177.859 434.622 177.131 434.622C175.073 434.622 173.491 436.232 173.491 438.374C173.491 440.516 175.073 442.14 177.159 442.14ZM177.439 440.362C176.347 440.362 175.479 439.55 175.479 438.374C175.479 437.212 176.347 436.4 177.439 436.4C178.083 436.4 178.671 436.652 179.049 437.1V439.662C178.671 440.11 178.083 440.362 177.439 440.362ZM187.071 434.622C186.147 434.664 185.321 434.916 184.453 435.616V434.762H182.479V442H184.453V437.604C185.139 436.988 186.063 436.624 187.071 436.582V434.622ZM191.328 442.14C193.512 442.14 195.164 440.516 195.164 438.374C195.164 436.232 193.512 434.622 191.328 434.622C189.13 434.622 187.478 436.232 187.478 438.374C187.478 440.516 189.13 442.14 191.328 442.14ZM191.328 440.32C190.264 440.32 189.466 439.508 189.466 438.374C189.466 437.254 190.264 436.442 191.328 436.442C192.378 436.442 193.162 437.254 193.162 438.374C193.162 439.508 192.378 440.32 191.328 440.32ZM198.833 444.94C201.857 444.898 203.733 443.344 203.733 440.18V434.762H201.759V435.28C201.241 434.846 200.611 434.622 199.841 434.622C197.741 434.622 196.159 436.246 196.159 438.318C196.159 440.362 197.685 441.874 199.799 441.874C200.569 441.874 201.213 441.65 201.731 441.188C201.535 442.588 200.471 443.176 198.833 443.246V444.94ZM200.107 440.264C199.015 440.264 198.147 439.452 198.147 438.29C198.147 437.184 199.015 436.358 200.107 436.358C200.863 436.358 201.465 436.708 201.759 437.142V439.48C201.465 439.928 200.863 440.264 200.107 440.264ZM208.828 442.14C210.116 442.14 211.18 441.622 211.866 440.838L210.648 439.634C210.284 440.082 209.64 440.418 208.814 440.418C207.82 440.418 207.092 439.788 206.938 438.934H212.174C212.202 438.794 212.23 438.57 212.23 438.304C212.23 436.218 210.816 434.622 208.716 434.622C206.574 434.622 204.964 436.148 204.964 438.374C204.964 440.53 206.616 442.14 208.828 442.14ZM206.938 437.618C207.092 436.792 207.722 436.19 208.646 436.19C209.528 436.19 210.2 436.792 210.284 437.618H206.938ZM217.397 434.622C216.571 434.622 215.913 434.86 215.283 435.364V434.762H213.309V442H215.283V437.184C215.717 436.764 216.277 436.442 216.935 436.442C217.845 436.442 218.349 437.044 218.349 438.08V442H220.323V437.884C220.323 435.924 219.133 434.622 217.397 434.622Z" fill="#3B4956"/>
<path d="M237 467L185.793 487L138 467L237 467Z" fill="#EBEDEE"/>
<path d="M237 433.5H255.069L258.5 437.5L255.069 441.5H237V433.5Z" fill="#EBEDEE"/>
<path d="M277.771 434.044L278.289 432.07H271.429V442.5H273.501V438.454H277.393V436.592H273.501V434.044H277.771ZM281.938 442.64C282.764 442.64 283.422 442.402 284.052 441.898V442.5H286.026V435.262H284.052V440.078C283.618 440.498 283.058 440.82 282.4 440.82C281.49 440.82 280.986 440.218 280.986 439.182V435.262H279.012V439.378C279.012 441.338 280.202 442.64 281.938 442.64ZM291.117 442.64C292.405 442.64 293.469 442.122 294.155 441.338L292.937 440.134C292.573 440.582 291.929 440.918 291.103 440.918C290.109 440.918 289.381 440.288 289.227 439.434H294.463C294.491 439.294 294.519 439.07 294.519 438.804C294.519 436.718 293.105 435.122 291.005 435.122C288.863 435.122 287.253 436.648 287.253 438.874C287.253 441.03 288.905 442.64 291.117 442.64ZM289.227 438.118C289.381 437.292 290.011 436.69 290.935 436.69C291.817 436.69 292.489 437.292 292.573 438.118H289.227ZM298.104 442.64C298.482 442.64 298.916 442.584 299.308 442.444L299.07 440.722C298.874 440.764 298.692 440.82 298.496 440.82C297.796 440.82 297.474 440.414 297.474 439.686V432.07H295.5V439.924C295.5 441.618 296.522 442.64 298.104 442.64ZM306.948 442.64C308.166 442.64 309.258 442.108 309.958 441.282L308.698 439.966C308.348 440.442 307.732 440.82 307.046 440.82C305.982 440.82 305.114 439.98 305.114 438.86C305.114 437.768 305.912 436.942 307.018 436.942C307.62 436.942 308.138 437.208 308.488 437.558L309.692 436.214C308.964 435.5 308.04 435.122 306.962 435.122C304.848 435.122 303.126 436.648 303.126 438.86C303.126 441.086 304.848 442.64 306.948 442.64ZM314.14 442.64C315.428 442.64 316.492 442.122 317.178 441.338L315.96 440.134C315.596 440.582 314.952 440.918 314.126 440.918C313.132 440.918 312.404 440.288 312.25 439.434H317.486C317.514 439.294 317.542 439.07 317.542 438.804C317.542 436.718 316.128 435.122 314.028 435.122C311.886 435.122 310.276 436.648 310.276 438.874C310.276 441.03 311.928 442.64 314.14 442.64ZM312.25 438.118C312.404 437.292 313.034 436.69 313.958 436.69C314.84 436.69 315.512 437.292 315.596 438.118H312.25ZM321.128 442.64C321.506 442.64 321.94 442.584 322.332 442.444L322.094 440.722C321.898 440.764 321.716 440.82 321.52 440.82C320.82 440.82 320.498 440.414 320.498 439.686V432.07H318.524V439.924C318.524 441.618 319.546 442.64 321.128 442.64ZM325.598 442.64C325.976 442.64 326.41 442.584 326.802 442.444L326.564 440.722C326.368 440.764 326.186 440.82 325.99 440.82C325.29 440.82 324.968 440.414 324.968 439.686V432.07H322.994V439.924C322.994 441.618 324.016 442.64 325.598 442.64ZM330.431 442.64C332.013 442.64 333.049 441.73 333.049 440.316C333.049 439.154 332.237 438.356 330.725 437.978C329.843 437.768 329.479 437.656 329.479 437.292C329.479 436.97 329.815 436.774 330.305 436.774C330.907 436.774 331.537 437.04 332.055 437.404L332.909 436.018C332.195 435.472 331.327 435.122 330.249 435.122C328.709 435.122 327.575 436.032 327.575 437.292C327.575 438.552 328.499 439.168 329.885 439.56C330.781 439.812 331.159 439.966 331.159 440.386C331.159 440.722 330.893 440.974 330.389 440.974C329.703 440.974 328.891 440.652 328.219 440.008L327.267 441.394C328.023 442.122 329.171 442.64 330.431 442.64Z" fill="#3B4956"/>
<rect width="200" height="48" transform="translate(85.75 487)" fill="#4099DA"/>
<path d="M117.458 507.336L118.05 505.08H110.21V517H112.578V512.376H117.026V510.248H112.578V507.336H117.458ZM122.221 517.16C123.165 517.16 123.917 516.888 124.637 516.312V517H126.893V508.728H124.637V514.232C124.141 514.712 123.501 515.08 122.749 515.08C121.709 515.08 121.133 514.392 121.133 513.208V508.728H118.877V513.432C118.877 515.672 120.237 517.16 122.221 517.16ZM132.711 517.16C134.183 517.16 135.399 516.568 136.183 515.672L134.791 514.296C134.375 514.808 133.639 515.192 132.695 515.192C131.559 515.192 130.727 514.472 130.551 513.496H136.535C136.567 513.336 136.599 513.08 136.599 512.776C136.599 510.392 134.983 508.568 132.583 508.568C130.135 508.568 128.295 510.312 128.295 512.856C128.295 515.32 130.183 517.16 132.711 517.16ZM130.551 511.992C130.727 511.048 131.447 510.36 132.503 510.36C133.511 510.36 134.279 511.048 134.375 511.992H130.551ZM140.696 517.16C141.128 517.16 141.624 517.096 142.072 516.936L141.8 514.968C141.576 515.016 141.368 515.08 141.144 515.08C140.344 515.08 139.976 514.616 139.976 513.784V505.08H137.72V514.056C137.72 515.992 138.888 517.16 140.696 517.16ZM149.875 517.16C151.683 517.16 152.867 516.12 152.867 514.504C152.867 513.176 151.939 512.264 150.211 511.832C149.203 511.592 148.787 511.464 148.787 511.048C148.787 510.68 149.171 510.456 149.731 510.456C150.419 510.456 151.139 510.76 151.731 511.176L152.707 509.592C151.891 508.968 150.899 508.568 149.667 508.568C147.907 508.568 146.611 509.608 146.611 511.048C146.611 512.488 147.667 513.192 149.251 513.64C150.275 513.928 150.707 514.104 150.707 514.584C150.707 514.968 150.403 515.256 149.827 515.256C149.043 515.256 148.115 514.888 147.347 514.152L146.259 515.736C147.123 516.568 148.435 517.16 149.875 517.16ZM160.23 508.728C159.926 510.952 159.238 512.936 158.278 514.472L155.942 508.728H153.51L156.742 516.408C155.766 517.304 154.566 517.96 153.03 518.36L153.51 520.36C155.766 519.8 157.574 518.616 159.046 517C160.918 514.904 162.134 512.008 162.566 508.728H160.23ZM168.317 508.568C167.373 508.568 166.621 508.84 165.901 509.416V508.728H163.645V517H165.901V511.496C166.397 511.016 167.036 510.648 167.789 510.648C168.829 510.648 169.405 511.336 169.405 512.52V517H171.661V512.296C171.661 510.056 170.301 508.568 168.317 508.568ZM178.679 514.76C178.343 514.968 177.991 515.16 177.543 515.16C176.903 515.16 176.311 514.712 176.311 513.656V510.792H178.103L178.647 508.728H176.311V506.088H174.055V508.728H172.647V510.792H174.055V513.976C174.055 516.088 175.367 517.16 177.191 517.16C177.895 517.16 178.519 517 179.335 516.568L178.679 514.76ZM185.113 508.568C184.169 508.568 183.417 508.84 182.697 509.416V505.08H180.441V517H182.697V511.496C183.193 511.016 183.833 510.648 184.585 510.648C185.625 510.648 186.201 511.336 186.201 512.52V517H188.457V512.296C188.457 510.056 187.097 508.568 185.113 508.568ZM194.18 517.16C195.652 517.16 196.868 516.568 197.652 515.672L196.26 514.296C195.844 514.808 195.108 515.192 194.164 515.192C193.028 515.192 192.196 514.472 192.02 513.496H198.003C198.036 513.336 198.068 513.08 198.068 512.776C198.068 510.392 196.452 508.568 194.052 508.568C191.604 508.568 189.764 510.312 189.764 512.856C189.764 515.32 191.652 517.16 194.18 517.16ZM192.02 511.992C192.196 511.048 192.916 510.36 193.972 510.36C194.98 510.36 195.748 511.048 195.844 511.992H192.02ZM202.297 517.16C204.105 517.16 205.289 516.12 205.289 514.504C205.289 513.176 204.361 512.264 202.633 511.832C201.625 511.592 201.209 511.464 201.209 511.048C201.209 510.68 201.593 510.456 202.153 510.456C202.841 510.456 203.561 510.76 204.153 511.176L205.129 509.592C204.313 508.968 203.321 508.568 202.089 508.568C200.329 508.568 199.033 509.608 199.033 511.048C199.033 512.488 200.089 513.192 201.673 513.64C202.697 513.928 203.129 514.104 203.129 514.584C203.129 514.968 202.825 515.256 202.249 515.256C201.465 515.256 200.537 514.888 199.769 514.152L198.681 515.736C199.545 516.568 200.857 517.16 202.297 517.16ZM207.671 507.464C208.407 507.464 209.015 506.856 209.015 506.168C209.015 505.496 208.407 504.872 207.671 504.872C206.935 504.872 206.327 505.496 206.327 506.168C206.327 506.856 206.935 507.464 207.671 507.464ZM206.535 517H208.791V508.728H206.535V517ZM213.641 517.16C215.449 517.16 216.633 516.12 216.633 514.504C216.633 513.176 215.705 512.264 213.977 511.832C212.969 511.592 212.553 511.464 212.553 511.048C212.553 510.68 212.937 510.456 213.497 510.456C214.185 510.456 214.905 510.76 215.497 511.176L216.473 509.592C215.657 508.968 214.665 508.568 213.433 508.568C211.673 508.568 210.377 509.608 210.377 511.048C210.377 512.488 211.433 513.192 213.017 513.64C214.041 513.928 214.473 514.104 214.473 514.584C214.473 514.968 214.169 515.256 213.593 515.256C212.809 515.256 211.881 514.888 211.113 514.152L210.025 515.736C210.889 516.568 212.201 517.16 213.641 517.16ZM225.983 508.568C225.151 508.568 224.431 508.792 223.791 509.288V508.728H221.535V520.2H223.791V516.376C224.367 516.936 225.135 517.16 225.951 517.16C228.335 517.16 230.159 515.304 230.159 512.856C230.159 510.408 228.335 508.568 225.983 508.568ZM225.647 515.128C224.911 515.128 224.223 514.84 223.791 514.328V511.4C224.223 510.888 224.911 510.6 225.647 510.6C226.879 510.6 227.871 511.528 227.871 512.856C227.871 514.2 226.879 515.128 225.647 515.128ZM234.415 517.16C234.847 517.16 235.343 517.096 235.791 516.936L235.519 514.968C235.295 515.016 235.087 515.08 234.863 515.08C234.063 515.08 233.695 514.616 233.695 513.784V505.08H231.439V514.056C231.439 515.992 232.607 517.16 234.415 517.16ZM242.366 508.728V509.288C241.742 508.792 241.006 508.568 240.174 508.568C237.822 508.568 236.014 510.408 236.014 512.856C236.014 515.304 237.822 517.16 240.206 517.16C241.022 517.16 241.806 516.936 242.366 516.376V517H244.622V508.728H242.366ZM240.526 515.128C239.278 515.128 238.286 514.2 238.286 512.856C238.286 511.528 239.278 510.6 240.526 510.6C241.262 510.6 241.934 510.888 242.366 511.4V514.328C241.934 514.84 241.262 515.128 240.526 515.128ZM250.957 508.568C250.013 508.568 249.261 508.84 248.541 509.416V508.728H246.285V517H248.541V511.496C249.037 511.016 249.677 510.648 250.429 510.648C251.469 510.648 252.045 511.336 252.045 512.52V517H254.301V512.296C254.301 510.056 252.941 508.568 250.957 508.568ZM261.319 514.76C260.983 514.968 260.631 515.16 260.183 515.16C259.543 515.16 258.951 514.712 258.951 513.656V510.792H260.743L261.287 508.728H258.951V506.088H256.695V508.728H255.287V510.792H256.695V513.976C256.695 516.088 258.007 517.16 259.831 517.16C260.535 517.16 261.159 517 261.975 516.568L261.319 514.76Z" fill="white"/>
<rect width="200" height="23" transform="translate(85.75 535)" fill="#D8D1CA"/>
<path d="M144.588 551.127C145.983 551.127 147.276 550.62 148.202 549.694L147.238 548.489C146.541 549.161 145.717 549.58 144.639 549.58C142.8 549.58 141.393 548.134 141.393 546.27C141.393 544.407 142.8 542.974 144.639 542.974C145.615 542.974 146.275 543.316 146.934 543.874L147.898 542.568C147.023 541.871 145.945 541.427 144.588 541.427C141.849 541.427 139.757 543.519 139.757 546.27C139.757 549.035 141.824 551.127 144.588 551.127ZM154.699 543.836V544.267C154.166 543.899 153.481 543.709 152.746 543.709C150.679 543.709 149.132 545.256 149.132 547.412C149.132 549.567 150.679 551.127 152.746 551.127C153.481 551.127 154.153 550.924 154.699 550.544V551H156.22V543.836H154.699ZM152.949 549.77C151.617 549.77 150.705 548.819 150.705 547.412C150.705 546.017 151.63 545.066 152.949 545.066C153.659 545.066 154.293 545.332 154.699 545.814V548.933C154.293 549.402 153.659 549.77 152.949 549.77ZM161.242 543.709C160.506 543.709 159.822 543.899 159.289 544.28V543.836H157.768V553.663H159.289V550.544C159.834 550.924 160.506 551.127 161.242 551.127C163.309 551.127 164.856 549.567 164.856 547.412C164.856 545.256 163.309 543.709 161.242 543.709ZM161.039 549.77C160.329 549.77 159.695 549.466 159.289 548.997V545.839C159.695 545.358 160.342 545.066 161.039 545.066C162.358 545.066 163.283 546.017 163.283 547.412C163.283 548.819 162.37 549.77 161.039 549.77ZM170.454 549.453C170.124 549.631 169.794 549.77 169.389 549.77C168.78 549.77 168.362 549.415 168.362 548.565V545.231H170.187L170.593 543.836H168.362V541.921H166.84V543.836H165.496V545.231H166.84V548.654C166.84 550.239 167.854 551.127 169.173 551.127C169.82 551.127 170.428 550.962 170.898 550.67L170.454 549.453ZM176.641 543.836V548.921C176.235 549.44 175.664 549.732 174.967 549.732C173.876 549.732 173.242 548.971 173.242 547.703V543.836H171.721V547.919C171.721 549.821 172.951 551.127 174.751 551.127C175.436 551.127 176.121 550.911 176.641 550.48V551H178.162V543.836H176.641ZM183.868 543.709C183.057 543.722 182.03 543.925 181.231 544.508V543.836H179.709V551H181.231V546.08C181.878 545.535 182.93 545.294 183.868 545.256V543.709ZM186.231 547.919H191.671C191.696 547.741 191.709 547.5 191.709 547.285C191.709 545.231 190.263 543.709 188.285 543.709C186.18 543.709 184.608 545.269 184.608 547.399C184.608 549.542 186.231 551.127 188.387 551.127C189.591 551.127 190.682 550.683 191.328 549.846L190.352 548.819C189.959 549.352 189.236 549.77 188.399 549.77C187.258 549.77 186.434 548.959 186.231 547.919ZM188.285 545.066C189.287 545.066 189.984 545.675 190.149 546.74H186.244C186.447 545.738 187.119 545.066 188.285 545.066ZM198.335 541.173V544.28C197.802 543.899 197.117 543.709 196.382 543.709C194.315 543.709 192.768 545.256 192.768 547.412C192.768 549.567 194.315 551.127 196.382 551.127C197.117 551.127 197.789 550.924 198.335 550.544V551H199.856V541.173H198.335ZM196.585 549.77C195.253 549.77 194.34 548.819 194.34 547.412C194.34 546.017 195.266 545.066 196.585 545.066C197.295 545.066 197.929 545.332 198.335 545.814V549.022C197.929 549.491 197.295 549.77 196.585 549.77ZM209.113 551.127C210.508 551.127 211.802 550.62 212.727 549.694L211.763 548.489C211.066 549.161 210.242 549.58 209.164 549.58C207.326 549.58 205.918 548.134 205.918 546.27C205.918 544.407 207.326 542.974 209.164 542.974C210.14 542.974 210.8 543.316 211.459 543.874L212.423 542.568C211.548 541.871 210.47 541.427 209.113 541.427C206.375 541.427 204.282 543.519 204.282 546.27C204.282 549.035 206.349 551.127 209.113 551.127ZM218.165 551.127C220.917 551.127 223.009 549.035 223.009 546.27C223.009 543.519 220.917 541.427 218.165 541.427C215.401 541.427 213.322 543.519 213.322 546.27C213.322 549.035 215.401 551.127 218.165 551.127ZM218.165 549.58C216.365 549.58 214.97 548.147 214.97 546.27C214.97 544.407 216.365 542.974 218.165 542.974C219.966 542.974 221.348 544.407 221.348 546.27C221.348 548.147 219.966 549.58 218.165 549.58ZM224.019 551H230.346L230.752 549.466H227.278L228.267 548.325C229.928 546.499 230.511 545.713 230.511 544.407C230.511 542.644 229.154 541.427 227.303 541.427C225.845 541.427 224.729 542.124 223.854 543.418L225.008 544.419C225.591 543.443 226.352 542.974 227.24 542.974C228.216 542.974 228.863 543.608 228.863 544.533C228.863 545.51 228.267 546.232 226.301 548.439L224.019 551Z" fill="#3B4956"/>
<rect width="99" height="64" transform="translate(138 558)" fill="#EBEDEE"/>
<path d="M167.313 592.632H171.051V590.77H167.313V588.544H171.569L172.087 586.57H165.241V597H171.597L172.087 595.026H167.313V592.632ZM173.126 593.57H177.046V591.722H173.126V593.57ZM180.983 589.286C180.983 588.586 181.249 588.18 181.879 588.18C182.173 588.18 182.425 588.25 182.607 588.32L183.069 586.71C182.635 586.556 182.117 586.43 181.543 586.43C180.003 586.43 179.009 587.424 179.009 589.146V589.762H177.833V591.568H179.009V597H180.983V591.568H182.397L182.873 589.762H180.983V589.286ZM186.62 597.14C187.446 597.14 188.104 596.902 188.734 596.398V597H190.708V589.762H188.734V594.578C188.3 594.998 187.74 595.32 187.082 595.32C186.172 595.32 185.668 594.718 185.668 593.682V589.762H183.694V593.878C183.694 595.838 184.884 597.14 186.62 597.14ZM195.799 597.14C197.087 597.14 198.151 596.622 198.837 595.838L197.619 594.634C197.255 595.082 196.611 595.418 195.785 595.418C194.791 595.418 194.063 594.788 193.909 593.934H199.145C199.173 593.794 199.201 593.57 199.201 593.304C199.201 591.218 197.787 589.622 195.687 589.622C193.545 589.622 191.935 591.148 191.935 593.374C191.935 595.53 193.587 597.14 195.799 597.14ZM193.909 592.618C194.063 591.792 194.693 591.19 195.617 591.19C196.499 591.19 197.171 591.792 197.255 592.618H193.909ZM202.786 597.14C203.164 597.14 203.598 597.084 203.99 596.944L203.752 595.222C203.556 595.264 203.374 595.32 203.178 595.32C202.478 595.32 202.156 594.914 202.156 594.186V586.57H200.182V594.424C200.182 596.118 201.204 597.14 202.786 597.14ZM207.618 597.14C209.2 597.14 210.236 596.23 210.236 594.816C210.236 593.654 209.424 592.856 207.912 592.478C207.03 592.268 206.666 592.156 206.666 591.792C206.666 591.47 207.002 591.274 207.492 591.274C208.094 591.274 208.724 591.54 209.242 591.904L210.096 590.518C209.382 589.972 208.514 589.622 207.436 589.622C205.896 589.622 204.762 590.532 204.762 591.792C204.762 593.052 205.686 593.668 207.072 594.06C207.968 594.312 208.346 594.466 208.346 594.886C208.346 595.222 208.08 595.474 207.576 595.474C206.89 595.474 206.078 595.152 205.406 594.508L204.454 595.894C205.21 596.622 206.358 597.14 207.618 597.14Z" fill="#3B4956"/>
<path d="M237 622L185.793 642L138 622L237 622Z" fill="#EBEDEE"/>
<path d="M237 588.5H255.069L258.5 592.5L255.069 596.5H237V588.5Z" fill="#EBEDEE"/>
<path d="M276.665 587.64C278.275 587.64 279.731 587.052 280.767 585.974L279.521 584.42C278.779 585.176 277.939 585.652 276.735 585.652C274.845 585.652 273.417 584.182 273.417 582.278C273.417 580.388 274.845 578.918 276.735 578.918C277.827 578.918 278.499 579.324 279.199 579.94L280.431 578.26C279.465 577.448 278.233 576.93 276.665 576.93C273.613 576.93 271.303 579.24 271.303 582.278C271.303 585.33 273.613 587.64 276.665 587.64ZM285.285 587.64C287.469 587.64 289.121 586.016 289.121 583.874C289.121 581.732 287.469 580.122 285.285 580.122C283.087 580.122 281.435 581.732 281.435 583.874C281.435 586.016 283.087 587.64 285.285 587.64ZM285.285 585.82C284.221 585.82 283.423 585.008 283.423 583.874C283.423 582.754 284.221 581.942 285.285 581.942C286.335 581.942 287.119 582.754 287.119 583.874C287.119 585.008 286.335 585.82 285.285 585.82ZM299.118 580.122C297.984 580.122 297.256 580.472 296.57 581.046C296.038 580.458 295.31 580.122 294.428 580.122C293.602 580.122 292.944 580.36 292.314 580.864V580.262H290.34V587.5H292.314V582.684C292.748 582.264 293.308 581.942 293.966 581.942C294.876 581.942 295.38 582.544 295.38 583.58V587.5H297.354V583.384C297.354 583.09 297.312 582.796 297.256 582.53C297.634 582.208 298.138 581.942 298.726 581.942C299.636 581.942 300.14 582.544 300.14 583.58V587.5H302.1V583.384C302.1 581.424 300.868 580.122 299.118 580.122ZM307.357 587.64C309.443 587.64 311.039 586.016 311.039 583.874C311.039 581.732 309.443 580.122 307.385 580.122C306.657 580.122 306.027 580.318 305.467 580.752V577.07H303.493V587.5H305.467V586.954C305.971 587.444 306.643 587.64 307.357 587.64ZM307.091 585.862C306.447 585.862 305.845 585.61 305.467 585.162V582.6C305.845 582.152 306.447 581.9 307.091 581.9C308.169 581.9 309.037 582.712 309.037 583.874C309.037 585.05 308.169 585.862 307.091 585.862ZM315.098 587.64C315.924 587.64 316.582 587.402 317.212 586.898V587.5H319.186V580.262H317.212V585.078C316.778 585.498 316.218 585.82 315.56 585.82C314.65 585.82 314.146 585.218 314.146 584.182V580.262H312.172V584.378C312.172 586.338 313.362 587.64 315.098 587.64ZM323.423 587.64C325.005 587.64 326.041 586.73 326.041 585.316C326.041 584.154 325.229 583.356 323.717 582.978C322.835 582.768 322.471 582.656 322.471 582.292C322.471 581.97 322.807 581.774 323.297 581.774C323.899 581.774 324.529 582.04 325.047 582.404L325.901 581.018C325.187 580.472 324.319 580.122 323.241 580.122C321.701 580.122 320.567 581.032 320.567 582.292C320.567 583.552 321.491 584.168 322.877 584.56C323.773 584.812 324.151 584.966 324.151 585.386C324.151 585.722 323.885 585.974 323.381 585.974C322.695 585.974 321.883 585.652 321.211 585.008L320.259 586.394C321.015 587.122 322.163 587.64 323.423 587.64ZM331.864 585.54C331.57 585.722 331.262 585.89 330.87 585.89C330.31 585.89 329.792 585.498 329.792 584.574V582.068H331.36L331.836 580.262H329.792V577.952H327.818V580.262H326.586V582.068H327.818V584.854C327.818 586.702 328.966 587.64 330.562 587.64C331.178 587.64 331.724 587.5 332.438 587.122L331.864 585.54ZM334.401 579.156C335.045 579.156 335.577 578.624 335.577 578.022C335.577 577.434 335.045 576.888 334.401 576.888C333.757 576.888 333.225 577.434 333.225 578.022C333.225 578.624 333.757 579.156 334.401 579.156ZM333.407 587.5H335.381V580.262H333.407V587.5ZM340.464 587.64C342.648 587.64 344.3 586.016 344.3 583.874C344.3 581.732 342.648 580.122 340.464 580.122C338.266 580.122 336.614 581.732 336.614 583.874C336.614 586.016 338.266 587.64 340.464 587.64ZM340.464 585.82C339.4 585.82 338.602 585.008 338.602 583.874C338.602 582.754 339.4 581.942 340.464 581.942C341.514 581.942 342.298 582.754 342.298 583.874C342.298 585.008 341.514 585.82 340.464 585.82ZM349.608 580.122C348.782 580.122 348.124 580.36 347.494 580.864V580.262H345.52V587.5H347.494V582.684C347.928 582.264 348.488 581.942 349.146 581.942C350.056 581.942 350.56 582.544 350.56 583.58V587.5H352.534V583.384C352.534 581.424 351.344 580.122 349.608 580.122ZM290.583 607.64C291.871 607.64 292.935 607.122 293.621 606.338L292.403 605.134C292.039 605.582 291.395 605.918 290.569 605.918C289.575 605.918 288.847 605.288 288.693 604.434H293.929C293.957 604.294 293.985 604.07 293.985 603.804C293.985 601.718 292.571 600.122 290.471 600.122C288.329 600.122 286.719 601.648 286.719 603.874C286.719 606.03 288.371 607.64 290.583 607.64ZM288.693 603.118C288.847 602.292 289.477 601.69 290.401 601.69C291.283 601.69 291.955 602.292 292.039 603.118H288.693ZM299.152 600.122C298.326 600.122 297.668 600.36 297.038 600.864V600.262H295.064V607.5H297.038V602.684C297.472 602.264 298.032 601.942 298.69 601.942C299.6 601.942 300.104 602.544 300.104 603.58V607.5H302.078V603.384C302.078 601.424 300.888 600.122 299.152 600.122ZM305.895 610.44C308.919 610.398 310.795 608.844 310.795 605.68V600.262H308.821V600.78C308.303 600.346 307.673 600.122 306.903 600.122C304.803 600.122 303.221 601.746 303.221 603.818C303.221 605.862 304.747 607.374 306.861 607.374C307.631 607.374 308.275 607.15 308.793 606.688C308.597 608.088 307.533 608.676 305.895 608.746V610.44ZM307.169 605.764C306.077 605.764 305.209 604.952 305.209 603.79C305.209 602.684 306.077 601.858 307.169 601.858C307.925 601.858 308.527 602.208 308.821 602.642V604.98C308.527 605.428 307.925 605.764 307.169 605.764ZM313.243 599.156C313.887 599.156 314.419 598.624 314.419 598.022C314.419 597.434 313.887 596.888 313.243 596.888C312.599 596.888 312.067 597.434 312.067 598.022C312.067 598.624 312.599 599.156 313.243 599.156ZM312.249 607.5H314.223V600.262H312.249V607.5ZM319.769 600.122C318.943 600.122 318.285 600.36 317.655 600.864V600.262H315.681V607.5H317.655V602.684C318.089 602.264 318.649 601.942 319.307 601.942C320.217 601.942 320.721 602.544 320.721 603.58V607.5H322.695V603.384C322.695 601.424 321.505 600.122 319.769 600.122ZM327.702 607.64C328.99 607.64 330.054 607.122 330.74 606.338L329.522 605.134C329.158 605.582 328.514 605.918 327.688 605.918C326.694 605.918 325.966 605.288 325.812 604.434H331.048C331.076 604.294 331.104 604.07 331.104 603.804C331.104 601.718 329.69 600.122 327.59 600.122C325.448 600.122 323.838 601.648 323.838 603.874C323.838 606.03 325.49 607.64 327.702 607.64ZM325.812 603.118C325.966 602.292 326.596 601.69 327.52 601.69C328.402 601.69 329.074 602.292 329.158 603.118H325.812ZM334.805 607.64C336.387 607.64 337.423 606.73 337.423 605.316C337.423 604.154 336.611 603.356 335.099 602.978C334.217 602.768 333.853 602.656 333.853 602.292C333.853 601.97 334.189 601.774 334.679 601.774C335.281 601.774 335.911 602.04 336.429 602.404L337.283 601.018C336.569 600.472 335.701 600.122 334.623 600.122C333.083 600.122 331.949 601.032 331.949 602.292C331.949 603.552 332.873 604.168 334.259 604.56C335.155 604.812 335.533 604.966 335.533 605.386C335.533 605.722 335.267 605.974 334.763 605.974C334.077 605.974 333.265 605.652 332.593 605.008L331.641 606.394C332.397 607.122 333.545 607.64 334.805 607.64Z" fill="#3B4956"/>
</svg>
