<svg width="375" height="667" viewBox="0 0 375 667" fill="none" xmlns="http://www.w3.org/2000/svg">
<g clip-path="url(#clip0)">
<path d="M213.27 175.123C213.27 177.809 210.97 180 208.142 180C205.315 180 203.015 177.827 203.015 175.123C203.015 172.437 205.315 170.246 208.142 170.246C210.97 170.246 213.27 172.437 213.27 175.123Z" fill="#4099DA"/>
<path d="M175.077 175.123C175.077 177.809 172.778 180 169.95 180C167.122 180 164.822 177.827 164.822 175.123C164.841 172.437 167.122 170.246 169.95 170.246C172.796 170.246 175.077 172.437 175.077 175.123Z" fill="#4099DA"/>
<path d="M171.609 159.397C171.609 160.881 173.042 161.764 175.059 161.764H197.887C197.887 161.764 190.837 155.951 182.505 155.951C177.867 155.951 175.323 156.393 171.609 157.577V159.397ZM156.038 161.482C166.538 155.474 172.721 153 182.128 153C190.083 153 196.606 156.41 202.167 160.952C205.07 161.429 207.181 161.605 211.913 163.143C218.247 165.175 220 168.991 220 168.991V176.095H216.135H215.758C215.796 175.777 215.834 175.459 215.834 175.123C215.834 171.094 212.384 167.808 208.143 167.808C203.901 167.808 200.451 171.077 200.451 175.123C200.451 175.459 200.489 175.777 200.527 176.095H200.131H177.566C177.604 175.777 177.641 175.459 177.641 175.123C177.641 171.094 174.191 167.808 169.95 167.808C165.708 167.808 162.259 171.077 162.259 175.123C162.259 175.459 162.296 175.777 162.334 176.095H158.036C156.622 176.095 156 175.194 156 173.974C156 171.677 156.038 164.892 156.038 161.482Z" fill="#4099DA"/>
<path d="M179.96 168.02L181.449 169.168L182.259 168.232L180.77 167.083C180.487 166.871 180.092 166.906 179.865 167.171C179.639 167.437 179.677 167.808 179.96 168.02ZM183.598 166.712L184.409 165.776L182.919 164.627C182.637 164.415 182.241 164.45 182.014 164.715C181.788 164.98 181.826 165.351 182.109 165.564L183.598 166.712ZM192.213 177.049C192.42 176.448 192.477 175.83 192.345 175.194C192.175 174.275 191.629 173.391 190.818 172.667C191.685 171.165 191.327 169.274 189.875 168.161L186.199 165.316L181.279 170.918L184.974 173.762C186.501 174.929 188.688 174.84 190.083 173.603C190.648 174.134 191.025 174.77 191.157 175.406C191.27 176.024 191.157 176.643 190.818 177.19L192.213 177.049Z" fill="white"/>
<path d="M154.866 210.311H160.591V207.459H154.866V204.05H161.384L162.177 201.027H151.693V217H161.427L162.177 213.977H154.866V210.311ZM175.452 201.027C174.766 205.487 173.308 209.11 171.121 212.112L166.34 201.027H162.803L170.071 217.214C174.316 213.998 177.618 208.21 178.668 201.027H175.452ZM189.527 217.214C191.392 217.214 193.064 216.4 194.136 215.135L192.207 213.119C191.671 213.848 190.727 214.427 189.677 214.427C188.047 214.427 186.718 213.141 186.718 211.426C186.718 209.753 187.94 208.488 189.634 208.488C190.556 208.488 191.349 208.896 191.885 209.432L193.729 207.373C192.614 206.28 191.199 205.701 189.548 205.701C186.311 205.701 183.674 208.038 183.674 211.426C183.674 214.835 186.311 217.214 189.527 217.214ZM203.136 205.916V206.666C202.299 206.001 201.313 205.701 200.198 205.701C197.047 205.701 194.624 208.167 194.624 211.447C194.624 214.727 197.047 217.214 200.241 217.214C201.335 217.214 202.385 216.914 203.136 216.164V217H206.159V205.916H203.136ZM200.67 214.492C198.998 214.492 197.668 213.248 197.668 211.447C197.668 209.668 198.998 208.424 200.67 208.424C201.656 208.424 202.557 208.81 203.136 209.496V213.42C202.557 214.106 201.656 214.492 200.67 214.492ZM215.42 205.701C214.005 205.765 212.74 206.151 211.411 207.223V205.916H208.388V217H211.411V210.268C212.461 209.324 213.876 208.767 215.42 208.703V205.701ZM221.029 217.214C223.452 217.214 225.039 215.821 225.039 213.655C225.039 211.876 223.795 210.654 221.48 210.075C220.129 209.753 219.571 209.582 219.571 209.024C219.571 208.531 220.086 208.231 220.836 208.231C221.758 208.231 222.723 208.638 223.516 209.196L224.824 207.073C223.731 206.237 222.402 205.701 220.751 205.701C218.392 205.701 216.656 207.095 216.656 209.024C216.656 210.954 218.071 211.897 220.193 212.498C221.565 212.884 222.144 213.119 222.144 213.763C222.144 214.277 221.737 214.663 220.965 214.663C219.915 214.663 218.671 214.17 217.642 213.184L216.184 215.306C217.342 216.421 219.1 217.214 221.029 217.214Z" fill="#4099DA"/>
<path d="M115.908 246.08H111.78V258H115.908C119.316 258 121.94 255.536 121.94 252.032C121.94 248.528 119.316 246.08 115.908 246.08ZM115.908 256.72H113.124V247.36H115.908C118.516 247.36 120.564 249.248 120.564 252.032C120.564 254.816 118.516 256.72 115.908 256.72ZM124.479 248.144C124.991 248.144 125.407 247.744 125.407 247.232C125.407 246.752 124.991 246.336 124.479 246.336C123.999 246.336 123.567 246.752 123.567 247.232C123.567 247.744 123.999 248.144 124.479 248.144ZM123.823 258H125.119V249.728H123.823V258ZM131.691 249.568C130.715 249.584 129.579 249.952 128.603 250.752V249.728H127.307V258H128.603V252.112C129.371 251.392 130.491 250.88 131.691 250.864V249.568ZM136.414 258.16C137.902 258.16 139.054 257.536 139.806 256.688L138.99 255.856C138.398 256.528 137.582 256.992 136.414 256.992C134.814 256.992 133.598 255.84 133.438 254.272H140.142C140.158 254.128 140.174 253.92 140.174 253.696C140.174 251.376 138.542 249.568 136.27 249.568C133.902 249.568 132.142 251.376 132.142 253.84C132.142 256.304 133.982 258.16 136.414 258.16ZM133.454 253.248C133.646 251.76 134.75 250.656 136.254 250.656C137.678 250.656 138.766 251.76 138.878 253.248H133.454ZM145.742 258.16C147.07 258.16 148.302 257.568 149.086 256.656L148.238 255.776C147.726 256.464 146.766 256.96 145.774 256.96C144.078 256.96 142.798 255.616 142.798 253.856C142.798 252.096 144.046 250.768 145.758 250.768C146.558 250.768 147.39 251.12 147.934 251.632L148.718 250.688C147.934 249.968 146.942 249.568 145.742 249.568C143.342 249.568 141.47 251.376 141.47 253.856C141.47 256.336 143.342 258.16 145.742 258.16ZM155.42 256.64C155.1 256.832 154.748 256.976 154.332 256.976C153.516 256.976 152.764 256.384 152.764 255.152V250.928H154.892L155.26 249.728H152.764V247.088H151.484V249.728H149.916V250.928H151.484V255.28C151.484 257.104 152.62 258.16 154.22 258.16C154.78 258.16 155.244 258.016 155.82 257.712L155.42 256.64ZM165.226 258.16C166.714 258.16 167.866 257.536 168.618 256.688L167.802 255.856C167.21 256.528 166.394 256.992 165.226 256.992C163.626 256.992 162.41 255.84 162.25 254.272H168.954C168.97 254.128 168.986 253.92 168.986 253.696C168.986 251.376 167.354 249.568 165.082 249.568C162.714 249.568 160.954 251.376 160.954 253.84C160.954 256.304 162.794 258.16 165.226 258.16ZM162.266 253.248C162.458 251.76 163.562 250.656 165.066 250.656C166.49 250.656 167.578 251.76 167.69 253.248H162.266ZM173.131 258.16C173.467 258.16 173.867 258.112 174.203 257.968L173.995 256.848C173.755 256.912 173.515 256.96 173.291 256.96C172.363 256.96 171.867 256.368 171.867 255.264V246.08H170.587V255.376C170.587 257.2 171.547 258.16 173.131 258.16ZM178.851 258.16C180.339 258.16 181.491 257.536 182.243 256.688L181.427 255.856C180.835 256.528 180.019 256.992 178.851 256.992C177.251 256.992 176.035 255.84 175.875 254.272H182.579C182.595 254.128 182.611 253.92 182.611 253.696C182.611 251.376 180.979 249.568 178.707 249.568C176.339 249.568 174.579 251.376 174.579 253.84C174.579 256.304 176.419 258.16 178.851 258.16ZM175.891 253.248C176.083 251.76 177.187 250.656 178.691 250.656C180.115 250.656 181.203 251.76 181.315 253.248H175.891ZM188.18 258.16C189.508 258.16 190.74 257.568 191.524 256.656L190.676 255.776C190.164 256.464 189.204 256.96 188.212 256.96C186.516 256.96 185.236 255.616 185.236 253.856C185.236 252.096 186.484 250.768 188.196 250.768C188.996 250.768 189.828 251.12 190.372 251.632L191.156 250.688C190.372 249.968 189.38 249.568 188.18 249.568C185.78 249.568 183.908 251.376 183.908 253.856C183.908 256.336 185.78 258.16 188.18 258.16ZM197.858 256.64C197.538 256.832 197.186 256.976 196.77 256.976C195.954 256.976 195.202 256.384 195.202 255.152V250.928H197.33L197.698 249.728H195.202V247.088H193.922V249.728H192.354V250.928H193.922V255.28C193.922 257.104 195.058 258.16 196.658 258.16C197.218 258.16 197.682 258.016 198.258 257.712L197.858 256.64ZM204.269 249.568C203.293 249.584 202.157 249.952 201.181 250.752V249.728H199.885V258H201.181V252.112C201.949 251.392 203.069 250.88 204.269 250.864V249.568ZM206.369 248.144C206.881 248.144 207.297 247.744 207.297 247.232C207.297 246.752 206.881 246.336 206.369 246.336C205.889 246.336 205.457 246.752 205.457 247.232C205.457 247.744 205.889 248.144 206.369 248.144ZM205.713 258H207.009V249.728H205.713V258ZM211.342 248.736C211.342 247.68 211.758 247.104 212.638 247.104C212.926 247.104 213.214 247.168 213.47 247.232L213.79 246.16C213.438 246.016 212.958 245.92 212.51 245.92C211.054 245.92 210.046 246.848 210.046 248.688V249.728H208.478V250.928H210.046V258H211.342V250.928H213.118L213.502 249.728H211.342V248.736ZM215.666 248.144C216.178 248.144 216.594 247.744 216.594 247.232C216.594 246.752 216.178 246.336 215.666 246.336C215.186 246.336 214.754 246.752 214.754 247.232C214.754 247.744 215.186 248.144 215.666 248.144ZM215.01 258H216.306V249.728H215.01V258ZM222.383 258.16C223.711 258.16 224.943 257.568 225.727 256.656L224.879 255.776C224.367 256.464 223.407 256.96 222.415 256.96C220.719 256.96 219.439 255.616 219.439 253.856C219.439 252.096 220.687 250.768 222.399 250.768C223.199 250.768 224.031 251.12 224.575 251.632L225.359 250.688C224.575 249.968 223.583 249.568 222.383 249.568C219.983 249.568 218.111 251.376 218.111 253.856C218.111 256.336 219.983 258.16 222.383 258.16ZM233.349 249.728V250.512C232.645 249.904 231.701 249.568 230.661 249.568C228.293 249.568 226.501 251.408 226.501 253.856C226.501 256.304 228.293 258.16 230.677 258.16C231.701 258.16 232.661 257.808 233.349 257.152V258H234.645V249.728H233.349ZM230.773 256.96C229.093 256.96 227.829 255.648 227.829 253.856C227.829 252.08 229.093 250.768 230.773 250.768C231.813 250.768 232.821 251.216 233.349 251.936V255.792C232.821 256.512 231.813 256.96 230.773 256.96ZM241.67 256.64C241.35 256.832 240.998 256.976 240.582 256.976C239.766 256.976 239.014 256.384 239.014 255.152V250.928H241.142L241.51 249.728H239.014V247.088H237.734V249.728H236.166V250.928H237.734V255.28C237.734 257.104 238.87 258.16 240.47 258.16C241.03 258.16 241.494 258.016 242.07 257.712L241.67 256.64ZM244.354 248.144C244.866 248.144 245.282 247.744 245.282 247.232C245.282 246.752 244.866 246.336 244.354 246.336C243.874 246.336 243.442 246.752 243.442 247.232C243.442 247.744 243.874 248.144 244.354 248.144ZM243.698 258H244.994V249.728H243.698V258ZM251.118 258.16C253.566 258.16 255.422 256.32 255.422 253.856C255.422 251.408 253.566 249.568 251.118 249.568C248.654 249.568 246.798 251.408 246.798 253.856C246.798 256.32 248.654 258.16 251.118 258.16ZM251.118 256.96C249.406 256.96 248.126 255.632 248.126 253.856C248.126 252.096 249.406 250.768 251.118 250.768C252.814 250.768 254.11 252.096 254.11 253.856C254.11 255.632 252.814 256.96 251.118 256.96ZM261.212 249.568C260.188 249.568 259.292 249.92 258.556 250.592V249.728H257.276V258H258.556V251.92C259.148 251.28 259.948 250.768 260.972 250.768C262.3 250.768 263.148 251.744 263.148 253.2V258H264.428V253.184C264.428 251.008 263.132 249.568 261.212 249.568Z" fill="#3B4956"/>
<rect width="200" height="48" transform="translate(79.75 316)" fill="#4099DA"/>
<path d="M100.272 341.584C101.6 340.928 102.4 339.696 102.4 338.112C102.4 335.68 100.56 334.08 97.8083 334.08H93.2803V346H95.6483V342.112H97.8083H97.8883C98.7363 344.304 100.448 345.92 102.656 346.16L103.152 343.984C101.84 343.744 100.8 342.88 100.272 341.584ZM95.6483 336.336H97.6963C99.1683 336.336 99.9683 336.96 99.9683 338.112C99.9683 339.264 99.1683 339.856 97.6963 339.856H95.6483V336.336ZM108.094 346.16C109.566 346.16 110.782 345.568 111.566 344.672L110.174 343.296C109.758 343.808 109.022 344.192 108.078 344.192C106.942 344.192 106.11 343.472 105.934 342.496H111.918C111.95 342.336 111.982 342.08 111.982 341.776C111.982 339.392 110.366 337.568 107.966 337.568C105.518 337.568 103.678 339.312 103.678 341.856C103.678 344.32 105.566 346.16 108.094 346.16ZM105.934 340.992C106.11 340.048 106.83 339.36 107.886 339.36C108.894 339.36 109.662 340.048 109.758 340.992H105.934ZM117.887 337.568C116.943 337.568 116.191 337.84 115.471 338.416V337.728H113.215V346H115.471V340.496C115.967 340.016 116.607 339.648 117.359 339.648C118.399 339.648 118.975 340.336 118.975 341.52V346H121.231V341.296C121.231 339.056 119.871 337.568 117.887 337.568ZM126.953 346.16C128.425 346.16 129.641 345.568 130.425 344.672L129.033 343.296C128.617 343.808 127.881 344.192 126.937 344.192C125.801 344.192 124.969 343.472 124.793 342.496H130.777C130.809 342.336 130.841 342.08 130.841 341.776C130.841 339.392 129.225 337.568 126.825 337.568C124.377 337.568 122.537 339.312 122.537 341.856C122.537 344.32 124.425 346.16 126.953 346.16ZM124.793 340.992C124.969 340.048 125.689 339.36 126.745 339.36C127.753 339.36 128.521 340.048 128.617 340.992H124.793ZM142.427 337.728C142.219 339.712 141.595 341.408 140.363 342.88L138.315 337.728H135.899L137.019 340.272C136.635 341.248 136.107 342.144 135.339 343.024L133.115 337.728H130.699L134.571 346.16C135.947 345.392 137.179 344.128 138.059 342.608L139.643 346.16C142.507 344.656 144.395 341.344 144.763 337.728H142.427ZM151.592 337.728V338.288C150.968 337.792 150.232 337.568 149.4 337.568C147.048 337.568 145.24 339.408 145.24 341.856C145.24 344.304 147.048 346.16 149.432 346.16C150.248 346.16 151.032 345.936 151.592 345.376V346H153.848V337.728H151.592ZM149.752 344.128C148.504 344.128 147.512 343.2 147.512 341.856C147.512 340.528 148.504 339.6 149.752 339.6C150.488 339.6 151.16 339.888 151.592 340.4V343.328C151.16 343.84 150.488 344.128 149.752 344.128ZM159.928 346.16C162.312 346.16 164.136 344.304 164.136 341.856C164.136 339.408 162.312 337.568 159.96 337.568C159.128 337.568 158.408 337.792 157.768 338.288V334.08H155.512V346H157.768V345.376C158.344 345.936 159.112 346.16 159.928 346.16ZM159.624 344.128C158.888 344.128 158.2 343.84 157.768 343.328V340.4C158.2 339.888 158.888 339.6 159.624 339.6C160.856 339.6 161.848 340.528 161.848 341.856C161.848 343.2 160.856 344.128 159.624 344.128ZM168.391 346.16C168.823 346.16 169.319 346.096 169.767 345.936L169.495 343.968C169.271 344.016 169.063 344.08 168.839 344.08C168.039 344.08 167.671 343.616 167.671 342.784V334.08H165.415V343.056C165.415 344.992 166.583 346.16 168.391 346.16ZM174.406 346.16C175.878 346.16 177.094 345.568 177.878 344.672L176.486 343.296C176.07 343.808 175.334 344.192 174.39 344.192C173.254 344.192 172.422 343.472 172.246 342.496H178.23C178.262 342.336 178.294 342.08 178.294 341.776C178.294 339.392 176.678 337.568 174.278 337.568C171.83 337.568 169.99 339.312 169.99 341.856C169.99 344.32 171.878 346.16 174.406 346.16ZM172.246 340.992C172.422 340.048 173.142 339.36 174.198 339.36C175.206 339.36 175.974 340.048 176.07 340.992H172.246ZM185.984 349.36C189.44 349.312 191.584 347.536 191.584 343.92V337.728H189.328V338.32C188.736 337.824 188.016 337.568 187.136 337.568C184.736 337.568 182.928 339.424 182.928 341.792C182.928 344.128 184.672 345.856 187.088 345.856C187.968 345.856 188.704 345.6 189.296 345.072C189.072 346.672 187.856 347.344 185.984 347.424V349.36ZM187.44 344.016C186.192 344.016 185.2 343.088 185.2 341.76C185.2 340.496 186.192 339.552 187.44 339.552C188.304 339.552 188.992 339.952 189.328 340.448V343.12C188.992 343.632 188.304 344.016 187.44 344.016ZM197.406 346.16C198.878 346.16 200.094 345.568 200.878 344.672L199.486 343.296C199.07 343.808 198.334 344.192 197.39 344.192C196.254 344.192 195.422 343.472 195.246 342.496H201.23C201.262 342.336 201.294 342.08 201.294 341.776C201.294 339.392 199.678 337.568 197.278 337.568C194.83 337.568 192.99 339.312 192.99 341.856C192.99 344.32 194.878 346.16 197.406 346.16ZM195.246 340.992C195.422 340.048 196.142 339.36 197.198 339.36C198.206 339.36 198.974 340.048 199.07 340.992H195.246ZM207.199 337.568C206.255 337.568 205.503 337.84 204.783 338.416V337.728H202.527V346H204.783V340.496C205.279 340.016 205.919 339.648 206.671 339.648C207.711 339.648 208.287 340.336 208.287 341.52V346H210.543V341.296C210.543 339.056 209.183 337.568 207.199 337.568ZM216.265 346.16C217.737 346.16 218.953 345.568 219.737 344.672L218.345 343.296C217.929 343.808 217.193 344.192 216.249 344.192C215.113 344.192 214.281 343.472 214.105 342.496H220.089C220.121 342.336 220.153 342.08 220.153 341.776C220.153 339.392 218.537 337.568 216.137 337.568C213.689 337.568 211.849 339.312 211.849 341.856C211.849 344.32 213.737 346.16 216.265 346.16ZM214.105 340.992C214.281 340.048 215.001 339.36 216.057 339.36C217.065 339.36 217.833 340.048 217.929 340.992H214.105ZM226.635 337.568C225.579 337.616 224.635 337.904 223.643 338.704V337.728H221.387V346H223.643V340.976C224.427 340.272 225.483 339.856 226.635 339.808V337.568ZM233.451 337.728V338.288C232.827 337.792 232.091 337.568 231.259 337.568C228.907 337.568 227.099 339.408 227.099 341.856C227.099 344.304 228.907 346.16 231.291 346.16C232.107 346.16 232.891 345.936 233.451 345.376V346H235.707V337.728H233.451ZM231.611 344.128C230.363 344.128 229.371 343.2 229.371 341.856C229.371 340.528 230.363 339.6 231.611 339.6C232.347 339.6 233.019 339.888 233.451 340.4V343.328C233.019 343.84 232.347 344.128 231.611 344.128ZM242.827 343.76C242.491 343.968 242.139 344.16 241.691 344.16C241.051 344.16 240.459 343.712 240.459 342.656V339.792H242.251L242.795 337.728H240.459V335.088H238.203V337.728H236.795V339.792H238.203V342.976C238.203 345.088 239.515 346.16 241.339 346.16C242.043 346.16 242.667 346 243.483 345.568L242.827 343.76ZM245.726 336.464C246.462 336.464 247.07 335.856 247.07 335.168C247.07 334.496 246.462 333.872 245.726 333.872C244.99 333.872 244.382 334.496 244.382 335.168C244.382 335.856 244.99 336.464 245.726 336.464ZM244.59 346H246.846V337.728H244.59V346ZM252.656 346.16C255.152 346.16 257.04 344.304 257.04 341.856C257.04 339.408 255.152 337.568 252.656 337.568C250.144 337.568 248.256 339.408 248.256 341.856C248.256 344.304 250.144 346.16 252.656 346.16ZM252.656 344.08C251.44 344.08 250.528 343.152 250.528 341.856C250.528 340.576 251.44 339.648 252.656 339.648C253.856 339.648 254.752 340.576 254.752 341.856C254.752 343.152 253.856 344.08 252.656 344.08ZM263.106 337.568C262.162 337.568 261.41 337.84 260.69 338.416V337.728H258.434V346H260.69V340.496C261.186 340.016 261.826 339.648 262.578 339.648C263.618 339.648 264.194 340.336 264.194 341.52V346H266.45V341.296C266.45 339.056 265.09 337.568 263.106 337.568Z" fill="white"/>
<rect width="100" height="64" transform="translate(132 364)" fill="#EBEDEE"/>
<path d="M151.171 398.632H154.909V396.77H151.171V394.544H155.427L155.945 392.57H149.099V403H155.455L155.945 401.026H151.171V398.632ZM159.559 403.14C159.937 403.14 160.371 403.084 160.763 402.944L160.525 401.222C160.329 401.264 160.147 401.32 159.951 401.32C159.251 401.32 158.929 400.914 158.929 400.186V392.57H156.955V400.424C156.955 402.118 157.977 403.14 159.559 403.14ZM164.822 403.14C166.11 403.14 167.174 402.622 167.86 401.838L166.642 400.634C166.278 401.082 165.634 401.418 164.808 401.418C163.814 401.418 163.086 400.788 162.932 399.934H168.168C168.196 399.794 168.224 399.57 168.224 399.304C168.224 397.218 166.81 395.622 164.71 395.622C162.568 395.622 160.958 397.148 160.958 399.374C160.958 401.53 162.61 403.14 164.822 403.14ZM162.932 398.618C163.086 397.792 163.716 397.19 164.64 397.19C165.522 397.19 166.194 397.792 166.278 398.618H162.932ZM172.901 403.14C174.119 403.14 175.211 402.608 175.911 401.782L174.651 400.466C174.301 400.942 173.685 401.32 172.999 401.32C171.935 401.32 171.067 400.48 171.067 399.36C171.067 398.268 171.865 397.442 172.971 397.442C173.573 397.442 174.091 397.708 174.441 398.058L175.645 396.714C174.917 396 173.993 395.622 172.915 395.622C170.801 395.622 169.079 397.148 169.079 399.36C169.079 401.586 170.801 403.14 172.901 403.14ZM181.61 401.04C181.316 401.222 181.008 401.39 180.616 401.39C180.056 401.39 179.538 400.998 179.538 400.074V397.568H181.106L181.582 395.762H179.538V393.452H177.564V395.762H176.332V397.568H177.564V400.354C177.564 402.202 178.712 403.14 180.308 403.14C180.924 403.14 181.47 403 182.184 402.622L181.61 401.04ZM187.745 395.622C186.821 395.664 185.995 395.916 185.127 396.616V395.762H183.153V403H185.127V398.604C185.813 397.988 186.737 397.624 187.745 397.582V395.622ZM189.752 394.656C190.396 394.656 190.928 394.124 190.928 393.522C190.928 392.934 190.396 392.388 189.752 392.388C189.108 392.388 188.576 392.934 188.576 393.522C188.576 394.124 189.108 394.656 189.752 394.656ZM188.758 403H190.732V395.762H188.758V403ZM195.788 403.14C197.006 403.14 198.098 402.608 198.798 401.782L197.538 400.466C197.188 400.942 196.572 401.32 195.886 401.32C194.822 401.32 193.954 400.48 193.954 399.36C193.954 398.268 194.752 397.442 195.858 397.442C196.46 397.442 196.978 397.708 197.328 398.058L198.532 396.714C197.804 396 196.88 395.622 195.802 395.622C193.688 395.622 191.966 397.148 191.966 399.36C191.966 401.586 193.688 403.14 195.788 403.14ZM200.717 394.656C201.361 394.656 201.893 394.124 201.893 393.522C201.893 392.934 201.361 392.388 200.717 392.388C200.073 392.388 199.541 392.934 199.541 393.522C199.541 394.124 200.073 394.656 200.717 394.656ZM199.723 403H201.697V395.762H199.723V403ZM207.929 401.04C207.635 401.222 207.327 401.39 206.935 401.39C206.375 401.39 205.857 400.998 205.857 400.074V397.568H207.425L207.901 395.762H205.857V393.452H203.883V395.762H202.651V397.568H203.883V400.354C203.883 402.202 205.031 403.14 206.627 403.14C207.243 403.14 207.789 403 208.503 402.622L207.929 401.04ZM214.482 395.762C214.216 397.708 213.614 399.444 212.774 400.788L210.73 395.762H208.602L211.43 402.482C210.576 403.266 209.526 403.84 208.182 404.19L208.602 405.94C210.576 405.45 212.158 404.414 213.446 403C215.084 401.166 216.148 398.632 216.526 395.762H214.482Z" fill="#3B4956"/>
<path d="M231.5 428L180.293 448L132.5 428L231.5 428Z" fill="#EBEDEE"/>
<path d="M232 394.5H250.069L253.5 398.5L250.069 402.5H232V394.5Z" fill="#EBEDEE"/>
<path d="M273.07 397.55C273.56 397.046 273.784 396.458 273.784 395.842C273.784 394.204 272.482 393.07 270.396 393.07H266.462V403.5H271.166C273.308 403.5 274.834 402.212 274.834 400.28C274.834 399.034 274.176 398.054 273.07 397.55ZM270.298 394.904C271.278 394.904 271.768 395.338 271.768 396.136C271.768 396.528 271.572 396.892 271.222 397.158H271.11H268.534V394.904H270.298ZM270.914 401.666H268.534V398.936H270.97C272.076 398.936 272.748 399.398 272.748 400.308C272.748 401.204 272.006 401.666 270.914 401.666ZM281.295 396.262V396.752C280.749 396.318 280.105 396.122 279.377 396.122C277.319 396.122 275.737 397.732 275.737 399.874C275.737 402.016 277.319 403.64 279.405 403.64C280.119 403.64 280.805 403.444 281.295 402.954V403.5H283.269V396.262H281.295ZM279.685 401.862C278.593 401.862 277.725 401.05 277.725 399.874C277.725 398.712 278.593 397.9 279.685 397.9C280.329 397.9 280.917 398.152 281.295 398.6V401.162C280.917 401.61 280.329 401.862 279.685 401.862ZM289.499 401.54C289.205 401.722 288.897 401.89 288.505 401.89C287.945 401.89 287.427 401.498 287.427 400.574V398.068H288.995L289.471 396.262H287.427V393.952H285.453V396.262H284.221V398.068H285.453V400.854C285.453 402.702 286.601 403.64 288.197 403.64C288.813 403.64 289.359 403.5 290.073 403.122L289.499 401.54ZM295.446 401.54C295.152 401.722 294.844 401.89 294.452 401.89C293.892 401.89 293.374 401.498 293.374 400.574V398.068H294.942L295.418 396.262H293.374V393.952H291.4V396.262H290.168V398.068H291.4V400.854C291.4 402.702 292.548 403.64 294.144 403.64C294.76 403.64 295.306 403.5 296.02 403.122L295.446 401.54ZM300.137 403.64C301.425 403.64 302.489 403.122 303.175 402.338L301.957 401.134C301.593 401.582 300.949 401.918 300.123 401.918C299.129 401.918 298.401 401.288 298.247 400.434H303.483C303.511 400.294 303.539 400.07 303.539 399.804C303.539 397.718 302.125 396.122 300.025 396.122C297.883 396.122 296.273 397.648 296.273 399.874C296.273 402.03 297.925 403.64 300.137 403.64ZM298.247 399.118C298.401 398.292 299.031 397.69 299.955 397.69C300.837 397.69 301.509 398.292 301.593 399.118H298.247ZM309.21 396.122C308.286 396.164 307.46 396.416 306.592 397.116V396.262H304.618V403.5H306.592V399.104C307.278 398.488 308.202 398.124 309.21 398.082V396.122ZM311.217 395.156C311.861 395.156 312.393 394.624 312.393 394.022C312.393 393.434 311.861 392.888 311.217 392.888C310.573 392.888 310.041 393.434 310.041 394.022C310.041 394.624 310.573 395.156 311.217 395.156ZM310.223 403.5H312.197V396.262H310.223V403.5ZM317.295 403.64C318.583 403.64 319.647 403.122 320.333 402.338L319.115 401.134C318.751 401.582 318.107 401.918 317.281 401.918C316.287 401.918 315.559 401.288 315.405 400.434H320.641C320.669 400.294 320.697 400.07 320.697 399.804C320.697 397.718 319.283 396.122 317.183 396.122C315.041 396.122 313.431 397.648 313.431 399.874C313.431 402.03 315.083 403.64 317.295 403.64ZM315.405 399.118C315.559 398.292 316.189 397.69 317.113 397.69C317.995 397.69 318.667 398.292 318.751 399.118H315.405ZM324.398 403.64C325.98 403.64 327.016 402.73 327.016 401.316C327.016 400.154 326.204 399.356 324.692 398.978C323.81 398.768 323.446 398.656 323.446 398.292C323.446 397.97 323.782 397.774 324.272 397.774C324.874 397.774 325.504 398.04 326.022 398.404L326.876 397.018C326.162 396.472 325.294 396.122 324.216 396.122C322.676 396.122 321.542 397.032 321.542 398.292C321.542 399.552 322.466 400.168 323.852 400.56C324.748 400.812 325.126 400.966 325.126 401.386C325.126 401.722 324.86 401.974 324.356 401.974C323.67 401.974 322.858 401.652 322.186 401.008L321.234 402.394C321.99 403.122 323.138 403.64 324.398 403.64Z" fill="#3B4956"/>
</g>
<defs>
<clipPath id="clip0">
<rect width="375" height="667" rx="3" fill="white"/>
</clipPath>
</defs>
</svg>
