<svg width="1004" height="380" viewBox="0 0 1004 380" fill="none" xmlns="http://www.w3.org/2000/svg">
<path d="M463.247 92.8843C460.687 92.8843 458.605 95.0301 458.605 97.6627C458.605 100.295 460.687 102.441 463.247 102.441C465.808 102.441 467.89 100.295 467.89 97.6627C467.89 95.0301 465.808 92.8843 463.247 92.8843Z" fill="#4099DA"/>
<path d="M463.247 92.8843C460.687 92.8843 458.605 95.0301 458.605 97.6627C458.605 100.295 460.687 102.441 463.247 102.441C465.808 102.441 467.89 100.295 467.89 97.6627C467.89 95.0301 465.808 92.8843 463.247 92.8843Z" stroke="#4099DA" stroke-width="0.603" stroke-miterlimit="10"/>
<path d="M423.697 92.8843C421.137 92.8843 419.055 95.0301 419.055 97.6627C419.055 100.295 421.137 102.441 423.697 102.441C426.258 102.441 428.339 100.295 428.339 97.6627C428.339 95.0301 426.258 92.8843 423.697 92.8843Z" fill="#4099DA"/>
<path d="M423.697 92.8843C421.137 92.8843 419.055 95.0301 419.055 97.6627C419.055 100.295 421.137 102.441 423.697 102.441C426.258 102.441 428.339 100.295 428.339 97.6627C428.339 95.0301 426.258 92.8843 423.697 92.8843Z" stroke="#4099DA" stroke-width="0.603" stroke-miterlimit="10"/>
<path d="M450.537 68H412V82.5157H450.537V68Z" fill="#4099DA"/>
<path d="M457.776 82.137V72.49H462.584C463.321 72.49 464.003 72.8867 464.408 73.5178L469.658 82.137H457.776ZM468.424 71.4802C467.024 69.2983 464.666 68 462.142 68H453.539V82.5157V84.9681H412V95.5889H416.605C417.489 92.3972 420.326 90.0531 423.697 90.0531C427.068 90.0531 429.905 92.3972 430.789 95.5889H456.155C457.039 92.3972 459.876 90.0531 463.247 90.0531C466.618 90.0531 469.455 92.3972 470.339 95.5889H475V89.2777V86.3565V81.6141L468.424 71.4802Z" fill="#4099DA"/>
<path d="M512.165 73.16H491.621V77.672H499.109V97H503.845V77.672H510.949L512.165 73.16ZM521.707 80.136C519.595 80.232 517.707 80.808 515.723 82.408V80.456H511.211V97H515.723V86.952C517.291 85.544 519.403 84.712 521.707 84.616V80.136ZM530.519 97.32C532.407 97.32 533.911 96.776 535.351 95.624V97H539.863V80.456H535.351V91.464C534.359 92.424 533.079 93.16 531.575 93.16C529.495 93.16 528.343 91.784 528.343 89.416V80.456H523.831V89.864C523.831 94.344 526.551 97.32 530.519 97.32ZM551.404 97.32C554.188 97.32 556.684 96.104 558.284 94.216L555.404 91.208C554.604 92.296 553.196 93.16 551.628 93.16C549.196 93.16 547.212 91.24 547.212 88.68C547.212 86.184 549.036 84.296 551.564 84.296C552.94 84.296 554.124 84.904 554.924 85.704L557.676 82.632C556.012 81 553.9 80.136 551.436 80.136C546.604 80.136 542.668 83.624 542.668 88.68C542.668 93.768 546.604 97.32 551.404 97.32ZM571.374 87.912C573.198 86.248 575.054 83.4 576.11 80.456H571.374C570.638 82.408 569.486 84.168 567.95 85.448C567.054 86.184 566.03 86.824 564.91 87.304V73.16H560.43V97H564.91V91.72C565.966 91.368 566.862 90.984 567.886 90.408L571.95 97H577.198L571.374 87.912ZM585.048 97.32C588.664 97.32 591.032 95.24 591.032 92.008C591.032 89.352 589.176 87.528 585.72 86.664C583.704 86.184 582.872 85.928 582.872 85.096C582.872 84.36 583.64 83.912 584.76 83.912C586.136 83.912 587.576 84.52 588.76 85.352L590.712 82.184C589.08 80.936 587.096 80.136 584.632 80.136C581.112 80.136 578.52 82.216 578.52 85.096C578.52 87.976 580.632 89.384 583.8 90.28C585.848 90.856 586.712 91.208 586.712 92.168C586.712 92.936 586.104 93.512 584.952 93.512C583.384 93.512 581.528 92.776 579.992 91.304L577.816 94.472C579.544 96.136 582.168 97.32 585.048 97.32Z" fill="#4099DA"/>
<path d="M285.616 141H286.96V129.08H285.616V141ZM293.283 132.568C292.259 132.568 291.363 132.92 290.627 133.592V132.728H289.347V141H290.627V134.92C291.219 134.28 292.019 133.768 293.043 133.768C294.371 133.768 295.219 134.744 295.219 136.2V141H296.499V136.184C296.499 134.008 295.203 132.568 293.283 132.568ZM302.451 141.16C303.475 141.16 304.435 140.808 305.123 140.152V141H306.419V129.08H305.123V133.512C304.419 132.904 303.475 132.568 302.435 132.568C300.067 132.568 298.275 134.408 298.275 136.856C298.275 139.304 300.067 141.16 302.451 141.16ZM302.547 139.96C300.867 139.96 299.603 138.648 299.603 136.856C299.603 135.08 300.867 133.768 302.547 133.768C303.587 133.768 304.595 134.216 305.123 134.936V138.792C304.595 139.512 303.587 139.96 302.547 139.96ZM309.283 131.144C309.795 131.144 310.211 130.744 310.211 130.232C310.211 129.752 309.795 129.336 309.283 129.336C308.803 129.336 308.371 129.752 308.371 130.232C308.371 130.744 308.803 131.144 309.283 131.144ZM308.627 141H309.923V132.728H308.627V141ZM316.496 132.568C315.52 132.584 314.384 132.952 313.408 133.752V132.728H312.112V141H313.408V135.112C314.176 134.392 315.296 133.88 316.496 133.864V132.568ZM321.219 141.16C322.707 141.16 323.859 140.536 324.611 139.688L323.795 138.856C323.203 139.528 322.387 139.992 321.219 139.992C319.619 139.992 318.403 138.84 318.243 137.272H324.947C324.963 137.128 324.979 136.92 324.979 136.696C324.979 134.376 323.347 132.568 321.075 132.568C318.707 132.568 316.947 134.376 316.947 136.84C316.947 139.304 318.787 141.16 321.219 141.16ZM318.259 136.248C318.451 134.76 319.555 133.656 321.059 133.656C322.483 133.656 323.571 134.76 323.683 136.248H318.259ZM330.547 141.16C331.875 141.16 333.107 140.568 333.891 139.656L333.043 138.776C332.531 139.464 331.571 139.96 330.579 139.96C328.883 139.96 327.603 138.616 327.603 136.856C327.603 135.096 328.851 133.768 330.563 133.768C331.363 133.768 332.195 134.12 332.739 134.632L333.523 133.688C332.739 132.968 331.747 132.568 330.547 132.568C328.147 132.568 326.275 134.376 326.275 136.856C326.275 139.336 328.147 141.16 330.547 141.16ZM340.225 139.64C339.905 139.832 339.553 139.976 339.137 139.976C338.321 139.976 337.569 139.384 337.569 138.152V133.928H339.697L340.065 132.728H337.569V130.088H336.289V132.728H334.721V133.928H336.289V138.28C336.289 140.104 337.425 141.16 339.025 141.16C339.585 141.16 340.049 141.016 340.625 140.712L340.225 139.64ZM350.031 141.16C351.519 141.16 352.671 140.536 353.423 139.688L352.607 138.856C352.015 139.528 351.199 139.992 350.031 139.992C348.431 139.992 347.215 138.84 347.055 137.272H353.759C353.775 137.128 353.791 136.92 353.791 136.696C353.791 134.376 352.159 132.568 349.887 132.568C347.519 132.568 345.759 134.376 345.759 136.84C345.759 139.304 347.599 141.16 350.031 141.16ZM347.071 136.248C347.263 134.76 348.367 133.656 349.871 133.656C351.295 133.656 352.383 134.76 352.495 136.248H347.071ZM357.935 141.16C358.271 141.16 358.671 141.112 359.007 140.968L358.799 139.848C358.559 139.912 358.319 139.96 358.095 139.96C357.167 139.96 356.671 139.368 356.671 138.264V129.08H355.391V138.376C355.391 140.2 356.351 141.16 357.935 141.16ZM363.656 141.16C365.144 141.16 366.296 140.536 367.048 139.688L366.232 138.856C365.64 139.528 364.824 139.992 363.656 139.992C362.056 139.992 360.84 138.84 360.68 137.272H367.384C367.4 137.128 367.416 136.92 367.416 136.696C367.416 134.376 365.784 132.568 363.512 132.568C361.144 132.568 359.384 134.376 359.384 136.84C359.384 139.304 361.224 141.16 363.656 141.16ZM360.696 136.248C360.888 134.76 361.992 133.656 363.496 133.656C364.92 133.656 366.008 134.76 366.12 136.248H360.696ZM372.984 141.16C374.312 141.16 375.544 140.568 376.328 139.656L375.48 138.776C374.968 139.464 374.008 139.96 373.016 139.96C371.32 139.96 370.04 138.616 370.04 136.856C370.04 135.096 371.288 133.768 373 133.768C373.8 133.768 374.632 134.12 375.176 134.632L375.96 133.688C375.176 132.968 374.184 132.568 372.984 132.568C370.584 132.568 368.712 134.376 368.712 136.856C368.712 139.336 370.584 141.16 372.984 141.16ZM382.662 139.64C382.342 139.832 381.99 139.976 381.574 139.976C380.758 139.976 380.006 139.384 380.006 138.152V133.928H382.134L382.502 132.728H380.006V130.088H378.726V132.728H377.158V133.928H378.726V138.28C378.726 140.104 379.862 141.16 381.462 141.16C382.022 141.16 382.486 141.016 383.062 140.712L382.662 139.64ZM389.074 132.568C388.098 132.584 386.962 132.952 385.986 133.752V132.728H384.69V141H385.986V135.112C386.754 134.392 387.874 133.88 389.074 133.864V132.568ZM391.174 131.144C391.686 131.144 392.102 130.744 392.102 130.232C392.102 129.752 391.686 129.336 391.174 129.336C390.694 129.336 390.262 129.752 390.262 130.232C390.262 130.744 390.694 131.144 391.174 131.144ZM390.518 141H391.814V132.728H390.518V141ZM396.146 131.736C396.146 130.68 396.562 130.104 397.442 130.104C397.73 130.104 398.018 130.168 398.274 130.232L398.594 129.16C398.242 129.016 397.762 128.92 397.314 128.92C395.858 128.92 394.85 129.848 394.85 131.688V132.728H393.282V133.928H394.85V141H396.146V133.928H397.922L398.306 132.728H396.146V131.736ZM400.471 131.144C400.983 131.144 401.399 130.744 401.399 130.232C401.399 129.752 400.983 129.336 400.471 129.336C399.991 129.336 399.559 129.752 399.559 130.232C399.559 130.744 399.991 131.144 400.471 131.144ZM399.815 141H401.111V132.728H399.815V141ZM407.187 141.16C408.515 141.16 409.747 140.568 410.531 139.656L409.683 138.776C409.171 139.464 408.211 139.96 407.219 139.96C405.523 139.96 404.243 138.616 404.243 136.856C404.243 135.096 405.491 133.768 407.203 133.768C408.003 133.768 408.835 134.12 409.379 134.632L410.163 133.688C409.379 132.968 408.387 132.568 407.187 132.568C404.787 132.568 402.915 134.376 402.915 136.856C402.915 139.336 404.787 141.16 407.187 141.16ZM418.154 132.728V133.512C417.45 132.904 416.506 132.568 415.466 132.568C413.098 132.568 411.306 134.408 411.306 136.856C411.306 139.304 413.098 141.16 415.482 141.16C416.506 141.16 417.466 140.808 418.154 140.152V141H419.45V132.728H418.154ZM415.578 139.96C413.898 139.96 412.634 138.648 412.634 136.856C412.634 135.08 413.898 133.768 415.578 133.768C416.618 133.768 417.626 134.216 418.154 134.936V138.792C417.626 139.512 416.618 139.96 415.578 139.96ZM426.475 139.64C426.155 139.832 425.803 139.976 425.387 139.976C424.571 139.976 423.819 139.384 423.819 138.152V133.928H425.947L426.315 132.728H423.819V130.088H422.539V132.728H420.971V133.928H422.539V138.28C422.539 140.104 423.675 141.16 425.275 141.16C425.835 141.16 426.299 141.016 426.875 140.712L426.475 139.64ZM429.158 131.144C429.67 131.144 430.086 130.744 430.086 130.232C430.086 129.752 429.67 129.336 429.158 129.336C428.678 129.336 428.246 129.752 428.246 130.232C428.246 130.744 428.678 131.144 429.158 131.144ZM428.502 141H429.798V132.728H428.502V141ZM435.923 141.16C438.371 141.16 440.227 139.32 440.227 136.856C440.227 134.408 438.371 132.568 435.923 132.568C433.459 132.568 431.603 134.408 431.603 136.856C431.603 139.32 433.459 141.16 435.923 141.16ZM435.923 139.96C434.211 139.96 432.931 138.632 432.931 136.856C432.931 135.096 434.211 133.768 435.923 133.768C437.619 133.768 438.915 135.096 438.915 136.856C438.915 138.632 437.619 139.96 435.923 139.96ZM446.017 132.568C444.993 132.568 444.097 132.92 443.361 133.592V132.728H442.081V141H443.361V134.92C443.953 134.28 444.753 133.768 445.777 133.768C447.105 133.768 447.953 134.744 447.953 136.2V141H449.233V136.184C449.233 134.008 447.937 132.568 446.017 132.568ZM466.276 132.728C465.94 135.4 464.852 137.608 463.444 139.208L460.9 132.728H459.476L460.708 135.656C460.164 137.064 459.412 138.264 458.5 139.272L455.812 132.728H454.404L458.052 141.16C459.284 140.312 460.452 138.888 461.316 137.128L463.012 141.16C465.236 139.656 467.188 136.408 467.62 132.728H466.276ZM469.877 131.144C470.389 131.144 470.805 130.744 470.805 130.232C470.805 129.752 470.389 129.336 469.877 129.336C469.397 129.336 468.965 129.752 468.965 130.232C468.965 130.744 469.397 131.144 469.877 131.144ZM469.221 141H470.517V132.728H469.221V141ZM477.522 139.64C477.202 139.832 476.85 139.976 476.434 139.976C475.618 139.976 474.866 139.384 474.866 138.152V133.928H476.994L477.362 132.728H474.866V130.088H473.586V132.728H472.018V133.928H473.586V138.28C473.586 140.104 474.722 141.16 476.322 141.16C476.882 141.16 477.346 141.016 477.922 140.712L477.522 139.64ZM483.501 132.568C482.477 132.568 481.581 132.92 480.845 133.592V129.08H479.565V141H480.845V134.92C481.437 134.28 482.237 133.768 483.261 133.768C484.589 133.768 485.437 134.744 485.437 136.2V141H486.717V136.184C486.717 134.008 485.421 132.568 483.501 132.568ZM497.152 132.568C496.176 132.584 495.04 132.952 494.064 133.752V132.728H492.768V141H494.064V135.112C494.832 134.392 495.952 133.88 497.152 133.864V132.568ZM501.875 141.16C503.363 141.16 504.515 140.536 505.267 139.688L504.451 138.856C503.859 139.528 503.043 139.992 501.875 139.992C500.275 139.992 499.059 138.84 498.899 137.272H505.603C505.619 137.128 505.635 136.92 505.635 136.696C505.635 134.376 504.003 132.568 501.731 132.568C499.363 132.568 497.603 134.376 497.603 136.84C497.603 139.304 499.443 141.16 501.875 141.16ZM498.915 136.248C499.107 134.76 500.211 133.656 501.715 133.656C503.139 133.656 504.227 134.76 504.339 136.248H498.915ZM511.267 132.568C510.243 132.568 509.347 132.92 508.611 133.592V132.728H507.331V141H508.611V134.92C509.203 134.28 510.003 133.768 511.027 133.768C512.355 133.768 513.203 134.744 513.203 136.2V141H514.483V136.184C514.483 134.008 513.187 132.568 511.267 132.568ZM520.531 141.16C522.019 141.16 523.171 140.536 523.923 139.688L523.107 138.856C522.515 139.528 521.699 139.992 520.531 139.992C518.931 139.992 517.715 138.84 517.555 137.272H524.259C524.275 137.128 524.291 136.92 524.291 136.696C524.291 134.376 522.659 132.568 520.387 132.568C518.019 132.568 516.259 134.376 516.259 136.84C516.259 139.304 518.099 141.16 520.531 141.16ZM517.571 136.248C517.763 134.76 518.867 133.656 520.371 133.656C521.795 133.656 522.883 134.76 522.995 136.248H517.571ZM536.416 132.728C536.08 135.4 534.992 137.608 533.584 139.208L531.04 132.728H529.616L530.848 135.656C530.304 137.064 529.552 138.264 528.64 139.272L525.952 132.728H524.544L528.192 141.16C529.424 140.312 530.592 138.888 531.456 137.128L533.152 141.16C535.376 139.656 537.328 136.408 537.76 132.728H536.416ZM545.435 132.728V133.512C544.731 132.904 543.787 132.568 542.747 132.568C540.379 132.568 538.587 134.408 538.587 136.856C538.587 139.304 540.379 141.16 542.763 141.16C543.787 141.16 544.747 140.808 545.435 140.152V141H546.731V132.728H545.435ZM542.859 139.96C541.179 139.96 539.915 138.648 539.915 136.856C539.915 135.08 541.179 133.768 542.859 133.768C543.899 133.768 544.907 134.216 545.435 134.936V138.792C544.907 139.512 543.899 139.96 542.859 139.96ZM552.924 141.16C555.292 141.16 557.084 139.304 557.084 136.856C557.084 134.408 555.292 132.568 552.924 132.568C551.9 132.568 550.94 132.904 550.236 133.512V129.08H548.956V141H550.236V140.152C550.924 140.808 551.884 141.16 552.924 141.16ZM552.828 139.96C551.788 139.96 550.78 139.512 550.236 138.792V134.936C550.78 134.216 551.788 133.768 552.828 133.768C554.492 133.768 555.772 135.08 555.772 136.856C555.772 138.648 554.492 139.96 552.828 139.96ZM561.373 141.16C561.709 141.16 562.109 141.112 562.445 140.968L562.237 139.848C561.997 139.912 561.757 139.96 561.533 139.96C560.605 139.96 560.109 139.368 560.109 138.264V129.08H558.829V138.376C558.829 140.2 559.789 141.16 561.373 141.16ZM567.094 141.16C568.582 141.16 569.734 140.536 570.486 139.688L569.67 138.856C569.078 139.528 568.262 139.992 567.094 139.992C565.494 139.992 564.278 138.84 564.118 137.272H570.822C570.838 137.128 570.854 136.92 570.854 136.696C570.854 134.376 569.222 132.568 566.95 132.568C564.582 132.568 562.822 134.376 562.822 136.84C562.822 139.304 564.662 141.16 567.094 141.16ZM564.134 136.248C564.326 134.76 565.43 133.656 566.934 133.656C568.358 133.656 569.446 134.76 569.558 136.248H564.134ZM580.376 132.568C579.352 132.568 578.456 132.92 577.72 133.592V129.08H576.44V141H577.72V134.92C578.312 134.28 579.112 133.768 580.136 133.768C581.464 133.768 582.312 134.744 582.312 136.2V141H583.592V136.184C583.592 134.008 582.296 132.568 580.376 132.568ZM591.622 132.728C591.238 135.464 590.262 137.992 588.982 139.736L586.134 132.728H584.71L588.086 140.776C586.966 141.896 585.622 142.712 583.974 143.208L584.246 144.36C586.262 143.8 588.15 142.568 589.494 141C591.302 138.888 592.566 135.928 592.95 132.728H591.622ZM597.951 141.16C598.975 141.16 599.935 140.808 600.623 140.152V141H601.919V129.08H600.623V133.512C599.919 132.904 598.975 132.568 597.935 132.568C595.567 132.568 593.775 134.408 593.775 136.856C593.775 139.304 595.567 141.16 597.951 141.16ZM598.047 139.96C596.367 139.96 595.103 138.648 595.103 136.856C595.103 135.08 596.367 133.768 598.047 133.768C599.087 133.768 600.095 134.216 600.623 134.936V138.792C600.095 139.512 599.087 139.96 598.047 139.96ZM608.511 132.568C607.535 132.584 606.399 132.952 605.423 133.752V132.728H604.127V141H605.423V135.112C606.191 134.392 607.311 133.88 608.511 133.864V132.568ZM613.282 141.16C615.73 141.16 617.586 139.32 617.586 136.856C617.586 134.408 615.73 132.568 613.282 132.568C610.818 132.568 608.962 134.408 608.962 136.856C608.962 139.32 610.818 141.16 613.282 141.16ZM613.282 139.96C611.57 139.96 610.29 138.632 610.29 136.856C610.29 135.096 611.57 133.768 613.282 133.768C614.978 133.768 616.274 135.096 616.274 136.856C616.274 138.632 614.978 139.96 613.282 139.96ZM622.016 144.36C624.912 144.248 627.2 142.824 627.2 139.064V132.728H625.92V133.528C625.232 132.904 624.272 132.568 623.216 132.568C620.848 132.568 619.04 134.408 619.04 136.84C619.04 139.24 620.832 141.064 623.216 141.064C624.256 141.064 625.184 140.728 625.888 140.088C625.632 142.216 624.096 143.112 622.016 143.192V144.36ZM623.328 139.928C621.648 139.928 620.368 138.616 620.368 136.824C620.368 135.064 621.648 133.752 623.328 133.752C624.4 133.752 625.408 134.232 625.92 134.952V138.728C625.408 139.448 624.4 139.928 623.328 139.928ZM633.312 141.16C634.8 141.16 635.952 140.536 636.704 139.688L635.888 138.856C635.296 139.528 634.48 139.992 633.312 139.992C631.712 139.992 630.496 138.84 630.336 137.272H637.04C637.056 137.128 637.072 136.92 637.072 136.696C637.072 134.376 635.44 132.568 633.168 132.568C630.8 132.568 629.04 134.376 629.04 136.84C629.04 139.304 630.88 141.16 633.312 141.16ZM630.352 136.248C630.544 134.76 631.648 133.656 633.152 133.656C634.576 133.656 635.664 134.76 635.776 136.248H630.352ZM642.704 132.568C641.68 132.568 640.784 132.92 640.048 133.592V132.728H638.768V141H640.048V134.92C640.64 134.28 641.44 133.768 642.464 133.768C643.792 133.768 644.64 134.744 644.64 136.2V141H645.92V136.184C645.92 134.008 644.624 132.568 642.704 132.568ZM647.601 143.496C648.817 142.456 649.345 141.24 649.393 139.192H648.097C648.049 140.824 647.761 141.672 646.833 142.664L647.601 143.496ZM664.456 136.504L663.64 135.64L661.528 137.688L658.04 133.592C657.576 133.048 656.968 132.536 656.968 131.688C656.968 130.84 657.64 130.152 658.632 130.152C659.256 130.152 659.864 130.44 660.424 130.984L661.24 130.04C660.52 129.384 659.704 128.92 658.664 128.92C656.984 128.92 655.656 130.168 655.656 131.656C655.656 132.984 656.536 133.736 657.08 134.344L657.016 134.392C655.288 135.784 654.616 136.76 654.616 138.008C654.616 139.88 656.136 141.16 658.008 141.16C659.224 141.16 660.184 140.632 661.4 139.464L662.68 141H664.36L662.296 138.584L664.456 136.504ZM660.6 138.6C659.608 139.544 658.904 139.944 658.088 139.944C656.856 139.944 655.944 139.032 655.944 137.96C655.944 137.016 656.488 136.376 657.816 135.272L657.848 135.256L660.632 138.568L660.6 138.6ZM673.937 141.16C675.425 141.16 676.577 140.536 677.329 139.688L676.513 138.856C675.921 139.528 675.105 139.992 673.937 139.992C672.337 139.992 671.121 138.84 670.961 137.272H677.665C677.681 137.128 677.697 136.92 677.697 136.696C677.697 134.376 676.065 132.568 673.793 132.568C671.425 132.568 669.665 134.376 669.665 136.84C669.665 139.304 671.505 141.16 673.937 141.16ZM670.977 136.248C671.169 134.76 672.273 133.656 673.777 133.656C675.201 133.656 676.289 134.76 676.401 136.248H670.977ZM678.945 136.792H682.833V135.576H678.945V136.792ZM686.381 131.736C686.381 130.68 686.797 130.104 687.677 130.104C687.965 130.104 688.253 130.168 688.509 130.232L688.829 129.16C688.477 129.016 687.997 128.92 687.549 128.92C686.093 128.92 685.085 129.848 685.085 131.688V132.728H683.517V133.928H685.085V141H686.381V133.928H688.157L688.541 132.728H686.381V131.736ZM693.217 141.16C694.241 141.16 695.137 140.808 695.873 140.136V141H697.153V132.728H695.873V138.808C695.281 139.448 694.481 139.96 693.457 139.96C692.129 139.96 691.281 138.984 691.281 137.528V132.728H690.001V137.544C690.001 139.72 691.297 141.16 693.217 141.16ZM703.265 141.16C704.753 141.16 705.905 140.536 706.657 139.688L705.841 138.856C705.249 139.528 704.433 139.992 703.265 139.992C701.665 139.992 700.449 138.84 700.289 137.272H706.993C707.009 137.128 707.025 136.92 707.025 136.696C707.025 134.376 705.393 132.568 703.121 132.568C700.753 132.568 698.993 134.376 698.993 136.84C698.993 139.304 700.833 141.16 703.265 141.16ZM700.305 136.248C700.497 134.76 701.601 133.656 703.105 133.656C704.529 133.656 705.617 134.76 705.729 136.248H700.305ZM711.17 141.16C711.506 141.16 711.906 141.112 712.242 140.968L712.034 139.848C711.794 139.912 711.554 139.96 711.33 139.96C710.402 139.96 709.906 139.368 709.906 138.264V129.08H708.626V138.376C708.626 140.2 709.586 141.16 711.17 141.16ZM716.143 141.16C717.839 141.16 718.847 140.152 718.847 138.712C718.847 137.384 717.951 136.632 716.303 136.136C715.423 135.88 714.591 135.64 714.591 134.84C714.591 134.168 715.199 133.72 716.111 133.72C716.783 133.72 717.455 133.976 717.999 134.472L718.655 133.544C717.983 132.92 717.103 132.568 716.095 132.568C714.495 132.568 713.311 133.528 713.311 134.872C713.311 136.312 714.607 136.904 715.839 137.272C716.767 137.56 717.567 137.88 717.567 138.76C717.567 139.464 717.055 140.008 716.127 140.008C715.263 140.008 714.367 139.592 713.711 138.856L712.959 139.784C713.743 140.616 714.879 141.16 716.143 141.16Z" fill="#3B4956"/>
<rect width="193" height="48" transform="translate(109 186)" fill="#4099DA"/>
<path d="M126.022 211.584C127.35 210.928 128.15 209.696 128.15 208.112C128.15 205.68 126.31 204.08 123.558 204.08H119.03V216H121.398V212.112H123.558H123.638C124.486 214.304 126.198 215.92 128.406 216.16L128.902 213.984C127.59 213.744 126.55 212.88 126.022 211.584ZM121.398 206.336H123.446C124.918 206.336 125.718 206.96 125.718 208.112C125.718 209.264 124.918 209.856 123.446 209.856H121.398V206.336ZM133.844 216.16C135.316 216.16 136.532 215.568 137.316 214.672L135.924 213.296C135.508 213.808 134.772 214.192 133.828 214.192C132.692 214.192 131.86 213.472 131.684 212.496H137.668C137.7 212.336 137.732 212.08 137.732 211.776C137.732 209.392 136.116 207.568 133.716 207.568C131.268 207.568 129.428 209.312 129.428 211.856C129.428 214.32 131.316 216.16 133.844 216.16ZM131.684 210.992C131.86 210.048 132.58 209.36 133.636 209.36C134.644 209.36 135.412 210.048 135.508 210.992H131.684ZM143.637 207.568C142.693 207.568 141.941 207.84 141.221 208.416V207.728H138.965V216H141.221V210.496C141.717 210.016 142.357 209.648 143.109 209.648C144.149 209.648 144.725 210.336 144.725 211.52V216H146.981V211.296C146.981 209.056 145.621 207.568 143.637 207.568ZM152.703 216.16C154.175 216.16 155.391 215.568 156.175 214.672L154.783 213.296C154.367 213.808 153.631 214.192 152.687 214.192C151.551 214.192 150.719 213.472 150.543 212.496H156.527C156.559 212.336 156.591 212.08 156.591 211.776C156.591 209.392 154.975 207.568 152.575 207.568C150.127 207.568 148.287 209.312 148.287 211.856C148.287 214.32 150.175 216.16 152.703 216.16ZM150.543 210.992C150.719 210.048 151.439 209.36 152.495 209.36C153.503 209.36 154.271 210.048 154.367 210.992H150.543ZM168.177 207.728C167.969 209.712 167.345 211.408 166.113 212.88L164.065 207.728H161.649L162.769 210.272C162.385 211.248 161.857 212.144 161.089 213.024L158.865 207.728H156.449L160.321 216.16C161.697 215.392 162.929 214.128 163.809 212.608L165.393 216.16C168.257 214.656 170.145 211.344 170.513 207.728H168.177ZM177.342 207.728V208.288C176.718 207.792 175.982 207.568 175.15 207.568C172.798 207.568 170.99 209.408 170.99 211.856C170.99 214.304 172.798 216.16 175.182 216.16C175.998 216.16 176.782 215.936 177.342 215.376V216H179.598V207.728H177.342ZM175.502 214.128C174.254 214.128 173.262 213.2 173.262 211.856C173.262 210.528 174.254 209.6 175.502 209.6C176.238 209.6 176.91 209.888 177.342 210.4V213.328C176.91 213.84 176.238 214.128 175.502 214.128ZM185.678 216.16C188.062 216.16 189.886 214.304 189.886 211.856C189.886 209.408 188.062 207.568 185.71 207.568C184.878 207.568 184.158 207.792 183.518 208.288V204.08H181.262V216H183.518V215.376C184.094 215.936 184.862 216.16 185.678 216.16ZM185.374 214.128C184.638 214.128 183.95 213.84 183.518 213.328V210.4C183.95 209.888 184.638 209.6 185.374 209.6C186.606 209.6 187.598 210.528 187.598 211.856C187.598 213.2 186.606 214.128 185.374 214.128ZM194.141 216.16C194.573 216.16 195.069 216.096 195.517 215.936L195.245 213.968C195.021 214.016 194.813 214.08 194.589 214.08C193.789 214.08 193.421 213.616 193.421 212.784V204.08H191.165V213.056C191.165 214.992 192.333 216.16 194.141 216.16ZM200.156 216.16C201.628 216.16 202.844 215.568 203.628 214.672L202.236 213.296C201.82 213.808 201.084 214.192 200.14 214.192C199.004 214.192 198.172 213.472 197.996 212.496H203.98C204.012 212.336 204.044 212.08 204.044 211.776C204.044 209.392 202.428 207.568 200.028 207.568C197.58 207.568 195.74 209.312 195.74 211.856C195.74 214.32 197.628 216.16 200.156 216.16ZM197.996 210.992C198.172 210.048 198.892 209.36 199.948 209.36C200.956 209.36 201.724 210.048 201.82 210.992H197.996ZM211.734 219.36C215.19 219.312 217.334 217.536 217.334 213.92V207.728H215.078V208.32C214.486 207.824 213.766 207.568 212.886 207.568C210.486 207.568 208.678 209.424 208.678 211.792C208.678 214.128 210.422 215.856 212.838 215.856C213.718 215.856 214.454 215.6 215.046 215.072C214.822 216.672 213.606 217.344 211.734 217.424V219.36ZM213.19 214.016C211.942 214.016 210.95 213.088 210.95 211.76C210.95 210.496 211.942 209.552 213.19 209.552C214.054 209.552 214.742 209.952 215.078 210.448V213.12C214.742 213.632 214.054 214.016 213.19 214.016ZM223.156 216.16C224.628 216.16 225.844 215.568 226.628 214.672L225.236 213.296C224.82 213.808 224.084 214.192 223.14 214.192C222.004 214.192 221.172 213.472 220.996 212.496H226.98C227.012 212.336 227.044 212.08 227.044 211.776C227.044 209.392 225.428 207.568 223.028 207.568C220.58 207.568 218.74 209.312 218.74 211.856C218.74 214.32 220.628 216.16 223.156 216.16ZM220.996 210.992C221.172 210.048 221.892 209.36 222.948 209.36C223.956 209.36 224.724 210.048 224.82 210.992H220.996ZM232.949 207.568C232.005 207.568 231.253 207.84 230.533 208.416V207.728H228.277V216H230.533V210.496C231.029 210.016 231.669 209.648 232.421 209.648C233.461 209.648 234.037 210.336 234.037 211.52V216H236.293V211.296C236.293 209.056 234.933 207.568 232.949 207.568ZM242.015 216.16C243.487 216.16 244.703 215.568 245.487 214.672L244.095 213.296C243.679 213.808 242.943 214.192 241.999 214.192C240.863 214.192 240.031 213.472 239.855 212.496H245.839C245.871 212.336 245.903 212.08 245.903 211.776C245.903 209.392 244.287 207.568 241.887 207.568C239.439 207.568 237.599 209.312 237.599 211.856C237.599 214.32 239.487 216.16 242.015 216.16ZM239.855 210.992C240.031 210.048 240.751 209.36 241.807 209.36C242.815 209.36 243.583 210.048 243.679 210.992H239.855ZM252.385 207.568C251.329 207.616 250.385 207.904 249.393 208.704V207.728H247.137V216H249.393V210.976C250.177 210.272 251.233 209.856 252.385 209.808V207.568ZM259.201 207.728V208.288C258.577 207.792 257.841 207.568 257.009 207.568C254.657 207.568 252.849 209.408 252.849 211.856C252.849 214.304 254.657 216.16 257.041 216.16C257.857 216.16 258.641 215.936 259.201 215.376V216H261.457V207.728H259.201ZM257.361 214.128C256.113 214.128 255.121 213.2 255.121 211.856C255.121 210.528 256.113 209.6 257.361 209.6C258.097 209.6 258.769 209.888 259.201 210.4V213.328C258.769 213.84 258.097 214.128 257.361 214.128ZM268.577 213.76C268.241 213.968 267.889 214.16 267.441 214.16C266.801 214.16 266.209 213.712 266.209 212.656V209.792H268.001L268.545 207.728H266.209V205.088H263.953V207.728H262.545V209.792H263.953V212.976C263.953 215.088 265.265 216.16 267.089 216.16C267.793 216.16 268.417 216 269.233 215.568L268.577 213.76ZM271.476 206.464C272.212 206.464 272.82 205.856 272.82 205.168C272.82 204.496 272.212 203.872 271.476 203.872C270.74 203.872 270.132 204.496 270.132 205.168C270.132 205.856 270.74 206.464 271.476 206.464ZM270.34 216H272.596V207.728H270.34V216ZM278.406 216.16C280.902 216.16 282.79 214.304 282.79 211.856C282.79 209.408 280.902 207.568 278.406 207.568C275.894 207.568 274.006 209.408 274.006 211.856C274.006 214.304 275.894 216.16 278.406 216.16ZM278.406 214.08C277.19 214.08 276.278 213.152 276.278 211.856C276.278 210.576 277.19 209.648 278.406 209.648C279.606 209.648 280.502 210.576 280.502 211.856C280.502 213.152 279.606 214.08 278.406 214.08ZM288.856 207.568C287.912 207.568 287.16 207.84 286.44 208.416V207.728H284.184V216H286.44V210.496C286.936 210.016 287.576 209.648 288.328 209.648C289.368 209.648 289.944 210.336 289.944 211.52V216H292.2V211.296C292.2 209.056 290.84 207.568 288.856 207.568Z" fill="white"/>
<rect width="93" height="28" transform="translate(302 197)" fill="#EBEDEE"/>
<path d="M321.171 211.632H324.909V209.77H321.171V207.544H325.427L325.945 205.57H319.099V216H325.455L325.945 214.026H321.171V211.632ZM329.559 216.14C329.937 216.14 330.371 216.084 330.763 215.944L330.525 214.222C330.329 214.264 330.147 214.32 329.951 214.32C329.251 214.32 328.929 213.914 328.929 213.186V205.57H326.955V213.424C326.955 215.118 327.977 216.14 329.559 216.14ZM334.822 216.14C336.11 216.14 337.174 215.622 337.86 214.838L336.642 213.634C336.278 214.082 335.634 214.418 334.808 214.418C333.814 214.418 333.086 213.788 332.932 212.934H338.168C338.196 212.794 338.224 212.57 338.224 212.304C338.224 210.218 336.81 208.622 334.71 208.622C332.568 208.622 330.958 210.148 330.958 212.374C330.958 214.53 332.61 216.14 334.822 216.14ZM332.932 211.618C333.086 210.792 333.716 210.19 334.64 210.19C335.522 210.19 336.194 210.792 336.278 211.618H332.932ZM342.901 216.14C344.119 216.14 345.211 215.608 345.911 214.782L344.651 213.466C344.301 213.942 343.685 214.32 342.999 214.32C341.935 214.32 341.067 213.48 341.067 212.36C341.067 211.268 341.865 210.442 342.971 210.442C343.573 210.442 344.091 210.708 344.441 211.058L345.645 209.714C344.917 209 343.993 208.622 342.915 208.622C340.801 208.622 339.079 210.148 339.079 212.36C339.079 214.586 340.801 216.14 342.901 216.14ZM351.61 214.04C351.316 214.222 351.008 214.39 350.616 214.39C350.056 214.39 349.538 213.998 349.538 213.074V210.568H351.106L351.582 208.762H349.538V206.452H347.564V208.762H346.332V210.568H347.564V213.354C347.564 215.202 348.712 216.14 350.308 216.14C350.924 216.14 351.47 216 352.184 215.622L351.61 214.04ZM357.745 208.622C356.821 208.664 355.995 208.916 355.127 209.616V208.762H353.153V216H355.127V211.604C355.813 210.988 356.737 210.624 357.745 210.582V208.622ZM359.752 207.656C360.396 207.656 360.928 207.124 360.928 206.522C360.928 205.934 360.396 205.388 359.752 205.388C359.108 205.388 358.576 205.934 358.576 206.522C358.576 207.124 359.108 207.656 359.752 207.656ZM358.758 216H360.732V208.762H358.758V216ZM365.788 216.14C367.006 216.14 368.098 215.608 368.798 214.782L367.538 213.466C367.188 213.942 366.572 214.32 365.886 214.32C364.822 214.32 363.954 213.48 363.954 212.36C363.954 211.268 364.752 210.442 365.858 210.442C366.46 210.442 366.978 210.708 367.328 211.058L368.532 209.714C367.804 209 366.88 208.622 365.802 208.622C363.688 208.622 361.966 210.148 361.966 212.36C361.966 214.586 363.688 216.14 365.788 216.14ZM370.717 207.656C371.361 207.656 371.893 207.124 371.893 206.522C371.893 205.934 371.361 205.388 370.717 205.388C370.073 205.388 369.541 205.934 369.541 206.522C369.541 207.124 370.073 207.656 370.717 207.656ZM369.723 216H371.697V208.762H369.723V216ZM377.929 214.04C377.635 214.222 377.327 214.39 376.935 214.39C376.375 214.39 375.857 213.998 375.857 213.074V210.568H377.425L377.901 208.762H375.857V206.452H373.883V208.762H372.651V210.568H373.883V213.354C373.883 215.202 375.031 216.14 376.627 216.14C377.243 216.14 377.789 216 378.503 215.622L377.929 214.04ZM384.482 208.762C384.216 210.708 383.614 212.444 382.774 213.788L380.73 208.762H378.602L381.43 215.482C380.576 216.266 379.526 216.84 378.182 217.19L378.602 218.94C380.576 218.45 382.158 217.414 383.446 216C385.084 214.166 386.148 211.632 386.526 208.762H384.482Z" fill="#3B4956"/>
<path d="M395 197L415 211.483L395 225L395 197Z" fill="#EBEDEE"/>
<rect width="106" height="48" transform="translate(415 186)" fill="#4099DA"/>
<path d="M427.711 211.008H431.983V208.88H427.711V206.336H432.575L433.167 204.08H425.343V216H432.607L433.167 213.744H427.711V211.008ZM437.298 216.16C437.73 216.16 438.226 216.096 438.674 215.936L438.402 213.968C438.178 214.016 437.97 214.08 437.746 214.08C436.946 214.08 436.578 213.616 436.578 212.784V204.08H434.322V213.056C434.322 214.992 435.49 216.16 437.298 216.16ZM443.312 216.16C444.784 216.16 446 215.568 446.784 214.672L445.392 213.296C444.976 213.808 444.24 214.192 443.296 214.192C442.16 214.192 441.328 213.472 441.152 212.496H447.136C447.168 212.336 447.2 212.08 447.2 211.776C447.2 209.392 445.584 207.568 443.184 207.568C440.736 207.568 438.896 209.312 438.896 211.856C438.896 214.32 440.784 216.16 443.312 216.16ZM441.152 210.992C441.328 210.048 442.048 209.36 443.104 209.36C444.112 209.36 444.88 210.048 444.976 210.992H441.152ZM452.546 216.16C453.938 216.16 455.186 215.552 455.986 214.608L454.546 213.104C454.146 213.648 453.442 214.08 452.658 214.08C451.442 214.08 450.45 213.12 450.45 211.84C450.45 210.592 451.362 209.648 452.626 209.648C453.314 209.648 453.906 209.952 454.306 210.352L455.682 208.816C454.85 208 453.794 207.568 452.562 207.568C450.146 207.568 448.178 209.312 448.178 211.84C448.178 214.384 450.146 216.16 452.546 216.16ZM462.499 213.76C462.163 213.968 461.811 214.16 461.363 214.16C460.723 214.16 460.131 213.712 460.131 212.656V209.792H461.923L462.467 207.728H460.131V205.088H457.875V207.728H456.467V209.792H457.875V212.976C457.875 215.088 459.187 216.16 461.011 216.16C461.715 216.16 462.339 216 463.155 215.568L462.499 213.76ZM469.51 207.568C468.454 207.616 467.51 207.904 466.518 208.704V207.728H464.262V216H466.518V210.976C467.302 210.272 468.358 209.856 469.51 209.808V207.568ZM474.374 216.16C476.87 216.16 478.758 214.304 478.758 211.856C478.758 209.408 476.87 207.568 474.374 207.568C471.862 207.568 469.974 209.408 469.974 211.856C469.974 214.304 471.862 216.16 474.374 216.16ZM474.374 214.08C473.158 214.08 472.246 213.152 472.246 211.856C472.246 210.576 473.158 209.648 474.374 209.648C475.574 209.648 476.47 210.576 476.47 211.856C476.47 213.152 475.574 214.08 474.374 214.08ZM483.016 216.16C483.448 216.16 483.944 216.096 484.392 215.936L484.12 213.968C483.896 214.016 483.688 214.08 483.464 214.08C482.664 214.08 482.296 213.616 482.296 212.784V204.08H480.04V213.056C480.04 214.992 481.208 216.16 483.016 216.16ZM490.644 207.728C490.34 209.952 489.652 211.936 488.692 213.472L486.356 207.728H483.924L487.156 215.408C486.18 216.304 484.98 216.96 483.444 217.36L483.924 219.36C486.18 218.8 487.988 217.616 489.46 216C491.332 213.904 492.548 211.008 492.98 207.728H490.644ZM496.868 216.16C498.676 216.16 499.86 215.12 499.86 213.504C499.86 212.176 498.932 211.264 497.204 210.832C496.196 210.592 495.78 210.464 495.78 210.048C495.78 209.68 496.164 209.456 496.724 209.456C497.412 209.456 498.132 209.76 498.724 210.176L499.7 208.592C498.884 207.968 497.892 207.568 496.66 207.568C494.9 207.568 493.604 208.608 493.604 210.048C493.604 211.488 494.66 212.192 496.244 212.64C497.268 212.928 497.7 213.104 497.7 213.584C497.7 213.968 497.396 214.256 496.82 214.256C496.036 214.256 495.108 213.888 494.34 213.152L493.252 214.736C494.116 215.568 495.428 216.16 496.868 216.16ZM502.241 206.464C502.977 206.464 503.585 205.856 503.585 205.168C503.585 204.496 502.977 203.872 502.241 203.872C501.505 203.872 500.897 204.496 500.897 205.168C500.897 205.856 501.505 206.464 502.241 206.464ZM501.105 216H503.361V207.728H501.105V216ZM508.211 216.16C510.019 216.16 511.203 215.12 511.203 213.504C511.203 212.176 510.275 211.264 508.547 210.832C507.539 210.592 507.123 210.464 507.123 210.048C507.123 209.68 507.507 209.456 508.067 209.456C508.755 209.456 509.475 209.76 510.067 210.176L511.043 208.592C510.227 207.968 509.235 207.568 508.003 207.568C506.243 207.568 504.947 208.608 504.947 210.048C504.947 211.488 506.003 212.192 507.587 212.64C508.611 212.928 509.043 213.104 509.043 213.584C509.043 213.968 508.739 214.256 508.163 214.256C507.379 214.256 506.451 213.888 505.683 213.152L504.595 214.736C505.459 215.568 506.771 216.16 508.211 216.16Z" fill="white"/>
<rect width="91" height="28" transform="translate(521 197)" fill="#EBEDEE"/>
<path d="M544.948 205.57V209.798H539.95V205.57H537.878V216H539.95V211.758H544.948V216H547.02V205.57H544.948ZM554.029 208.762C553.763 210.708 553.161 212.444 552.321 213.788L550.277 208.762H548.149L550.977 215.482C550.123 216.266 549.073 216.84 547.729 217.19L548.149 218.94C550.123 218.45 551.705 217.414 552.993 216C554.631 214.166 555.695 211.632 556.073 208.762H554.029ZM560.159 216.14C560.873 216.14 561.559 215.944 562.049 215.454V216H564.023V205.57H562.049V209.252C561.503 208.818 560.859 208.622 560.131 208.622C558.073 208.622 556.491 210.232 556.491 212.374C556.491 214.516 558.073 216.14 560.159 216.14ZM560.439 214.362C559.347 214.362 558.479 213.55 558.479 212.374C558.479 211.212 559.347 210.4 560.439 210.4C561.083 210.4 561.671 210.652 562.049 211.1V213.662C561.671 214.11 561.083 214.362 560.439 214.362ZM570.071 208.622C569.147 208.664 568.321 208.916 567.453 209.616V208.762H565.479V216H567.453V211.604C568.139 210.988 569.063 210.624 570.071 210.582V208.622ZM574.328 216.14C576.512 216.14 578.164 214.516 578.164 212.374C578.164 210.232 576.512 208.622 574.328 208.622C572.13 208.622 570.478 210.232 570.478 212.374C570.478 214.516 572.13 216.14 574.328 216.14ZM574.328 214.32C573.264 214.32 572.466 213.508 572.466 212.374C572.466 211.254 573.264 210.442 574.328 210.442C575.378 210.442 576.162 211.254 576.162 212.374C576.162 213.508 575.378 214.32 574.328 214.32ZM581.833 218.94C584.857 218.898 586.733 217.344 586.733 214.18V208.762H584.759V209.28C584.241 208.846 583.611 208.622 582.841 208.622C580.741 208.622 579.159 210.246 579.159 212.318C579.159 214.362 580.685 215.874 582.799 215.874C583.569 215.874 584.213 215.65 584.731 215.188C584.535 216.588 583.471 217.176 581.833 217.246V218.94ZM583.107 214.264C582.015 214.264 581.147 213.452 581.147 212.29C581.147 211.184 582.015 210.358 583.107 210.358C583.863 210.358 584.465 210.708 584.759 211.142V213.48C584.465 213.928 583.863 214.264 583.107 214.264ZM591.828 216.14C593.116 216.14 594.18 215.622 594.866 214.838L593.648 213.634C593.284 214.082 592.64 214.418 591.814 214.418C590.82 214.418 590.092 213.788 589.938 212.934H595.174C595.202 212.794 595.23 212.57 595.23 212.304C595.23 210.218 593.816 208.622 591.716 208.622C589.574 208.622 587.964 210.148 587.964 212.374C587.964 214.53 589.616 216.14 591.828 216.14ZM589.938 211.618C590.092 210.792 590.722 210.19 591.646 210.19C592.528 210.19 593.2 210.792 593.284 211.618H589.938ZM600.397 208.622C599.571 208.622 598.913 208.86 598.283 209.364V208.762H596.309V216H598.283V211.184C598.717 210.764 599.277 210.442 599.935 210.442C600.845 210.442 601.349 211.044 601.349 212.08V216H603.323V211.884C603.323 209.924 602.133 208.622 600.397 208.622Z" fill="#3B4956"/>
<path d="M612 197L632 211.483L612 225L612 197Z" fill="#EBEDEE"/>
<path d="M580.5 225L580.5 291.736L576.5 296.5L572.5 291.736L572.5 225L580.5 225Z" fill="#EBEDEE"/>
<path d="M552.271 322.044L552.789 320.07H545.929V330.5H548.001V326.454H551.893V324.592H548.001V322.044H552.271ZM556.438 330.64C557.264 330.64 557.922 330.402 558.552 329.898V330.5H560.526V323.262H558.552V328.078C558.118 328.498 557.558 328.82 556.9 328.82C555.99 328.82 555.486 328.218 555.486 327.182V323.262H553.512V327.378C553.512 329.338 554.702 330.64 556.438 330.64ZM565.617 330.64C566.905 330.64 567.969 330.122 568.655 329.338L567.437 328.134C567.073 328.582 566.429 328.918 565.603 328.918C564.609 328.918 563.881 328.288 563.727 327.434H568.963C568.991 327.294 569.019 327.07 569.019 326.804C569.019 324.718 567.605 323.122 565.505 323.122C563.363 323.122 561.753 324.648 561.753 326.874C561.753 329.03 563.405 330.64 565.617 330.64ZM563.727 326.118C563.881 325.292 564.511 324.69 565.435 324.69C566.317 324.69 566.989 325.292 567.073 326.118H563.727ZM572.604 330.64C572.982 330.64 573.416 330.584 573.808 330.444L573.57 328.722C573.374 328.764 573.192 328.82 572.996 328.82C572.296 328.82 571.974 328.414 571.974 327.686V320.07H570V327.924C570 329.618 571.022 330.64 572.604 330.64ZM581.448 330.64C582.666 330.64 583.758 330.108 584.458 329.282L583.198 327.966C582.848 328.442 582.232 328.82 581.546 328.82C580.482 328.82 579.614 327.98 579.614 326.86C579.614 325.768 580.412 324.942 581.518 324.942C582.12 324.942 582.638 325.208 582.988 325.558L584.192 324.214C583.464 323.5 582.54 323.122 581.462 323.122C579.348 323.122 577.626 324.648 577.626 326.86C577.626 329.086 579.348 330.64 581.448 330.64ZM588.64 330.64C589.928 330.64 590.992 330.122 591.678 329.338L590.46 328.134C590.096 328.582 589.452 328.918 588.626 328.918C587.632 328.918 586.904 328.288 586.75 327.434H591.986C592.014 327.294 592.042 327.07 592.042 326.804C592.042 324.718 590.628 323.122 588.528 323.122C586.386 323.122 584.776 324.648 584.776 326.874C584.776 329.03 586.428 330.64 588.64 330.64ZM586.75 326.118C586.904 325.292 587.534 324.69 588.458 324.69C589.34 324.69 590.012 325.292 590.096 326.118H586.75ZM595.628 330.64C596.006 330.64 596.44 330.584 596.832 330.444L596.594 328.722C596.398 328.764 596.216 328.82 596.02 328.82C595.32 328.82 594.998 328.414 594.998 327.686V320.07H593.024V327.924C593.024 329.618 594.046 330.64 595.628 330.64ZM600.098 330.64C600.476 330.64 600.91 330.584 601.302 330.444L601.064 328.722C600.868 328.764 600.686 328.82 600.49 328.82C599.79 328.82 599.468 328.414 599.468 327.686V320.07H597.494V327.924C597.494 329.618 598.516 330.64 600.098 330.64ZM604.931 330.64C606.513 330.64 607.549 329.73 607.549 328.316C607.549 327.154 606.737 326.356 605.225 325.978C604.343 325.768 603.979 325.656 603.979 325.292C603.979 324.97 604.315 324.774 604.805 324.774C605.407 324.774 606.037 325.04 606.555 325.404L607.409 324.018C606.695 323.472 605.827 323.122 604.749 323.122C603.209 323.122 602.075 324.032 602.075 325.292C602.075 326.552 602.999 327.168 604.385 327.56C605.281 327.812 605.659 327.966 605.659 328.386C605.659 328.722 605.393 328.974 604.889 328.974C604.203 328.974 603.391 328.652 602.719 328.008L601.767 329.394C602.523 330.122 603.671 330.64 604.931 330.64Z" fill="#3B4956"/>
<rect width="171" height="48" transform="translate(632 186)" fill="#4099DA"/>
<path d="M649.208 206.336L649.8 204.08H641.96V216H644.328V211.376H648.776V209.248H644.328V206.336H649.208ZM653.971 216.16C654.915 216.16 655.667 215.888 656.387 215.312V216H658.643V207.728H656.387V213.232C655.891 213.712 655.251 214.08 654.499 214.08C653.459 214.08 652.883 213.392 652.883 212.208V207.728H650.627V212.432C650.627 214.672 651.987 216.16 653.971 216.16ZM664.461 216.16C665.933 216.16 667.149 215.568 667.933 214.672L666.541 213.296C666.125 213.808 665.389 214.192 664.445 214.192C663.309 214.192 662.477 213.472 662.301 212.496H668.285C668.317 212.336 668.349 212.08 668.349 211.776C668.349 209.392 666.733 207.568 664.333 207.568C661.885 207.568 660.045 209.312 660.045 211.856C660.045 214.32 661.933 216.16 664.461 216.16ZM662.301 210.992C662.477 210.048 663.197 209.36 664.253 209.36C665.261 209.36 666.029 210.048 666.125 210.992H662.301ZM672.446 216.16C672.878 216.16 673.374 216.096 673.822 215.936L673.55 213.968C673.326 214.016 673.118 214.08 672.894 214.08C672.094 214.08 671.726 213.616 671.726 212.784V204.08H669.47V213.056C669.47 214.992 670.638 216.16 672.446 216.16ZM681.625 216.16C683.433 216.16 684.617 215.12 684.617 213.504C684.617 212.176 683.689 211.264 681.961 210.832C680.953 210.592 680.537 210.464 680.537 210.048C680.537 209.68 680.921 209.456 681.481 209.456C682.169 209.456 682.889 209.76 683.481 210.176L684.457 208.592C683.641 207.968 682.649 207.568 681.417 207.568C679.657 207.568 678.361 208.608 678.361 210.048C678.361 211.488 679.417 212.192 681.001 212.64C682.025 212.928 682.457 213.104 682.457 213.584C682.457 213.968 682.153 214.256 681.577 214.256C680.793 214.256 679.865 213.888 679.097 213.152L678.009 214.736C678.873 215.568 680.185 216.16 681.625 216.16ZM691.98 207.728C691.676 209.952 690.988 211.936 690.028 213.472L687.692 207.728H685.26L688.492 215.408C687.516 216.304 686.316 216.96 684.78 217.36L685.26 219.36C687.516 218.8 689.324 217.616 690.796 216C692.668 213.904 693.884 211.008 694.316 207.728H691.98ZM700.067 207.568C699.123 207.568 698.371 207.84 697.651 208.416V207.728H695.395V216H697.651V210.496C698.147 210.016 698.786 209.648 699.539 209.648C700.579 209.648 701.155 210.336 701.155 211.52V216H703.411V211.296C703.411 209.056 702.051 207.568 700.067 207.568ZM710.429 213.76C710.093 213.968 709.741 214.16 709.293 214.16C708.653 214.16 708.061 213.712 708.061 212.656V209.792H709.853L710.397 207.728H708.061V205.088H705.805V207.728H704.397V209.792H705.805V212.976C705.805 215.088 707.117 216.16 708.941 216.16C709.645 216.16 710.269 216 711.085 215.568L710.429 213.76ZM716.863 207.568C715.919 207.568 715.167 207.84 714.447 208.416V204.08H712.191V216H714.447V210.496C714.943 210.016 715.583 209.648 716.335 209.648C717.375 209.648 717.951 210.336 717.951 211.52V216H720.207V211.296C720.207 209.056 718.847 207.568 716.863 207.568ZM725.93 216.16C727.402 216.16 728.618 215.568 729.402 214.672L728.01 213.296C727.594 213.808 726.858 214.192 725.914 214.192C724.778 214.192 723.946 213.472 723.77 212.496H729.753C729.786 212.336 729.818 212.08 729.818 211.776C729.818 209.392 728.202 207.568 725.802 207.568C723.354 207.568 721.514 209.312 721.514 211.856C721.514 214.32 723.402 216.16 725.93 216.16ZM723.77 210.992C723.946 210.048 724.666 209.36 725.722 209.36C726.73 209.36 727.498 210.048 727.594 210.992H723.77ZM734.047 216.16C735.855 216.16 737.039 215.12 737.039 213.504C737.039 212.176 736.111 211.264 734.383 210.832C733.375 210.592 732.959 210.464 732.959 210.048C732.959 209.68 733.343 209.456 733.903 209.456C734.591 209.456 735.311 209.76 735.903 210.176L736.879 208.592C736.063 207.968 735.071 207.568 733.839 207.568C732.079 207.568 730.783 208.608 730.783 210.048C730.783 211.488 731.839 212.192 733.423 212.64C734.447 212.928 734.879 213.104 734.879 213.584C734.879 213.968 734.575 214.256 733.999 214.256C733.215 214.256 732.287 213.888 731.519 213.152L730.431 214.736C731.295 215.568 732.607 216.16 734.047 216.16ZM739.421 206.464C740.157 206.464 740.765 205.856 740.765 205.168C740.765 204.496 740.157 203.872 739.421 203.872C738.685 203.872 738.077 204.496 738.077 205.168C738.077 205.856 738.685 206.464 739.421 206.464ZM738.285 216H740.541V207.728H738.285V216ZM745.391 216.16C747.199 216.16 748.383 215.12 748.383 213.504C748.383 212.176 747.455 211.264 745.727 210.832C744.719 210.592 744.303 210.464 744.303 210.048C744.303 209.68 744.687 209.456 745.247 209.456C745.935 209.456 746.655 209.76 747.247 210.176L748.223 208.592C747.407 207.968 746.415 207.568 745.183 207.568C743.423 207.568 742.127 208.608 742.127 210.048C742.127 211.488 743.183 212.192 744.767 212.64C745.791 212.928 746.223 213.104 746.223 213.584C746.223 213.968 745.919 214.256 745.343 214.256C744.559 214.256 743.631 213.888 742.863 213.152L741.775 214.736C742.639 215.568 743.951 216.16 745.391 216.16ZM757.733 207.568C756.901 207.568 756.181 207.792 755.541 208.288V207.728H753.285V219.2H755.541V215.376C756.117 215.936 756.885 216.16 757.701 216.16C760.085 216.16 761.909 214.304 761.909 211.856C761.909 209.408 760.085 207.568 757.733 207.568ZM757.397 214.128C756.661 214.128 755.973 213.84 755.541 213.328V210.4C755.973 209.888 756.661 209.6 757.397 209.6C758.629 209.6 759.621 210.528 759.621 211.856C759.621 213.2 758.629 214.128 757.397 214.128ZM766.165 216.16C766.597 216.16 767.093 216.096 767.541 215.936L767.269 213.968C767.045 214.016 766.837 214.08 766.613 214.08C765.813 214.08 765.445 213.616 765.445 212.784V204.08H763.189V213.056C763.189 214.992 764.357 216.16 766.165 216.16ZM774.116 207.728V208.288C773.492 207.792 772.756 207.568 771.924 207.568C769.572 207.568 767.764 209.408 767.764 211.856C767.764 214.304 769.572 216.16 771.956 216.16C772.772 216.16 773.556 215.936 774.116 215.376V216H776.372V207.728H774.116ZM772.276 214.128C771.028 214.128 770.036 213.2 770.036 211.856C770.036 210.528 771.028 209.6 772.276 209.6C773.012 209.6 773.684 209.888 774.116 210.4V213.328C773.684 213.84 773.012 214.128 772.276 214.128ZM782.707 207.568C781.763 207.568 781.011 207.84 780.291 208.416V207.728H778.035V216H780.291V210.496C780.787 210.016 781.427 209.648 782.179 209.648C783.219 209.648 783.795 210.336 783.795 211.52V216H786.051V211.296C786.051 209.056 784.691 207.568 782.707 207.568ZM793.069 213.76C792.733 213.968 792.381 214.16 791.933 214.16C791.293 214.16 790.701 213.712 790.701 212.656V209.792H792.493L793.037 207.728H790.701V205.088H788.445V207.728H787.037V209.792H788.445V212.976C788.445 215.088 789.757 216.16 791.581 216.16C792.285 216.16 792.909 216 793.725 215.568L793.069 213.76Z" fill="white"/>
<rect x="632" y="234" width="131.325" height="24.4537" fill="#D8D1CA"/>
<path d="M648.205 251.655C649.6 251.655 650.894 251.148 651.819 250.223L650.856 249.018C650.158 249.69 649.334 250.108 648.256 250.108C646.418 250.108 645.01 248.663 645.01 246.799C645.01 244.935 646.418 243.502 648.256 243.502C649.233 243.502 649.892 243.845 650.551 244.403L651.515 243.097C650.64 242.399 649.562 241.955 648.205 241.955C645.467 241.955 643.374 244.048 643.374 246.799C643.374 249.563 645.441 251.655 648.205 251.655ZM658.316 244.365V244.796C657.783 244.428 657.099 244.238 656.363 244.238C654.296 244.238 652.75 245.785 652.75 247.94C652.75 250.096 654.296 251.655 656.363 251.655C657.099 251.655 657.771 251.452 658.316 251.072V251.529H659.837V244.365H658.316ZM656.566 250.299C655.235 250.299 654.322 249.348 654.322 247.94C654.322 246.545 655.247 245.594 656.566 245.594C657.276 245.594 657.91 245.861 658.316 246.343V249.462C657.91 249.931 657.276 250.299 656.566 250.299ZM664.859 244.238C664.124 244.238 663.439 244.428 662.906 244.808V244.365H661.385V254.191H662.906V251.072C663.452 251.452 664.124 251.655 664.859 251.655C666.926 251.655 668.473 250.096 668.473 247.94C668.473 245.785 666.926 244.238 664.859 244.238ZM664.656 250.299C663.946 250.299 663.312 249.994 662.906 249.525V246.368C663.312 245.886 663.959 245.594 664.656 245.594C665.975 245.594 666.901 246.545 666.901 247.94C666.901 249.348 665.988 250.299 664.656 250.299ZM674.071 249.982C673.741 250.159 673.412 250.299 673.006 250.299C672.397 250.299 671.979 249.944 671.979 249.094V245.759H673.805L674.211 244.365H671.979V242.45H670.457V244.365H669.113V245.759H670.457V249.183C670.457 250.768 671.472 251.655 672.79 251.655C673.437 251.655 674.046 251.491 674.515 251.199L674.071 249.982ZM680.258 244.365V249.449C679.852 249.969 679.282 250.261 678.584 250.261C677.494 250.261 676.86 249.5 676.86 248.232V244.365H675.338V248.447C675.338 250.349 676.568 251.655 678.369 251.655C679.053 251.655 679.738 251.44 680.258 251.009V251.529H681.779V244.365H680.258ZM687.486 244.238C686.674 244.25 685.647 244.453 684.848 245.037V244.365H683.327V251.529H684.848V246.609C685.495 246.064 686.547 245.823 687.486 245.785V244.238ZM689.848 248.447H695.288C695.313 248.27 695.326 248.029 695.326 247.813C695.326 245.759 693.881 244.238 691.903 244.238C689.798 244.238 688.225 245.797 688.225 247.928C688.225 250.07 689.848 251.655 692.004 251.655C693.209 251.655 694.299 251.212 694.946 250.375L693.969 249.348C693.576 249.88 692.854 250.299 692.017 250.299C690.875 250.299 690.051 249.487 689.848 248.447ZM691.903 245.594C692.904 245.594 693.602 246.203 693.766 247.268H689.861C690.064 246.266 690.736 245.594 691.903 245.594ZM701.952 241.702V244.808C701.419 244.428 700.735 244.238 699.999 244.238C697.932 244.238 696.386 245.785 696.386 247.94C696.386 250.096 697.932 251.655 699.999 251.655C700.735 251.655 701.407 251.452 701.952 251.072V251.529H703.473V241.702H701.952ZM700.202 250.299C698.871 250.299 697.958 249.348 697.958 247.94C697.958 246.545 698.883 245.594 700.202 245.594C700.912 245.594 701.546 245.861 701.952 246.343V249.551C701.546 250.02 700.912 250.299 700.202 250.299ZM712.731 251.655C714.125 251.655 715.419 251.148 716.344 250.223L715.381 249.018C714.683 249.69 713.859 250.108 712.781 250.108C710.943 250.108 709.535 248.663 709.535 246.799C709.535 244.935 710.943 243.502 712.781 243.502C713.758 243.502 714.417 243.845 715.076 244.403L716.04 243.097C715.165 242.399 714.087 241.955 712.731 241.955C709.992 241.955 707.9 244.048 707.9 246.799C707.9 249.563 709.967 251.655 712.731 251.655ZM721.783 251.655C724.534 251.655 726.626 249.563 726.626 246.799C726.626 244.048 724.534 241.955 721.783 241.955C719.018 241.955 716.939 244.048 716.939 246.799C716.939 249.563 719.018 251.655 721.783 251.655ZM721.783 250.108C719.982 250.108 718.587 248.676 718.587 246.799C718.587 244.935 719.982 243.502 721.783 243.502C723.583 243.502 724.965 244.935 724.965 246.799C724.965 248.676 723.583 250.108 721.783 250.108ZM727.636 251.529H733.963L734.369 249.994H730.895L731.884 248.853C733.545 247.027 734.128 246.241 734.128 244.935C734.128 243.173 732.772 241.955 730.92 241.955C729.462 241.955 728.346 242.653 727.471 243.946L728.625 244.948C729.209 243.971 729.969 243.502 730.857 243.502C731.833 243.502 732.48 244.136 732.48 245.062C732.48 246.038 731.884 246.761 729.919 248.967L727.636 251.529Z" fill="#3B4956"/>
<rect width="71" height="28" transform="translate(803 197)" fill="#EBEDEE"/>
<path d="M822.313 211.632H826.051V209.77H822.313V207.544H826.569L827.087 205.57H820.241V216H826.597L827.087 214.026H822.313V211.632ZM828.126 212.57H832.046V210.722H828.126V212.57ZM835.983 208.286C835.983 207.586 836.249 207.18 836.879 207.18C837.173 207.18 837.425 207.25 837.607 207.32L838.069 205.71C837.635 205.556 837.117 205.43 836.543 205.43C835.003 205.43 834.009 206.424 834.009 208.146V208.762H832.833V210.568H834.009V216H835.983V210.568H837.397L837.873 208.762H835.983V208.286ZM841.62 216.14C842.446 216.14 843.104 215.902 843.734 215.398V216H845.708V208.762H843.734V213.578C843.3 213.998 842.74 214.32 842.082 214.32C841.172 214.32 840.668 213.718 840.668 212.682V208.762H838.694V212.878C838.694 214.838 839.884 216.14 841.62 216.14ZM850.799 216.14C852.087 216.14 853.151 215.622 853.837 214.838L852.619 213.634C852.255 214.082 851.611 214.418 850.785 214.418C849.791 214.418 849.063 213.788 848.909 212.934H854.145C854.173 212.794 854.201 212.57 854.201 212.304C854.201 210.218 852.787 208.622 850.687 208.622C848.545 208.622 846.935 210.148 846.935 212.374C846.935 214.53 848.587 216.14 850.799 216.14ZM848.909 211.618C849.063 210.792 849.693 210.19 850.617 210.19C851.499 210.19 852.171 210.792 852.255 211.618H848.909ZM857.786 216.14C858.164 216.14 858.598 216.084 858.99 215.944L858.752 214.222C858.556 214.264 858.374 214.32 858.178 214.32C857.478 214.32 857.156 213.914 857.156 213.186V205.57H855.182V213.424C855.182 215.118 856.204 216.14 857.786 216.14ZM862.618 216.14C864.2 216.14 865.236 215.23 865.236 213.816C865.236 212.654 864.424 211.856 862.912 211.478C862.03 211.268 861.666 211.156 861.666 210.792C861.666 210.47 862.002 210.274 862.492 210.274C863.094 210.274 863.724 210.54 864.242 210.904L865.096 209.518C864.382 208.972 863.514 208.622 862.436 208.622C860.896 208.622 859.762 209.532 859.762 210.792C859.762 212.052 860.686 212.668 862.072 213.06C862.968 213.312 863.346 213.466 863.346 213.886C863.346 214.222 863.08 214.474 862.576 214.474C861.89 214.474 861.078 214.152 860.406 213.508L859.454 214.894C860.21 215.622 861.358 216.14 862.618 216.14Z" fill="#3B4956"/>
<path d="M874 197L894 211.483L874 225L874 197Z" fill="#EBEDEE"/>
<path d="M852.5 225L852.5 291.736L848.5 296.5L844.5 291.736L844.5 225L852.5 225Z" fill="#EBEDEE"/>
<path d="M813.165 320.64C814.775 320.64 816.231 320.052 817.267 318.974L816.021 317.42C815.279 318.176 814.439 318.652 813.235 318.652C811.345 318.652 809.917 317.182 809.917 315.278C809.917 313.388 811.345 311.918 813.235 311.918C814.327 311.918 814.999 312.324 815.699 312.94L816.931 311.26C815.965 310.448 814.733 309.93 813.165 309.93C810.113 309.93 807.803 312.24 807.803 315.278C807.803 318.33 810.113 320.64 813.165 320.64ZM821.785 320.64C823.969 320.64 825.621 319.016 825.621 316.874C825.621 314.732 823.969 313.122 821.785 313.122C819.587 313.122 817.935 314.732 817.935 316.874C817.935 319.016 819.587 320.64 821.785 320.64ZM821.785 318.82C820.721 318.82 819.923 318.008 819.923 316.874C819.923 315.754 820.721 314.942 821.785 314.942C822.835 314.942 823.619 315.754 823.619 316.874C823.619 318.008 822.835 318.82 821.785 318.82ZM835.618 313.122C834.484 313.122 833.756 313.472 833.07 314.046C832.538 313.458 831.81 313.122 830.928 313.122C830.102 313.122 829.444 313.36 828.814 313.864V313.262H826.84V320.5H828.814V315.684C829.248 315.264 829.808 314.942 830.466 314.942C831.376 314.942 831.88 315.544 831.88 316.58V320.5H833.854V316.384C833.854 316.09 833.812 315.796 833.756 315.53C834.134 315.208 834.638 314.942 835.226 314.942C836.136 314.942 836.64 315.544 836.64 316.58V320.5H838.6V316.384C838.6 314.424 837.368 313.122 835.618 313.122ZM843.857 320.64C845.943 320.64 847.539 319.016 847.539 316.874C847.539 314.732 845.943 313.122 843.885 313.122C843.157 313.122 842.527 313.318 841.967 313.752V310.07H839.993V320.5H841.967V319.954C842.471 320.444 843.143 320.64 843.857 320.64ZM843.591 318.862C842.947 318.862 842.345 318.61 841.967 318.162V315.6C842.345 315.152 842.947 314.9 843.591 314.9C844.669 314.9 845.537 315.712 845.537 316.874C845.537 318.05 844.669 318.862 843.591 318.862ZM851.598 320.64C852.424 320.64 853.082 320.402 853.712 319.898V320.5H855.686V313.262H853.712V318.078C853.278 318.498 852.718 318.82 852.06 318.82C851.15 318.82 850.646 318.218 850.646 317.182V313.262H848.672V317.378C848.672 319.338 849.862 320.64 851.598 320.64ZM859.923 320.64C861.505 320.64 862.541 319.73 862.541 318.316C862.541 317.154 861.729 316.356 860.217 315.978C859.335 315.768 858.971 315.656 858.971 315.292C858.971 314.97 859.307 314.774 859.797 314.774C860.399 314.774 861.029 315.04 861.547 315.404L862.401 314.018C861.687 313.472 860.819 313.122 859.741 313.122C858.201 313.122 857.067 314.032 857.067 315.292C857.067 316.552 857.991 317.168 859.377 317.56C860.273 317.812 860.651 317.966 860.651 318.386C860.651 318.722 860.385 318.974 859.881 318.974C859.195 318.974 858.383 318.652 857.711 318.008L856.759 319.394C857.515 320.122 858.663 320.64 859.923 320.64ZM868.364 318.54C868.07 318.722 867.762 318.89 867.37 318.89C866.81 318.89 866.292 318.498 866.292 317.574V315.068H867.86L868.336 313.262H866.292V310.952H864.318V313.262H863.086V315.068H864.318V317.854C864.318 319.702 865.466 320.64 867.062 320.64C867.678 320.64 868.224 320.5 868.938 320.122L868.364 318.54ZM870.901 312.156C871.545 312.156 872.077 311.624 872.077 311.022C872.077 310.434 871.545 309.888 870.901 309.888C870.257 309.888 869.725 310.434 869.725 311.022C869.725 311.624 870.257 312.156 870.901 312.156ZM869.907 320.5H871.881V313.262H869.907V320.5ZM876.964 320.64C879.148 320.64 880.8 319.016 880.8 316.874C880.8 314.732 879.148 313.122 876.964 313.122C874.766 313.122 873.114 314.732 873.114 316.874C873.114 319.016 874.766 320.64 876.964 320.64ZM876.964 318.82C875.9 318.82 875.102 318.008 875.102 316.874C875.102 315.754 875.9 314.942 876.964 314.942C878.014 314.942 878.798 315.754 878.798 316.874C878.798 318.008 878.014 318.82 876.964 318.82ZM886.108 313.122C885.282 313.122 884.624 313.36 883.994 313.864V313.262H882.02V320.5H883.994V315.684C884.428 315.264 884.988 314.942 885.646 314.942C886.556 314.942 887.06 315.544 887.06 316.58V320.5H889.034V316.384C889.034 314.424 887.844 313.122 886.108 313.122ZM827.083 340.64C828.371 340.64 829.435 340.122 830.121 339.338L828.903 338.134C828.539 338.582 827.895 338.918 827.069 338.918C826.075 338.918 825.347 338.288 825.193 337.434H830.429C830.457 337.294 830.485 337.07 830.485 336.804C830.485 334.718 829.071 333.122 826.971 333.122C824.829 333.122 823.219 334.648 823.219 336.874C823.219 339.03 824.871 340.64 827.083 340.64ZM825.193 336.118C825.347 335.292 825.977 334.69 826.901 334.69C827.783 334.69 828.455 335.292 828.539 336.118H825.193ZM835.652 333.122C834.826 333.122 834.168 333.36 833.538 333.864V333.262H831.564V340.5H833.538V335.684C833.972 335.264 834.532 334.942 835.19 334.942C836.1 334.942 836.604 335.544 836.604 336.58V340.5H838.578V336.384C838.578 334.424 837.388 333.122 835.652 333.122ZM842.395 343.44C845.419 343.398 847.295 341.844 847.295 338.68V333.262H845.321V333.78C844.803 333.346 844.173 333.122 843.403 333.122C841.303 333.122 839.721 334.746 839.721 336.818C839.721 338.862 841.247 340.374 843.361 340.374C844.131 340.374 844.775 340.15 845.293 339.688C845.097 341.088 844.033 341.676 842.395 341.746V343.44ZM843.669 338.764C842.577 338.764 841.709 337.952 841.709 336.79C841.709 335.684 842.577 334.858 843.669 334.858C844.425 334.858 845.027 335.208 845.321 335.642V337.98C845.027 338.428 844.425 338.764 843.669 338.764ZM849.743 332.156C850.387 332.156 850.919 331.624 850.919 331.022C850.919 330.434 850.387 329.888 849.743 329.888C849.099 329.888 848.567 330.434 848.567 331.022C848.567 331.624 849.099 332.156 849.743 332.156ZM848.749 340.5H850.723V333.262H848.749V340.5ZM856.269 333.122C855.443 333.122 854.785 333.36 854.155 333.864V333.262H852.181V340.5H854.155V335.684C854.589 335.264 855.149 334.942 855.807 334.942C856.717 334.942 857.221 335.544 857.221 336.58V340.5H859.195V336.384C859.195 334.424 858.005 333.122 856.269 333.122ZM864.202 340.64C865.49 340.64 866.554 340.122 867.24 339.338L866.022 338.134C865.658 338.582 865.014 338.918 864.188 338.918C863.194 338.918 862.466 338.288 862.312 337.434H867.548C867.576 337.294 867.604 337.07 867.604 336.804C867.604 334.718 866.19 333.122 864.09 333.122C861.948 333.122 860.338 334.648 860.338 336.874C860.338 339.03 861.99 340.64 864.202 340.64ZM862.312 336.118C862.466 335.292 863.096 334.69 864.02 334.69C864.902 334.69 865.574 335.292 865.658 336.118H862.312ZM871.305 340.64C872.887 340.64 873.923 339.73 873.923 338.316C873.923 337.154 873.111 336.356 871.599 335.978C870.717 335.768 870.353 335.656 870.353 335.292C870.353 334.97 870.689 334.774 871.179 334.774C871.781 334.774 872.411 335.04 872.929 335.404L873.783 334.018C873.069 333.472 872.201 333.122 871.123 333.122C869.583 333.122 868.449 334.032 868.449 335.292C868.449 336.552 869.373 337.168 870.759 337.56C871.655 337.812 872.033 337.966 872.033 338.386C872.033 338.722 871.767 338.974 871.263 338.974C870.577 338.974 869.765 338.652 869.093 338.008L868.141 339.394C868.897 340.122 870.045 340.64 871.305 340.64Z" fill="#3B4956"/>
</svg>
