<?xml version="1.0" encoding="UTF-8"?>
<svg width="167px" height="71px" viewBox="0 0 167 71" version="1.1" xmlns="http://www.w3.org/2000/svg" xmlns:xlink="http://www.w3.org/1999/xlink">
    <!-- Generator: Sketch 60.1 (88133) - https://sketch.com -->
    <title>step1</title>
    <desc>Created with Sketch.</desc>
    <g id="Page-1" stroke="none" stroke-width="1" fill="none" fill-rule="evenodd">
        <g id="Artboard" transform="translate(-40.000000, -261.000000)">
            <g id="step1" transform="translate(40.000000, 261.000000)">
                <path d="M5.5,38 C7.98547629,38 10,35.9850459 10,33.4990387 C10,31.0149541 7.98547629,29 5.5,29 C3.01452371,29 1,31.0149541 1,33.4990387 C1,35.9850459 3.01452371,38 5.5,38" id="Fill-161-Copy-2" fill="#41A1D9"></path>
                <path d="M161.905018,70.0995026 C164.373473,70.0995026 166.3742,68.0862395 166.3742,65.6023184 C166.3742,63.1203184 164.373473,61.1070553 161.905018,61.1070553 C159.436564,61.1070553 157.435836,63.1203184 157.435836,65.6023184 C157.435836,68.0862395 159.436564,70.0995026 161.905018,70.0995026" id="Fill-164" fill="#41A1D9"></path>
                <path d="M5.20530909,70.0995026 C7.67376364,70.0995026 9.67449091,68.0862395 9.67449091,65.6023184 C9.67449091,63.1203184 7.67376364,61.1070553 5.20530909,61.1070553 C2.73685455,61.1070553 0.736127273,63.1203184 0.736127273,65.6023184 C0.736127273,68.0862395 2.73685455,70.0995026 5.20530909,70.0995026" id="Fill-166" fill="#41A1D9"></path>
                <path d="M82.8014545,31.1964579 C82.6869091,31.2502474 82.5723636,31.3078789 82.4578182,31.3635895 C81.887,31.6459842 81.2970909,31.9379842 80.3501818,31.9379842 C79.2238182,31.9379842 78.6625455,31.5806684 78.1585455,31.2598526 L78.1050909,31.2271947 C77.6602727,30.9640105 77.2421818,30.7161947 76.4098182,30.7161947 C75.5755455,30.7161947 75.1574545,30.9640105 74.7145455,31.2271947 L74.6534545,31.2636947 C74.1819091,31.5633789 73.5958182,31.9379842 72.4675455,31.9379842 C71.3430909,31.9379842 70.7550909,31.5633789 70.2778182,31.2598526 L70.2243636,31.2271947 C69.7795455,30.9640105 69.3595455,30.7161947 68.5271818,30.7161947 C67.6680909,30.7161947 67.2213636,30.9275105 66.7192727,31.2099053 C66.2458182,31.5095895 65.6559091,31.8841947 64.5333636,31.8841947 C63.4089091,31.8841947 62.8209091,31.5095895 62.3417273,31.2060632 L62.2863636,31.1734053 C61.8434545,30.9102211 61.4253636,30.6624053 60.6197273,30.6624053 L60.4154545,30.6624053 L60.4154545,33.1905105 L60.6197273,33.1905105 C61.1542727,33.1905105 61.433,33.3518789 61.8281818,33.6169842 L61.9923636,33.7130368 C62.5326364,34.0319316 63.2733636,34.4660895 64.5333636,34.4660895 C65.8601818,34.4660895 66.5970909,34.0473 67.2328182,33.6208263 L67.2862727,33.5862474 C67.6795455,33.3384316 67.9143636,33.1905105 68.5271818,33.1905105 C69.1342727,33.1905105 69.4454545,33.3672474 69.8310909,33.6246684 L69.9819091,33.7130368 C70.5221818,34.0319316 71.2629091,34.4660895 72.5229091,34.4660895 C73.8516364,34.4660895 74.5866364,34.0473 75.2204545,33.6208263 L75.2758182,33.5862474 C75.6671818,33.3384316 75.9039091,33.1905105 76.5167273,33.1905105 C77.1238182,33.1905105 77.435,33.3672474 77.8206364,33.6246684 L77.9714545,33.7130368 C78.5117273,34.0319316 79.2505455,34.4660895 80.5105455,34.4660895 C81.8392727,34.4660895 82.5742727,34.0473 83.2157273,33.6169842 C83.5326364,33.4037474 83.7426364,33.2635105 84.1015455,33.2154842 L84.2771818,33.1905105 L84.2771818,30.6547211 L84.0423636,30.6912211 C83.5097273,30.7757474 83.168,30.9678526 82.8014545,31.1964579" id="Fill-168" fill="#41A1D9"></path>
                <path d="M73.9541545,13.6535974 C73.9541545,14.5468868 73.2344273,15.2692026 72.3467,15.2692026 C71.4589727,15.2692026 70.7392455,14.5468868 70.7392455,13.6535974 C70.7392455,12.7603079 71.4589727,12.0360711 72.3467,12.0360711 C73.2344273,12.0360711 73.9541545,12.7603079 73.9541545,13.6535974" id="Fill-170" fill="#41A1D9"></path>
                <path d="M68.1925182,0.205268421 L69.7484273,8.2564 C70.0806091,9.96613684 71.7243364,11.0803474 73.4215182,10.7480053 L71.8656091,2.69879474 C71.5353364,0.989057895 69.8916091,-0.127073684 68.1925182,0.205268421" id="Fill-172" fill="#41A1D9"></path>
                <path d="M62.8883,24.0328526 L69.0183909,18.6289316 C70.3223,17.4820632 70.4502091,15.4899316 69.3123909,14.1797737 L63.1803909,19.5856158 C61.8803,20.7324842 61.7485727,22.7226947 62.8883,24.0328526" id="Fill-174" fill="#41A1D9"></path>
                <path d="M86.0201818,16.6571632 L78.2940909,14.0445316 C76.6541818,13.4893474 74.8787273,14.3768737 74.327,16.0289789 L82.0530909,18.6416105 C83.693,19.1948737 85.4684545,18.3073474 86.0201818,16.6571632" id="Fill-176" fill="#41A1D9"></path>
                <path d="M72.3489909,29.9001316 C73.0419909,29.9001316 73.7502636,29.6158158 74.4031727,29.0875263 C74.2523545,24.8573684 73.9640818,19.2651842 73.6872636,18.1509737 C73.2749,16.4988684 71.4192636,16.4988684 71.0069,18.1509737 C70.7319909,19.2555789 70.4475364,24.7709211 70.2948091,28.9895526 C70.9152636,29.5236053 71.6235364,29.9001316 72.3489909,29.9001316" id="Fill-178" fill="#41A1D9"></path>
                <line x1="49" y1="33" x2="5" y2="33" id="Stroke-160-Copy-2" stroke="#41A1D9" stroke-width="0.9"></line>
                <line x1="162" y1="65" x2="5" y2="65" id="Stroke-163-Copy-2" stroke="#41A1D9" stroke-width="0.9"></line>
            </g>
        </g>
    </g>
</svg>